%!PS-Adobe-3.0 EPSF-3.0
%%BoundingBox: 0 0 1000 861
%%Title: MapaCalibrado.cod
%%Creator: umat V1.0
%%CreationDate: Thu Dec 15 16:13:34 2016
%%Pages: 0
%%DocumentFonts: Helvetica
%%DocumentNeededFonts: Helvetica
%%EndComments
%
% PS header for umat - SOM to PS converter
% Version 1.0 Tue Feb 28 1995
% Author: Jussi Hynninen <hynde@nucleus.hut.fi>
100 dict begin

% predefine variables
/yoff 0 def /xoff 0 def /xstep 0 def /ystep 0 def /y 0 def /radius 0 def
/doborder false def
% default font
/fontname /Helvetica def
% font size relative to radius
/fontsize 1.0 def

% default black and white tresholds
/bt 0.0 def /wt 1.0 def

% labelpallon sade suhteessa hexan sateeseen
/ballrad 0.2 def

% newline function. Moves the y coordinate to the next line
/NL 
{ /yoff yoff ystep sub def % next row
  /y y 1 add def % add y by one
  } bind def

% start of line (for hexagonal lattice) - moves the current position in 
% x direction to the correct place of the line
/XSH
{ xoff 
  y 4 mod
  dup 3 eq {pop 1} if
  xstep 2 div mul
  add
  yoff moveto % move to start of line
} bind def

% start of line (for rectangular lattice) - moves the current position in 
% x direction to the correct place of the line
/XSR { xoff yoff moveto } bind def

% set label color. If block is light -> label is black and same for dark block
/sbc { .5 gt {0} {1} ifelse setgray } bind def

% set gray level
/G { 
  100 div dup bt le {pop 0}
  { dup wt ge {pop 1} {bt sub wt bt sub div} ifelse
  } ifelse
} bind def

% unlabelled node
/LN { 
  gsave
  G sbc
  currentpoint radius ballrad mul 0 360 arc fill 
  grestore
  xstep 2 mul 0 rmoveto
} bind def

%select font
/selfont {
  fontname findfont radius fontsize mul scalefont setfont
} bind def

% print single label

/LAB { 
  gsave
  G sbc
  dup %duplicate string  
  stringwidth
  pop fontsize radius mul -0.25 mul exch
  -2 div exch
  rmoveto
  show
  grestore
  xstep 2 mul 0 rmoveto
} bind def

% print multiple labels on one unit
/ML {
  gsave
  G sbc
  /numlabs exch def %number of labels
  numlabs
  2 div 
  0.25 sub
  radius fontsize mul mul neg
  0 exch rmoveto
  1 1 numlabs {
    pop
    gsave
    dup %duplicate string  
    stringwidth
    pop 
    -2 div 0
    rmoveto
    show
    grestore
    0 fontsize radius mul rmoveto
  } for 
  grestore
  xstep 2 mul 0 rmoveto
} bind def

% print hexagon
/H { 
  gsave
  G dup setgray %duplicate gray level
  currentpoint translate
  newpath 0 radius moveto
  5 {60 rotate 0 radius lineto} repeat
  closepath
  doborder { gsave fill grestore sbc stroke}
           { fill pop } ifelse
  grestore  
  xstep 0 rmoveto
} bind def

% print rectangle
/R {
  gsave
  G dup setgray %duplicate gray level
  currentpoint translate
  newpath
  xstep 0.5 mul dup moveto
  xstep neg 0 rlineto
  0 xstep neg rlineto
  xstep 0 rlineto
  closepath
  doborder { gsave fill grestore sbc stroke}
           { fill pop } ifelse
  grestore  
  xstep 0 rmoveto
} bind def

1 setlinewidth

% End of umat PS header
% Start image


/radius 5.773503 def
/xstep 10.000000 def
/ystep 8.660254 def
%%IncludeFont: Helvetica
/fontname /Helvetica def
selfont
/doborder false def
/wt 1.000000 def /bt 0.000000 def
/y 0 def
/xoff 5.000000 def
/yoff 854.478450 def
XSH 27 H 2 H 8 H 33 H 21 H 18 H 18 H 25 H 31 H 33 H 26 H 20 H 16 H 0 H 32 H 17 H 24 H 35 H 25 H 16 H 31 H 29 H 28 H 19 H 34 H 22 H 28 H 26 H 41 H 45 H 54 H 56 H 47 H 44 H 45 H 44 H 54 H 52 H 64 H 66 H 70 H 69 H 78 H 76 H 87 H 85 H 85 H 81 H 80 H 81 H 80 H 78 H 78 H 78 H 85 H 90 H 89 H 91 H 89 H 89 H 90 H 89 H 91 H 91 H 91 H 92 H 91 H 91 H 93 H 95 H 95 H 95 H 95 H 93 H 93 H 88 H 87 H 84 H 82 H 80 H 82 H 79 H 79 H 80 H 71 H 71 H 65 H 52 H 53 H 41 H 46 H 36 H 35 H 35 H 35 H 50 H 39 H 14 H 24 H NL
XSH 51 H 11 H 6 H 24 H 18 H 17 H 9 H 30 H 51 H 43 H 20 H 36 H 12 H 46 H 52 H 32 H 14 H 9 H 39 H 54 H 32 H 44 H 27 H 46 H 55 H 30 H 41 H 41 H 41 H 52 H 64 H 45 H 49 H 46 H 60 H 57 H 67 H 62 H 66 H 72 H 71 H 80 H 81 H 88 H 88 H 89 H 85 H 79 H 74 H 80 H 80 H 82 H 78 H 84 H 85 H 89 H 88 H 89 H 90 H 90 H 91 H 92 H 92 H 93 H 91 H 93 H 91 H 93 H 92 H 94 H 96 H 94 H 96 H 95 H 92 H 88 H 87 H 82 H 82 H 86 H 85 H 76 H 84 H 72 H 66 H 62 H 69 H 54 H 57 H 56 H 51 H 45 H 28 H 29 H 36 H 29 H 52 H 24 H 54 H NL
XSH 22 H 20 H 20 H 12 H 18 H 8 H 24 H 22 H 42 H 45 H 30 H 29 H 34 H 40 H 42 H 39 H 31 H 39 H 46 H 45 H 41 H 30 H 37 H 40 H 44 H 50 H 47 H 49 H 51 H 59 H 61 H 73 H 59 H 59 H 62 H 72 H 73 H 75 H 74 H 77 H 80 H 81 H 86 H 87 H 87 H 87 H 83 H 84 H 84 H 89 H 85 H 85 H 87 H 89 H 89 H 93 H 93 H 93 H 91 H 91 H 93 H 93 H 93 H 92 H 94 H 95 H 94 H 93 H 94 H 95 H 95 H 96 H 96 H 94 H 94 H 94 H 91 H 89 H 85 H 84 H 83 H 83 H 83 H 81 H 75 H 69 H 69 H 68 H 61 H 60 H 55 H 45 H 39 H 36 H 36 H 25 H 38 H 49 H 49 H NL
XSH 22 H 48 H 39 H 19 H 25 H 38 H 26 H 26 H 41 H 40 H 31 H 18 H 24 H 49 H 43 H 48 H 51 H 23 H 51 H 47 H 47 H 38 H 46 H 34 H 38 H 48 H 46 H 52 H 50 H 62 H 54 H 63 H 60 H 72 H 63 H 65 H 78 H 76 H 74 H 77 H 81 H 80 H 87 H 85 H 85 H 81 H 82 H 82 H 84 H 87 H 85 H 85 H 89 H 93 H 90 H 90 H 93 H 93 H 91 H 91 H 95 H 93 H 94 H 93 H 95 H 94 H 94 H 95 H 95 H 96 H 95 H 95 H 96 H 96 H 94 H 95 H 94 H 93 H 89 H 84 H 85 H 83 H 88 H 83 H 82 H 80 H 76 H 78 H 63 H 66 H 65 H 66 H 43 H 58 H 40 H 49 H 54 H 28 H 38 H NL
XSH 34 H 34 H 34 H 33 H 28 H 37 H 31 H 14 H 26 H 35 H 36 H 31 H 34 H 47 H 45 H 39 H 44 H 25 H 35 H 28 H 47 H 40 H 41 H 51 H 42 H 52 H 44 H 30 H 50 H 51 H 57 H 61 H 62 H 62 H 66 H 69 H 73 H 74 H 75 H 76 H 78 H 73 H 87 H 86 H 87 H 89 H 89 H 89 H 89 H 89 H 90 H 92 H 90 H 88 H 93 H 92 H 93 H 92 H 93 H 96 H 95 H 92 H 94 H 95 H 95 H 94 H 94 H 94 H 95 H 95 H 96 H 97 H 97 H 97 H 97 H 97 H 95 H 94 H 94 H 87 H 87 H 87 H 86 H 83 H 83 H 85 H 78 H 72 H 71 H 67 H 66 H 65 H 66 H 59 H 54 H 44 H 50 H 28 H 34 H NL
XSH 40 H 31 H 13 H 28 H 28 H 21 H 52 H 3 H 27 H 50 H 38 H 36 H 41 H 44 H 45 H 29 H 55 H 48 H 42 H 54 H 52 H 43 H 32 H 23 H 47 H 42 H 34 H 42 H 50 H 59 H 53 H 67 H 73 H 63 H 72 H 73 H 75 H 70 H 79 H 80 H 81 H 88 H 87 H 91 H 88 H 90 H 91 H 95 H 90 H 92 H 92 H 93 H 90 H 94 H 95 H 93 H 93 H 94 H 94 H 97 H 95 H 94 H 94 H 95 H 96 H 95 H 96 H 95 H 97 H 96 H 96 H 97 H 97 H 98 H 97 H 97 H 96 H 94 H 94 H 88 H 88 H 88 H 84 H 83 H 84 H 86 H 76 H 76 H 71 H 69 H 72 H 71 H 67 H 57 H 51 H 55 H 50 H 48 H 34 H NL
XSH 33 H 30 H 34 H 38 H 28 H 15 H 31 H 28 H 33 H 32 H 37 H 37 H 40 H 39 H 41 H 42 H 51 H 55 H 52 H 52 H 52 H 48 H 37 H 38 H 49 H 72 H 40 H 58 H 58 H 62 H 63 H 64 H 62 H 61 H 75 H 79 H 77 H 82 H 81 H 91 H 88 H 88 H 90 H 90 H 90 H 90 H 91 H 91 H 93 H 95 H 94 H 94 H 94 H 94 H 94 H 95 H 94 H 94 H 96 H 97 H 96 H 97 H 96 H 96 H 96 H 96 H 97 H 97 H 97 H 97 H 96 H 96 H 97 H 97 H 97 H 95 H 95 H 94 H 94 H 90 H 89 H 90 H 84 H 80 H 84 H 77 H 77 H 81 H 76 H 69 H 70 H 66 H 62 H 59 H 61 H 64 H 49 H 44 H 44 H NL
XSH 39 H 33 H 40 H 54 H 37 H 28 H 40 H 34 H 37 H 35 H 35 H 68 H 43 H 40 H 40 H 44 H 39 H 54 H 53 H 47 H 59 H 52 H 48 H 36 H 72 H 51 H 38 H 38 H 55 H 72 H 61 H 66 H 60 H 56 H 78 H 77 H 69 H 80 H 88 H 80 H 83 H 90 H 91 H 90 H 90 H 90 H 92 H 91 H 95 H 94 H 95 H 95 H 96 H 95 H 95 H 93 H 96 H 96 H 96 H 96 H 96 H 96 H 98 H 97 H 97 H 98 H 97 H 97 H 97 H 98 H 96 H 97 H 98 H 97 H 97 H 96 H 97 H 95 H 96 H 93 H 89 H 92 H 88 H 84 H 87 H 84 H 75 H 81 H 80 H 85 H 68 H 74 H 78 H 54 H 74 H 63 H 52 H 42 H 52 H NL
XSH 31 H 31 H 37 H 40 H 41 H 41 H 37 H 60 H 37 H 38 H 36 H 39 H 47 H 52 H 42 H 30 H 36 H 45 H 51 H 50 H 46 H 43 H 51 H 57 H 57 H 56 H 44 H 50 H 47 H 61 H 66 H 72 H 69 H 72 H 75 H 79 H 74 H 72 H 81 H 82 H 85 H 89 H 91 H 91 H 91 H 94 H 95 H 95 H 95 H 95 H 95 H 95 H 95 H 94 H 95 H 91 H 96 H 97 H 96 H 95 H 96 H 97 H 97 H 97 H 97 H 97 H 97 H 96 H 96 H 96 H 96 H 97 H 96 H 96 H 97 H 98 H 96 H 95 H 96 H 94 H 94 H 88 H 89 H 88 H 88 H 87 H 84 H 79 H 80 H 83 H 78 H 77 H 75 H 63 H 66 H 68 H 60 H 58 H 52 H NL
XSH 23 H 31 H 45 H 59 H 38 H 35 H 31 H 34 H 37 H 38 H 28 H 42 H 59 H 44 H 60 H 31 H 32 H 48 H 52 H 46 H 42 H 59 H 50 H 58 H 34 H 37 H 37 H 43 H 37 H 61 H 76 H 61 H 71 H 81 H 70 H 69 H 77 H 81 H 85 H 89 H 87 H 91 H 93 H 92 H 94 H 95 H 95 H 96 H 96 H 96 H 95 H 97 H 95 H 97 H 94 H 96 H 97 H 97 H 96 H 95 H 98 H 97 H 98 H 97 H 98 H 96 H 98 H 97 H 96 H 95 H 97 H 95 H 95 H 97 H 96 H 96 H 95 H 97 H 96 H 95 H 95 H 90 H 93 H 88 H 90 H 85 H 85 H 84 H 75 H 75 H 79 H 85 H 72 H 74 H 60 H 61 H 56 H 58 H 47 H NL
XSH 29 H 40 H 43 H 35 H 36 H 20 H 33 H 36 H 38 H 33 H 26 H 24 H 33 H 35 H 36 H 33 H 47 H 54 H 49 H 36 H 53 H 57 H 56 H 50 H 44 H 49 H 49 H 50 H 50 H 51 H 62 H 72 H 74 H 73 H 76 H 83 H 81 H 85 H 88 H 87 H 91 H 92 H 93 H 94 H 95 H 95 H 95 H 95 H 96 H 95 H 96 H 97 H 96 H 93 H 96 H 96 H 97 H 97 H 96 H 96 H 97 H 97 H 97 H 97 H 97 H 95 H 97 H 98 H 96 H 96 H 96 H 97 H 97 H 98 H 96 H 96 H 96 H 97 H 96 H 95 H 94 H 93 H 92 H 92 H 89 H 86 H 85 H 78 H 77 H 72 H 81 H 69 H 71 H 69 H 67 H 70 H 58 H 54 H 54 H NL
XSH 29 H 24 H 37 H 53 H 50 H 36 H 39 H 24 H 48 H 40 H 18 H 23 H 31 H 31 H 38 H 64 H 47 H 47 H 48 H 49 H 50 H 59 H 58 H 55 H 40 H 58 H 55 H 49 H 50 H 47 H 58 H 63 H 74 H 85 H 78 H 80 H 81 H 81 H 90 H 89 H 91 H 91 H 92 H 95 H 95 H 95 H 98 H 95 H 97 H 96 H 97 H 96 H 97 H 93 H 98 H 97 H 97 H 97 H 97 H 97 H 96 H 98 H 97 H 98 H 97 H 98 H 96 H 96 H 96 H 98 H 96 H 96 H 94 H 97 H 98 H 95 H 97 H 96 H 98 H 95 H 95 H 92 H 93 H 92 H 92 H 88 H 88 H 87 H 80 H 79 H 83 H 84 H 71 H 73 H 66 H 70 H 59 H 67 H 61 H NL
XSH 29 H 24 H 25 H 29 H 29 H 28 H 32 H 17 H 45 H 48 H 41 H 46 H 37 H 25 H 35 H 33 H 55 H 54 H 48 H 48 H 50 H 50 H 50 H 50 H 54 H 53 H 61 H 70 H 63 H 65 H 61 H 64 H 69 H 78 H 82 H 82 H 82 H 82 H 88 H 88 H 90 H 90 H 93 H 95 H 95 H 96 H 96 H 95 H 96 H 97 H 97 H 94 H 95 H 94 H 97 H 97 H 97 H 96 H 97 H 97 H 97 H 97 H 97 H 96 H 97 H 97 H 97 H 96 H 96 H 96 H 96 H 98 H 97 H 95 H 97 H 97 H 97 H 97 H 96 H 96 H 95 H 94 H 94 H 93 H 92 H 92 H 91 H 89 H 88 H 89 H 86 H 86 H 85 H 78 H 78 H 77 H 72 H 63 H 67 H NL
XSH 40 H 26 H 21 H 29 H 28 H 27 H 36 H 49 H 42 H 42 H 39 H 44 H 57 H 51 H 47 H 61 H 56 H 65 H 45 H 54 H 58 H 43 H 43 H 64 H 56 H 68 H 64 H 61 H 67 H 52 H 63 H 60 H 74 H 83 H 84 H 83 H 82 H 89 H 88 H 92 H 90 H 94 H 93 H 94 H 96 H 96 H 96 H 96 H 96 H 97 H 95 H 95 H 95 H 96 H 97 H 97 H 97 H 97 H 98 H 99 H 99 H 97 H 98 H 97 H 97 H 97 H 96 H 98 H 98 H 96 H 96 H 97 H 98 H 96 H 97 H 97 H 96 H 97 H 96 H 96 H 93 H 96 H 94 H 94 H 91 H 93 H 92 H 91 H 87 H 87 H 86 H 89 H 86 H 86 H 83 H 77 H 75 H 68 H 73 H NL
XSH 32 H 39 H 34 H 31 H 27 H 24 H 41 H 46 H 42 H 39 H 46 H 50 H 60 H 66 H 65 H 65 H 65 H 60 H 63 H 71 H 65 H 64 H 67 H 69 H 63 H 62 H 62 H 54 H 58 H 56 H 64 H 72 H 79 H 80 H 83 H 78 H 87 H 92 H 92 H 91 H 94 H 94 H 95 H 96 H 96 H 96 H 96 H 96 H 96 H 95 H 95 H 95 H 96 H 95 H 97 H 96 H 97 H 96 H 98 H 98 H 97 H 97 H 97 H 96 H 97 H 96 H 97 H 98 H 97 H 97 H 97 H 96 H 96 H 97 H 96 H 96 H 96 H 97 H 96 H 94 H 95 H 94 H 94 H 93 H 93 H 94 H 92 H 90 H 89 H 84 H 88 H 88 H 87 H 85 H 81 H 79 H 76 H 68 H 68 H NL
XSH 25 H 32 H 50 H 37 H 12 H 37 H 45 H 28 H 37 H 46 H 49 H 54 H 63 H 66 H 67 H 71 H 71 H 70 H 66 H 78 H 75 H 65 H 69 H 73 H 65 H 58 H 78 H 53 H 61 H 62 H 64 H 66 H 79 H 82 H 86 H 83 H 85 H 92 H 93 H 95 H 95 H 94 H 95 H 96 H 96 H 96 H 98 H 96 H 97 H 95 H 99 H 97 H 97 H 97 H 97 H 98 H 97 H 98 H 96 H 98 H 97 H 97 H 97 H 98 H 98 H 97 H 97 H 96 H 96 H 97 H 97 H 98 H 96 H 96 H 95 H 93 H 95 H 95 H 97 H 95 H 97 H 96 H 95 H 94 H 93 H 94 H 94 H 91 H 92 H 91 H 88 H 91 H 88 H 87 H 85 H 79 H 77 H 78 H 68 H NL
XSH 30 H 30 H 30 H 27 H 36 H 35 H 41 H 33 H 37 H 49 H 49 H 48 H 57 H 56 H 64 H 68 H 72 H 73 H 69 H 69 H 76 H 75 H 73 H 82 H 73 H 81 H 67 H 53 H 59 H 64 H 68 H 72 H 77 H 82 H 83 H 85 H 86 H 86 H 93 H 94 H 94 H 95 H 95 H 97 H 96 H 96 H 96 H 96 H 97 H 97 H 97 H 97 H 97 H 96 H 97 H 96 H 97 H 97 H 97 H 97 H 97 H 96 H 97 H 97 H 97 H 95 H 97 H 97 H 97 H 97 H 97 H 97 H 97 H 97 H 96 H 95 H 95 H 96 H 96 H 97 H 96 H 94 H 95 H 94 H 93 H 91 H 94 H 94 H 93 H 90 H 89 H 88 H 89 H 89 H 86 H 83 H 81 H 73 H 73 H NL
XSH 35 H 31 H 25 H 48 H 45 H 60 H 53 H 47 H 38 H 61 H 50 H 58 H 59 H 62 H 50 H 73 H 74 H 67 H 78 H 76 H 76 H 78 H 72 H 71 H 72 H 69 H 66 H 68 H 58 H 71 H 77 H 76 H 85 H 82 H 84 H 90 H 88 H 90 H 95 H 94 H 94 H 96 H 96 H 96 H 95 H 95 H 96 H 99 H 98 H 99 H 96 H 98 H 97 H 97 H 98 H 96 H 99 H 97 H 97 H 97 H 97 H 97 H 98 H 97 H 96 H 96 H 96 H 98 H 98 H 98 H 98 H 97 H 96 H 97 H 96 H 97 H 97 H 95 H 97 H 97 H 95 H 96 H 95 H 96 H 93 H 95 H 94 H 94 H 94 H 89 H 90 H 91 H 89 H 85 H 88 H 87 H 86 H 77 H 73 H NL
XSH 35 H 19 H 24 H 54 H 53 H 53 H 56 H 66 H 61 H 60 H 63 H 73 H 68 H 67 H 68 H 71 H 70 H 69 H 77 H 76 H 78 H 78 H 78 H 81 H 77 H 74 H 74 H 76 H 78 H 79 H 78 H 77 H 81 H 87 H 88 H 91 H 92 H 93 H 95 H 98 H 97 H 97 H 96 H 96 H 96 H 96 H 97 H 98 H 98 H 96 H 97 H 97 H 97 H 98 H 97 H 96 H 97 H 96 H 97 H 98 H 97 H 97 H 97 H 96 H 96 H 96 H 97 H 97 H 97 H 98 H 97 H 97 H 96 H 96 H 96 H 96 H 97 H 96 H 97 H 95 H 95 H 94 H 95 H 94 H 94 H 93 H 93 H 92 H 92 H 91 H 91 H 90 H 88 H 89 H 88 H 87 H 81 H 80 H 80 H NL
XSH 37 H 44 H 21 H 23 H 58 H 48 H 61 H 59 H 57 H 64 H 65 H 68 H 68 H 74 H 67 H 68 H 68 H 75 H 81 H 80 H 82 H 82 H 88 H 79 H 82 H 81 H 74 H 73 H 84 H 84 H 79 H 83 H 79 H 81 H 87 H 90 H 92 H 93 H 96 H 97 H 97 H 97 H 96 H 96 H 98 H 98 H 97 H 97 H 98 H 96 H 98 H 97 H 98 H 98 H 99 H 97 H 97 H 98 H 96 H 99 H 97 H 97 H 97 H 96 H 96 H 97 H 97 H 97 H 96 H 96 H 96 H 96 H 96 H 96 H 96 H 97 H 97 H 98 H 96 H 97 H 96 H 95 H 96 H 95 H 93 H 94 H 94 H 93 H 94 H 92 H 93 H 88 H 88 H 83 H 89 H 86 H 82 H 75 H 80 H NL
XSH 39 H 55 H 33 H 20 H 48 H 44 H 54 H 52 H 63 H 67 H 65 H 73 H 70 H 72 H 71 H 67 H 71 H 73 H 82 H 87 H 86 H 85 H 87 H 85 H 82 H 78 H 82 H 82 H 81 H 81 H 80 H 79 H 79 H 83 H 86 H 87 H 92 H 94 H 96 H 97 H 97 H 96 H 97 H 97 H 97 H 97 H 97 H 97 H 97 H 97 H 96 H 96 H 98 H 98 H 97 H 97 H 97 H 97 H 97 H 97 H 97 H 97 H 97 H 97 H 96 H 96 H 96 H 97 H 97 H 97 H 96 H 97 H 96 H 96 H 96 H 96 H 97 H 97 H 96 H 96 H 96 H 93 H 96 H 96 H 95 H 94 H 94 H 96 H 94 H 91 H 92 H 89 H 88 H 84 H 83 H 82 H 84 H 78 H 78 H NL
XSH 39 H 34 H 33 H 53 H 66 H 58 H 56 H 71 H 67 H 55 H 62 H 68 H 75 H 70 H 78 H 75 H 79 H 84 H 83 H 89 H 90 H 89 H 90 H 82 H 86 H 82 H 83 H 81 H 79 H 79 H 85 H 76 H 79 H 85 H 90 H 91 H 95 H 96 H 97 H 96 H 97 H 98 H 97 H 98 H 97 H 97 H 96 H 98 H 97 H 99 H 96 H 99 H 97 H 97 H 97 H 97 H 98 H 96 H 97 H 95 H 95 H 95 H 97 H 97 H 96 H 96 H 95 H 96 H 96 H 95 H 96 H 97 H 96 H 96 H 97 H 97 H 96 H 95 H 96 H 96 H 94 H 95 H 97 H 96 H 95 H 93 H 94 H 96 H 92 H 92 H 90 H 89 H 87 H 82 H 84 H 89 H 85 H 81 H 78 H NL
XSH 39 H 42 H 42 H 46 H 66 H 67 H 68 H 68 H 68 H 67 H 69 H 74 H 76 H 77 H 79 H 83 H 83 H 90 H 87 H 86 H 89 H 90 H 89 H 91 H 85 H 85 H 82 H 82 H 81 H 84 H 83 H 83 H 84 H 91 H 91 H 90 H 96 H 97 H 96 H 97 H 97 H 97 H 97 H 97 H 97 H 95 H 97 H 98 H 97 H 95 H 97 H 98 H 97 H 98 H 97 H 97 H 97 H 96 H 97 H 98 H 96 H 96 H 96 H 97 H 96 H 96 H 97 H 98 H 97 H 97 H 97 H 96 H 96 H 96 H 96 H 96 H 96 H 96 H 96 H 94 H 96 H 96 H 96 H 96 H 94 H 94 H 94 H 95 H 92 H 91 H 90 H 86 H 87 H 87 H 87 H 82 H 83 H 82 H 82 H NL
XSH 29 H 48 H 41 H 42 H 67 H 66 H 66 H 74 H 75 H 78 H 71 H 74 H 82 H 80 H 81 H 80 H 81 H 85 H 88 H 86 H 89 H 92 H 88 H 84 H 84 H 85 H 83 H 78 H 77 H 83 H 84 H 82 H 82 H 88 H 89 H 91 H 96 H 97 H 96 H 96 H 96 H 96 H 97 H 96 H 98 H 97 H 96 H 97 H 97 H 97 H 97 H 97 H 98 H 97 H 97 H 97 H 97 H 97 H 97 H 98 H 98 H 96 H 96 H 96 H 97 H 96 H 97 H 98 H 99 H 98 H 97 H 97 H 97 H 97 H 96 H 97 H 98 H 99 H 97 H 97 H 96 H 97 H 95 H 95 H 96 H 93 H 93 H 93 H 92 H 96 H 93 H 91 H 87 H 88 H 91 H 87 H 86 H 83 H 82 H NL
XSH 47 H 59 H 59 H 70 H 64 H 65 H 67 H 71 H 75 H 72 H 80 H 81 H 81 H 77 H 81 H 85 H 85 H 85 H 86 H 88 H 88 H 88 H 89 H 89 H 85 H 88 H 83 H 80 H 82 H 88 H 86 H 86 H 88 H 89 H 91 H 92 H 95 H 96 H 96 H 96 H 96 H 96 H 96 H 96 H 97 H 98 H 97 H 95 H 97 H 98 H 97 H 96 H 97 H 98 H 98 H 98 H 97 H 97 H 97 H 97 H 97 H 97 H 97 H 97 H 97 H 96 H 97 H 97 H 97 H 97 H 97 H 97 H 97 H 97 H 96 H 95 H 97 H 97 H 97 H 95 H 96 H 95 H 95 H 94 H 95 H 95 H 94 H 94 H 93 H 92 H 92 H 90 H 88 H 84 H 86 H 84 H 86 H 86 H 83 H NL
XSH 47 H 61 H 60 H 64 H 60 H 70 H 68 H 75 H 76 H 82 H 81 H 83 H 80 H 81 H 81 H 86 H 88 H 87 H 85 H 87 H 88 H 93 H 89 H 84 H 85 H 84 H 82 H 83 H 85 H 88 H 86 H 91 H 91 H 93 H 93 H 94 H 96 H 96 H 95 H 96 H 97 H 96 H 96 H 97 H 98 H 98 H 97 H 97 H 97 H 97 H 96 H 97 H 97 H 98 H 97 H 97 H 97 H 97 H 98 H 97 H 96 H 98 H 97 H 97 H 97 H 97 H 98 H 97 H 97 H 98 H 97 H 97 H 97 H 96 H 96 H 95 H 98 H 97 H 97 H 97 H 95 H 94 H 94 H 96 H 93 H 94 H 94 H 93 H 93 H 93 H 90 H 90 H 80 H 85 H 91 H 83 H 86 H 83 H 78 H NL
XSH 57 H 58 H 60 H 53 H 62 H 77 H 77 H 81 H 80 H 86 H 82 H 77 H 82 H 88 H 87 H 91 H 87 H 86 H 87 H 91 H 91 H 87 H 88 H 87 H 86 H 85 H 84 H 84 H 88 H 92 H 92 H 93 H 93 H 94 H 94 H 96 H 96 H 97 H 96 H 96 H 96 H 96 H 97 H 97 H 97 H 96 H 97 H 98 H 97 H 96 H 96 H 98 H 98 H 98 H 97 H 98 H 97 H 98 H 96 H 96 H 96 H 97 H 97 H 97 H 97 H 97 H 97 H 97 H 97 H 98 H 97 H 97 H 97 H 95 H 96 H 96 H 96 H 96 H 95 H 95 H 95 H 95 H 94 H 93 H 94 H 97 H 94 H 93 H 93 H 91 H 90 H 84 H 83 H 83 H 83 H 79 H 84 H 71 H 75 H NL
XSH 57 H 56 H 63 H 60 H 59 H 64 H 78 H 77 H 79 H 75 H 78 H 84 H 82 H 85 H 83 H 91 H 92 H 87 H 88 H 87 H 92 H 93 H 89 H 92 H 87 H 86 H 85 H 88 H 90 H 89 H 92 H 93 H 94 H 92 H 91 H 95 H 96 H 94 H 94 H 95 H 96 H 97 H 97 H 96 H 96 H 95 H 94 H 95 H 96 H 95 H 95 H 96 H 96 H 96 H 96 H 95 H 96 H 95 H 96 H 94 H 96 H 95 H 96 H 97 H 96 H 97 H 96 H 96 H 97 H 96 H 97 H 97 H 97 H 96 H 97 H 97 H 95 H 95 H 95 H 95 H 97 H 96 H 94 H 93 H 93 H 94 H 94 H 94 H 94 H 93 H 91 H 86 H 82 H 82 H 84 H 81 H 84 H 85 H 75 H NL
XSH 58 H 64 H 60 H 64 H 61 H 68 H 72 H 74 H 78 H 77 H 80 H 82 H 83 H 82 H 84 H 87 H 88 H 87 H 87 H 87 H 89 H 89 H 91 H 91 H 89 H 88 H 87 H 90 H 90 H 90 H 92 H 91 H 93 H 92 H 92 H 93 H 94 H 96 H 96 H 97 H 96 H 96 H 96 H 96 H 96 H 97 H 96 H 98 H 96 H 97 H 96 H 98 H 96 H 98 H 96 H 98 H 97 H 98 H 96 H 97 H 96 H 97 H 97 H 97 H 97 H 98 H 96 H 96 H 97 H 97 H 97 H 97 H 97 H 97 H 97 H 96 H 97 H 96 H 96 H 95 H 96 H 98 H 95 H 95 H 94 H 93 H 94 H 91 H 92 H 92 H 91 H 88 H 86 H 81 H 83 H 83 H 84 H 85 H 79 H NL
XSH 58 H 51 H 55 H 51 H 61 H 69 H 79 H 80 H 79 H 83 H 84 H 84 H 91 H 82 H 86 H 89 H 87 H 83 H 88 H 94 H 90 H 90 H 92 H 88 H 89 H 87 H 90 H 93 H 92 H 94 H 95 H 91 H 94 H 94 H 94 H 92 H 94 H 95 H 97 H 96 H 95 H 94 H 94 H 96 H 95 H 96 H 96 H 95 H 95 H 95 H 96 H 95 H 95 H 95 H 97 H 97 H 97 H 97 H 95 H 97 H 96 H 97 H 97 H 96 H 97 H 97 H 96 H 97 H 97 H 97 H 97 H 98 H 98 H 97 H 98 H 97 H 97 H 96 H 96 H 95 H 96 H 97 H 95 H 96 H 96 H 94 H 93 H 91 H 92 H 93 H 91 H 90 H 86 H 83 H 83 H 85 H 78 H 79 H 75 H NL
XSH 51 H 49 H 57 H 59 H 69 H 74 H 79 H 83 H 82 H 81 H 84 H 82 H 84 H 85 H 89 H 91 H 89 H 89 H 90 H 91 H 91 H 91 H 92 H 92 H 89 H 89 H 90 H 90 H 93 H 93 H 94 H 94 H 94 H 95 H 94 H 94 H 95 H 97 H 96 H 96 H 96 H 97 H 96 H 96 H 97 H 97 H 97 H 97 H 98 H 98 H 97 H 98 H 96 H 98 H 97 H 98 H 96 H 96 H 96 H 98 H 97 H 98 H 97 H 97 H 97 H 97 H 97 H 97 H 97 H 97 H 97 H 98 H 97 H 97 H 97 H 97 H 96 H 95 H 96 H 96 H 96 H 95 H 96 H 95 H 94 H 93 H 94 H 96 H 93 H 91 H 91 H 88 H 86 H 83 H 83 H 78 H 77 H 76 H 75 H NL
XSH 49 H 56 H 64 H 64 H 70 H 69 H 78 H 79 H 79 H 83 H 83 H 89 H 81 H 85 H 90 H 91 H 91 H 90 H 90 H 90 H 91 H 92 H 90 H 93 H 92 H 89 H 91 H 91 H 91 H 94 H 95 H 92 H 95 H 95 H 96 H 95 H 95 H 97 H 96 H 94 H 97 H 96 H 97 H 96 H 97 H 97 H 97 H 97 H 98 H 98 H 97 H 96 H 97 H 96 H 94 H 94 H 95 H 94 H 96 H 97 H 96 H 97 H 97 H 97 H 96 H 98 H 96 H 97 H 96 H 97 H 96 H 97 H 96 H 96 H 96 H 97 H 98 H 96 H 97 H 97 H 96 H 96 H 96 H 97 H 95 H 93 H 95 H 96 H 94 H 93 H 91 H 93 H 85 H 90 H 86 H 75 H 73 H 68 H 74 H NL
XSH 50 H 50 H 64 H 73 H 71 H 81 H 77 H 77 H 78 H 78 H 83 H 86 H 86 H 86 H 88 H 91 H 91 H 90 H 90 H 89 H 90 H 90 H 93 H 94 H 93 H 91 H 91 H 90 H 91 H 92 H 94 H 93 H 94 H 95 H 95 H 95 H 95 H 94 H 96 H 96 H 96 H 98 H 97 H 97 H 97 H 97 H 98 H 99 H 98 H 98 H 97 H 97 H 97 H 98 H 97 H 99 H 97 H 98 H 97 H 98 H 97 H 97 H 97 H 98 H 98 H 98 H 97 H 96 H 97 H 97 H 97 H 97 H 96 H 97 H 96 H 97 H 96 H 96 H 97 H 97 H 96 H 97 H 96 H 95 H 94 H 92 H 94 H 94 H 94 H 93 H 93 H 93 H 91 H 88 H 89 H 81 H 77 H 73 H 72 H NL
XSH 53 H 69 H 64 H 69 H 71 H 72 H 76 H 74 H 85 H 82 H 84 H 87 H 83 H 89 H 85 H 91 H 93 H 91 H 94 H 90 H 90 H 95 H 95 H 96 H 91 H 93 H 93 H 90 H 92 H 95 H 95 H 95 H 94 H 95 H 95 H 94 H 94 H 96 H 96 H 96 H 97 H 98 H 97 H 98 H 97 H 99 H 99 H 98 H 97 H 96 H 94 H 96 H 97 H 97 H 97 H 97 H 97 H 97 H 97 H 96 H 97 H 96 H 98 H 97 H 98 H 97 H 96 H 97 H 97 H 96 H 96 H 96 H 96 H 97 H 96 H 95 H 96 H 97 H 96 H 96 H 96 H 95 H 96 H 94 H 93 H 94 H 94 H 94 H 92 H 92 H 94 H 91 H 91 H 91 H 89 H 79 H 80 H 72 H 67 H NL
XSH 62 H 62 H 67 H 69 H 72 H 78 H 78 H 79 H 81 H 84 H 84 H 86 H 87 H 85 H 87 H 88 H 91 H 91 H 94 H 96 H 95 H 94 H 94 H 92 H 93 H 94 H 93 H 95 H 95 H 94 H 95 H 95 H 95 H 97 H 96 H 96 H 96 H 96 H 96 H 95 H 97 H 97 H 97 H 98 H 97 H 99 H 98 H 97 H 97 H 97 H 97 H 99 H 97 H 98 H 97 H 98 H 97 H 99 H 97 H 97 H 97 H 98 H 97 H 98 H 97 H 97 H 97 H 98 H 97 H 97 H 96 H 97 H 97 H 97 H 96 H 96 H 96 H 97 H 96 H 96 H 96 H 96 H 94 H 93 H 93 H 94 H 93 H 93 H 91 H 91 H 92 H 93 H 91 H 88 H 85 H 80 H 80 H 61 H 66 H NL
XSH 54 H 76 H 66 H 80 H 73 H 80 H 82 H 81 H 79 H 80 H 83 H 85 H 87 H 89 H 86 H 89 H 92 H 91 H 95 H 95 H 95 H 94 H 92 H 94 H 93 H 95 H 94 H 93 H 96 H 95 H 96 H 96 H 96 H 97 H 97 H 96 H 97 H 97 H 97 H 96 H 97 H 97 H 97 H 97 H 97 H 97 H 98 H 97 H 98 H 97 H 97 H 97 H 96 H 96 H 97 H 97 H 97 H 97 H 97 H 97 H 96 H 96 H 95 H 97 H 96 H 96 H 95 H 97 H 97 H 96 H 96 H 96 H 95 H 95 H 95 H 96 H 95 H 95 H 96 H 96 H 96 H 96 H 93 H 94 H 92 H 93 H 91 H 92 H 91 H 90 H 94 H 92 H 91 H 87 H 88 H 82 H 83 H 83 H 66 H NL
XSH 54 H 58 H 66 H 68 H 76 H 79 H 81 H 86 H 80 H 83 H 83 H 79 H 84 H 83 H 88 H 91 H 91 H 91 H 95 H 96 H 95 H 94 H 94 H 93 H 94 H 94 H 95 H 92 H 95 H 95 H 95 H 96 H 97 H 97 H 97 H 96 H 97 H 96 H 97 H 97 H 97 H 98 H 98 H 97 H 97 H 98 H 98 H 98 H 98 H 97 H 97 H 97 H 97 H 98 H 97 H 98 H 97 H 98 H 97 H 98 H 98 H 98 H 98 H 98 H 97 H 97 H 97 H 97 H 97 H 97 H 96 H 97 H 96 H 97 H 97 H 97 H 97 H 98 H 96 H 96 H 97 H 97 H 96 H 95 H 95 H 95 H 93 H 93 H 92 H 92 H 91 H 93 H 91 H 90 H 87 H 86 H 83 H 78 H 78 H NL
XSH 41 H 63 H 67 H 71 H 80 H 77 H 86 H 79 H 78 H 82 H 83 H 77 H 87 H 85 H 90 H 91 H 91 H 96 H 95 H 96 H 95 H 94 H 94 H 96 H 92 H 96 H 96 H 96 H 97 H 95 H 96 H 97 H 97 H 97 H 96 H 97 H 97 H 97 H 97 H 97 H 98 H 99 H 98 H 97 H 97 H 98 H 96 H 98 H 97 H 99 H 96 H 98 H 98 H 97 H 96 H 96 H 96 H 96 H 98 H 97 H 98 H 98 H 98 H 97 H 97 H 97 H 97 H 96 H 96 H 96 H 95 H 96 H 96 H 97 H 98 H 97 H 96 H 95 H 96 H 97 H 97 H 98 H 97 H 97 H 96 H 95 H 93 H 92 H 93 H 90 H 90 H 91 H 90 H 86 H 86 H 84 H 82 H 75 H 78 H NL
XSH 56 H 62 H 67 H 74 H 77 H 77 H 79 H 79 H 79 H 80 H 82 H 82 H 86 H 90 H 91 H 91 H 92 H 96 H 95 H 94 H 94 H 94 H 94 H 94 H 94 H 95 H 95 H 95 H 95 H 96 H 96 H 95 H 97 H 96 H 97 H 97 H 97 H 97 H 97 H 96 H 97 H 98 H 97 H 97 H 97 H 97 H 97 H 98 H 97 H 97 H 98 H 99 H 97 H 97 H 97 H 98 H 98 H 98 H 97 H 97 H 98 H 98 H 97 H 98 H 97 H 98 H 97 H 97 H 96 H 98 H 97 H 97 H 97 H 97 H 97 H 98 H 96 H 96 H 96 H 98 H 97 H 96 H 96 H 96 H 95 H 93 H 93 H 95 H 93 H 90 H 91 H 91 H 89 H 87 H 85 H 79 H 80 H 81 H 81 H NL
XSH 50 H 56 H 62 H 68 H 77 H 75 H 76 H 78 H 79 H 77 H 83 H 83 H 83 H 89 H 93 H 96 H 90 H 92 H 94 H 95 H 93 H 93 H 95 H 93 H 93 H 93 H 96 H 93 H 95 H 96 H 98 H 95 H 96 H 97 H 97 H 96 H 96 H 96 H 97 H 97 H 95 H 95 H 95 H 96 H 96 H 96 H 97 H 96 H 96 H 96 H 98 H 97 H 98 H 96 H 98 H 98 H 98 H 98 H 97 H 97 H 97 H 96 H 97 H 97 H 97 H 97 H 96 H 97 H 96 H 96 H 97 H 97 H 97 H 97 H 96 H 97 H 98 H 97 H 96 H 98 H 97 H 96 H 95 H 96 H 95 H 95 H 92 H 96 H 93 H 93 H 93 H 87 H 88 H 91 H 87 H 82 H 83 H 76 H 82 H NL
XSH 44 H 44 H 60 H 69 H 74 H 74 H 75 H 81 H 79 H 79 H 80 H 83 H 83 H 84 H 91 H 93 H 93 H 93 H 93 H 91 H 93 H 92 H 93 H 91 H 93 H 95 H 94 H 92 H 95 H 96 H 96 H 95 H 96 H 96 H 97 H 96 H 96 H 96 H 96 H 97 H 97 H 98 H 97 H 97 H 97 H 98 H 97 H 97 H 97 H 98 H 97 H 98 H 98 H 97 H 98 H 98 H 98 H 98 H 98 H 98 H 97 H 97 H 97 H 98 H 97 H 99 H 98 H 98 H 97 H 96 H 97 H 98 H 97 H 97 H 97 H 99 H 97 H 97 H 97 H 96 H 96 H 97 H 96 H 97 H 96 H 97 H 95 H 92 H 93 H 92 H 93 H 88 H 88 H 88 H 88 H 88 H 83 H 75 H 78 H NL
XSH 42 H 58 H 61 H 77 H 73 H 72 H 74 H 75 H 82 H 78 H 81 H 82 H 84 H 93 H 89 H 91 H 94 H 94 H 92 H 97 H 91 H 94 H 92 H 93 H 95 H 97 H 93 H 95 H 95 H 98 H 96 H 96 H 97 H 97 H 96 H 97 H 97 H 96 H 96 H 97 H 98 H 98 H 97 H 97 H 96 H 97 H 97 H 98 H 97 H 97 H 97 H 98 H 97 H 98 H 99 H 99 H 98 H 98 H 96 H 97 H 97 H 97 H 97 H 97 H 98 H 98 H 98 H 97 H 97 H 96 H 98 H 97 H 97 H 97 H 96 H 96 H 97 H 97 H 97 H 95 H 95 H 94 H 95 H 95 H 95 H 96 H 95 H 92 H 93 H 93 H 94 H 89 H 85 H 86 H 89 H 87 H 79 H 84 H 78 H NL
XSH 58 H 58 H 64 H 69 H 73 H 79 H 76 H 76 H 80 H 82 H 82 H 81 H 86 H 87 H 88 H 89 H 93 H 94 H 91 H 90 H 92 H 92 H 93 H 93 H 94 H 95 H 94 H 94 H 96 H 96 H 96 H 96 H 97 H 96 H 97 H 98 H 97 H 97 H 97 H 98 H 97 H 97 H 97 H 98 H 98 H 98 H 98 H 98 H 97 H 97 H 97 H 98 H 98 H 98 H 98 H 98 H 98 H 97 H 98 H 98 H 98 H 98 H 98 H 98 H 98 H 98 H 97 H 97 H 97 H 97 H 97 H 96 H 97 H 98 H 97 H 97 H 97 H 98 H 96 H 96 H 96 H 97 H 96 H 96 H 96 H 96 H 96 H 91 H 92 H 94 H 91 H 90 H 86 H 84 H 85 H 83 H 82 H 80 H 80 H NL
XSH 46 H 60 H 57 H 66 H 75 H 73 H 79 H 75 H 82 H 78 H 83 H 88 H 85 H 87 H 84 H 86 H 88 H 92 H 90 H 90 H 93 H 92 H 97 H 92 H 91 H 93 H 95 H 92 H 95 H 96 H 98 H 95 H 98 H 96 H 98 H 97 H 98 H 97 H 97 H 97 H 97 H 96 H 97 H 98 H 98 H 98 H 97 H 97 H 98 H 98 H 97 H 98 H 98 H 98 H 98 H 97 H 98 H 97 H 98 H 99 H 99 H 98 H 98 H 98 H 97 H 97 H 97 H 97 H 98 H 98 H 97 H 97 H 96 H 97 H 97 H 96 H 95 H 94 H 95 H 96 H 97 H 96 H 95 H 99 H 97 H 98 H 96 H 98 H 91 H 91 H 91 H 89 H 90 H 87 H 80 H 85 H 82 H 85 H 82 H NL
XSH 49 H 66 H 57 H 55 H 72 H 74 H 75 H 84 H 78 H 78 H 78 H 76 H 82 H 83 H 87 H 88 H 87 H 88 H 91 H 93 H 91 H 91 H 92 H 91 H 92 H 92 H 95 H 95 H 95 H 96 H 96 H 95 H 97 H 97 H 97 H 97 H 97 H 98 H 97 H 98 H 97 H 98 H 97 H 98 H 98 H 98 H 97 H 97 H 97 H 98 H 98 H 97 H 98 H 98 H 97 H 97 H 97 H 98 H 98 H 98 H 98 H 98 H 98 H 98 H 98 H 98 H 97 H 96 H 97 H 98 H 97 H 97 H 97 H 96 H 97 H 97 H 97 H 98 H 97 H 96 H 96 H 98 H 97 H 96 H 97 H 98 H 96 H 96 H 95 H 95 H 92 H 92 H 90 H 86 H 85 H 79 H 82 H 88 H 82 H NL
XSH 49 H 56 H 55 H 75 H 70 H 70 H 77 H 77 H 75 H 75 H 85 H 80 H 78 H 88 H 88 H 85 H 83 H 84 H 91 H 91 H 90 H 90 H 92 H 94 H 93 H 96 H 96 H 97 H 95 H 96 H 95 H 97 H 97 H 97 H 96 H 97 H 97 H 98 H 97 H 97 H 97 H 97 H 97 H 96 H 97 H 97 H 97 H 97 H 98 H 97 H 98 H 98 H 98 H 97 H 96 H 97 H 97 H 98 H 98 H 98 H 97 H 98 H 98 H 98 H 98 H 98 H 96 H 96 H 96 H 97 H 96 H 97 H 96 H 96 H 96 H 97 H 97 H 97 H 97 H 95 H 98 H 98 H 98 H 96 H 97 H 95 H 97 H 95 H 94 H 92 H 93 H 94 H 87 H 87 H 84 H 81 H 83 H 78 H 75 H NL
XSH 48 H 37 H 66 H 70 H 70 H 77 H 77 H 76 H 75 H 73 H 80 H 84 H 84 H 84 H 85 H 82 H 85 H 87 H 89 H 90 H 91 H 95 H 94 H 93 H 96 H 97 H 96 H 96 H 96 H 96 H 97 H 98 H 97 H 97 H 97 H 98 H 97 H 97 H 97 H 97 H 97 H 98 H 98 H 98 H 98 H 97 H 97 H 98 H 98 H 97 H 98 H 98 H 97 H 97 H 97 H 98 H 98 H 98 H 98 H 98 H 98 H 99 H 98 H 98 H 98 H 97 H 97 H 96 H 97 H 98 H 97 H 97 H 97 H 97 H 97 H 98 H 97 H 97 H 97 H 96 H 97 H 97 H 97 H 97 H 97 H 98 H 97 H 96 H 94 H 93 H 93 H 86 H 85 H 81 H 81 H 78 H 79 H 76 H 76 H NL
XSH 48 H 41 H 63 H 68 H 67 H 72 H 76 H 77 H 69 H 79 H 73 H 80 H 83 H 85 H 84 H 85 H 86 H 88 H 87 H 89 H 92 H 94 H 94 H 93 H 95 H 97 H 97 H 95 H 97 H 97 H 97 H 97 H 97 H 96 H 98 H 98 H 97 H 97 H 97 H 97 H 97 H 98 H 98 H 99 H 98 H 98 H 97 H 99 H 98 H 98 H 97 H 96 H 97 H 97 H 98 H 98 H 98 H 98 H 98 H 97 H 98 H 99 H 99 H 97 H 98 H 97 H 99 H 98 H 98 H 97 H 97 H 97 H 97 H 96 H 97 H 96 H 97 H 96 H 97 H 98 H 96 H 97 H 95 H 96 H 95 H 98 H 97 H 96 H 95 H 94 H 92 H 90 H 83 H 84 H 80 H 85 H 82 H 80 H 77 H NL
XSH 47 H 47 H 55 H 68 H 62 H 56 H 67 H 76 H 73 H 67 H 73 H 81 H 81 H 86 H 85 H 83 H 86 H 89 H 88 H 91 H 91 H 92 H 93 H 95 H 96 H 97 H 96 H 94 H 96 H 97 H 97 H 98 H 96 H 95 H 97 H 98 H 98 H 98 H 98 H 98 H 98 H 97 H 98 H 98 H 98 H 98 H 98 H 97 H 98 H 98 H 97 H 96 H 97 H 98 H 98 H 98 H 98 H 98 H 98 H 98 H 98 H 99 H 98 H 98 H 98 H 98 H 97 H 97 H 97 H 97 H 97 H 98 H 97 H 97 H 97 H 98 H 97 H 98 H 98 H 98 H 98 H 98 H 97 H 97 H 96 H 95 H 96 H 98 H 95 H 93 H 93 H 93 H 91 H 85 H 83 H 83 H 83 H 74 H 74 H NL
XSH 20 H 33 H 69 H 49 H 50 H 57 H 63 H 70 H 80 H 70 H 74 H 78 H 82 H 87 H 88 H 82 H 89 H 90 H 87 H 89 H 92 H 92 H 93 H 96 H 96 H 95 H 93 H 96 H 96 H 96 H 95 H 96 H 95 H 96 H 98 H 99 H 98 H 98 H 98 H 99 H 98 H 98 H 99 H 98 H 98 H 98 H 98 H 96 H 97 H 98 H 97 H 98 H 98 H 98 H 98 H 97 H 97 H 98 H 97 H 98 H 98 H 98 H 97 H 98 H 97 H 97 H 97 H 97 H 97 H 98 H 97 H 98 H 97 H 97 H 97 H 97 H 98 H 98 H 98 H 98 H 98 H 97 H 97 H 96 H 98 H 94 H 95 H 95 H 95 H 92 H 94 H 93 H 91 H 83 H 85 H 83 H 86 H 71 H 65 H NL
XSH 33 H 37 H 51 H 55 H 55 H 59 H 66 H 74 H 72 H 74 H 78 H 80 H 81 H 88 H 88 H 88 H 90 H 90 H 89 H 93 H 93 H 94 H 93 H 94 H 95 H 95 H 96 H 97 H 96 H 96 H 97 H 97 H 96 H 96 H 98 H 98 H 98 H 97 H 98 H 98 H 98 H 98 H 98 H 98 H 98 H 98 H 97 H 97 H 97 H 98 H 98 H 98 H 98 H 98 H 98 H 98 H 97 H 98 H 98 H 99 H 98 H 98 H 98 H 98 H 98 H 98 H 97 H 97 H 97 H 97 H 98 H 98 H 97 H 97 H 97 H 97 H 98 H 98 H 98 H 98 H 98 H 98 H 97 H 97 H 97 H 96 H 96 H 97 H 95 H 95 H 94 H 94 H 92 H 88 H 84 H 84 H 81 H 79 H 73 H NL
XSH 51 H 30 H 41 H 52 H 54 H 53 H 49 H 72 H 62 H 70 H 78 H 84 H 81 H 79 H 86 H 89 H 91 H 89 H 89 H 89 H 94 H 94 H 92 H 92 H 95 H 93 H 96 H 97 H 97 H 96 H 98 H 98 H 98 H 96 H 97 H 98 H 99 H 98 H 98 H 98 H 98 H 98 H 98 H 98 H 98 H 99 H 99 H 97 H 97 H 98 H 98 H 97 H 97 H 97 H 98 H 97 H 97 H 97 H 97 H 97 H 98 H 97 H 98 H 97 H 99 H 98 H 98 H 96 H 99 H 97 H 98 H 98 H 98 H 97 H 97 H 98 H 97 H 99 H 98 H 98 H 98 H 98 H 98 H 98 H 97 H 96 H 95 H 97 H 96 H 97 H 94 H 94 H 95 H 92 H 89 H 84 H 81 H 81 H 73 H NL
XSH 34 H 34 H 33 H 32 H 54 H 53 H 52 H 52 H 64 H 69 H 73 H 75 H 82 H 81 H 83 H 85 H 88 H 89 H 89 H 90 H 91 H 96 H 94 H 94 H 95 H 95 H 95 H 96 H 96 H 96 H 97 H 97 H 97 H 96 H 97 H 98 H 98 H 98 H 98 H 98 H 98 H 98 H 98 H 98 H 98 H 98 H 97 H 97 H 97 H 98 H 98 H 97 H 97 H 99 H 98 H 98 H 97 H 98 H 97 H 98 H 97 H 98 H 97 H 98 H 98 H 99 H 98 H 96 H 97 H 97 H 98 H 98 H 98 H 97 H 98 H 98 H 98 H 97 H 97 H 98 H 98 H 98 H 98 H 97 H 97 H 97 H 97 H 97 H 96 H 96 H 95 H 95 H 94 H 94 H 91 H 86 H 82 H 80 H 81 H NL
XSH 21 H 35 H 21 H 68 H 60 H 47 H 67 H 59 H 67 H 73 H 72 H 82 H 88 H 82 H 85 H 86 H 81 H 84 H 88 H 89 H 92 H 92 H 94 H 94 H 96 H 96 H 95 H 96 H 96 H 97 H 97 H 97 H 97 H 95 H 98 H 98 H 98 H 98 H 98 H 98 H 98 H 98 H 98 H 97 H 97 H 97 H 96 H 98 H 98 H 98 H 97 H 98 H 97 H 97 H 95 H 96 H 97 H 96 H 97 H 97 H 97 H 97 H 97 H 97 H 97 H 97 H 96 H 97 H 98 H 98 H 97 H 98 H 97 H 98 H 98 H 98 H 98 H 97 H 97 H 98 H 98 H 98 H 96 H 96 H 97 H 97 H 97 H 95 H 97 H 94 H 96 H 93 H 93 H 92 H 91 H 83 H 80 H 81 H 83 H NL
XSH 23 H 23 H 32 H 44 H 47 H 49 H 54 H 64 H 66 H 67 H 75 H 77 H 83 H 84 H 85 H 86 H 85 H 86 H 88 H 92 H 92 H 91 H 93 H 95 H 95 H 95 H 95 H 95 H 96 H 98 H 97 H 97 H 97 H 95 H 98 H 98 H 98 H 97 H 97 H 97 H 98 H 99 H 97 H 97 H 97 H 98 H 97 H 98 H 98 H 98 H 97 H 97 H 97 H 98 H 98 H 98 H 97 H 98 H 97 H 98 H 97 H 98 H 97 H 99 H 97 H 97 H 97 H 97 H 97 H 97 H 97 H 97 H 98 H 98 H 98 H 98 H 97 H 97 H 97 H 98 H 97 H 97 H 97 H 98 H 98 H 99 H 97 H 96 H 96 H 96 H 94 H 94 H 92 H 88 H 85 H 80 H 81 H 83 H 83 H NL
XSH 22 H 29 H 23 H 42 H 48 H 39 H 48 H 47 H 44 H 60 H 67 H 78 H 75 H 84 H 86 H 83 H 80 H 88 H 86 H 89 H 92 H 91 H 90 H 93 H 94 H 95 H 93 H 94 H 96 H 96 H 96 H 96 H 97 H 97 H 95 H 98 H 97 H 96 H 97 H 96 H 97 H 96 H 96 H 96 H 97 H 96 H 97 H 97 H 97 H 95 H 96 H 95 H 96 H 97 H 98 H 97 H 97 H 97 H 97 H 98 H 97 H 97 H 97 H 97 H 97 H 97 H 98 H 98 H 96 H 96 H 98 H 97 H 97 H 98 H 98 H 98 H 98 H 96 H 96 H 96 H 97 H 95 H 97 H 97 H 97 H 98 H 98 H 97 H 95 H 96 H 94 H 94 H 92 H 91 H 89 H 83 H 80 H 89 H 82 H NL
XSH 23 H 38 H 32 H 29 H 47 H 54 H 45 H 43 H 45 H 48 H 61 H 71 H 73 H 74 H 83 H 85 H 81 H 82 H 86 H 87 H 89 H 90 H 90 H 90 H 93 H 94 H 94 H 94 H 95 H 96 H 96 H 97 H 97 H 97 H 96 H 96 H 96 H 97 H 97 H 98 H 97 H 99 H 97 H 98 H 97 H 98 H 97 H 98 H 97 H 97 H 98 H 98 H 97 H 97 H 97 H 98 H 98 H 99 H 97 H 98 H 97 H 98 H 98 H 98 H 98 H 98 H 98 H 98 H 97 H 96 H 97 H 98 H 98 H 98 H 98 H 98 H 98 H 98 H 97 H 98 H 97 H 97 H 97 H 97 H 97 H 99 H 98 H 97 H 97 H 97 H 96 H 95 H 93 H 89 H 89 H 84 H 82 H 81 H 81 H NL
XSH 23 H 45 H 35 H 46 H 61 H 50 H 36 H 51 H 34 H 60 H 61 H 62 H 72 H 76 H 82 H 77 H 80 H 81 H 89 H 91 H 89 H 90 H 93 H 92 H 93 H 96 H 94 H 93 H 96 H 97 H 96 H 97 H 97 H 96 H 96 H 96 H 95 H 96 H 97 H 97 H 97 H 98 H 96 H 96 H 96 H 97 H 97 H 97 H 96 H 98 H 98 H 98 H 97 H 96 H 97 H 98 H 97 H 97 H 96 H 96 H 97 H 97 H 98 H 98 H 98 H 97 H 98 H 97 H 97 H 97 H 97 H 98 H 98 H 98 H 97 H 98 H 96 H 98 H 97 H 98 H 97 H 98 H 98 H 97 H 98 H 98 H 98 H 97 H 97 H 97 H 97 H 94 H 93 H 90 H 88 H 81 H 82 H 77 H 74 H NL
XSH 34 H 34 H 44 H 46 H 46 H 25 H 33 H 18 H 47 H 40 H 58 H 54 H 74 H 76 H 76 H 78 H 80 H 80 H 88 H 87 H 90 H 90 H 92 H 92 H 95 H 95 H 94 H 94 H 96 H 96 H 96 H 97 H 97 H 96 H 96 H 97 H 97 H 97 H 97 H 98 H 97 H 97 H 97 H 97 H 97 H 98 H 97 H 97 H 98 H 99 H 98 H 98 H 98 H 98 H 97 H 98 H 97 H 98 H 98 H 98 H 97 H 98 H 98 H 98 H 97 H 97 H 97 H 97 H 97 H 96 H 97 H 98 H 98 H 98 H 97 H 97 H 98 H 98 H 98 H 98 H 98 H 99 H 98 H 98 H 98 H 98 H 98 H 98 H 98 H 96 H 95 H 94 H 94 H 88 H 88 H 86 H 81 H 78 H 77 H NL
XSH 34 H 47 H 42 H 52 H 45 H 33 H 36 H 30 H 62 H 53 H 54 H 65 H 66 H 80 H 72 H 73 H 79 H 80 H 88 H 91 H 92 H 91 H 92 H 94 H 96 H 95 H 98 H 93 H 95 H 97 H 96 H 96 H 97 H 95 H 96 H 97 H 98 H 97 H 98 H 97 H 97 H 97 H 98 H 98 H 97 H 96 H 97 H 97 H 97 H 98 H 98 H 97 H 98 H 98 H 97 H 96 H 97 H 97 H 98 H 99 H 97 H 98 H 97 H 96 H 96 H 96 H 96 H 96 H 96 H 97 H 97 H 97 H 97 H 96 H 97 H 97 H 98 H 97 H 98 H 97 H 98 H 99 H 99 H 98 H 98 H 98 H 98 H 98 H 98 H 98 H 96 H 95 H 94 H 94 H 89 H 88 H 87 H 80 H 77 H NL
XSH 34 H 47 H 35 H 29 H 46 H 41 H 37 H 51 H 50 H 63 H 55 H 61 H 65 H 64 H 74 H 75 H 78 H 79 H 88 H 90 H 91 H 91 H 92 H 95 H 94 H 95 H 95 H 94 H 95 H 96 H 96 H 96 H 97 H 97 H 97 H 98 H 98 H 98 H 98 H 98 H 98 H 98 H 98 H 98 H 98 H 97 H 97 H 99 H 98 H 98 H 97 H 97 H 97 H 98 H 97 H 98 H 98 H 98 H 98 H 99 H 98 H 98 H 97 H 97 H 97 H 98 H 97 H 97 H 96 H 97 H 97 H 97 H 97 H 98 H 97 H 97 H 97 H 97 H 98 H 98 H 98 H 99 H 98 H 98 H 98 H 97 H 98 H 99 H 98 H 98 H 97 H 96 H 95 H 92 H 92 H 89 H 87 H 80 H 80 H NL
XSH 25 H 21 H 23 H 48 H 50 H 37 H 35 H 45 H 48 H 47 H 57 H 71 H 62 H 71 H 79 H 83 H 77 H 88 H 91 H 88 H 92 H 93 H 93 H 94 H 94 H 92 H 95 H 96 H 97 H 96 H 96 H 96 H 97 H 97 H 99 H 97 H 98 H 97 H 98 H 98 H 98 H 98 H 97 H 98 H 97 H 98 H 98 H 98 H 97 H 97 H 96 H 96 H 96 H 97 H 97 H 98 H 98 H 98 H 98 H 97 H 97 H 97 H 97 H 98 H 97 H 97 H 96 H 95 H 95 H 94 H 96 H 96 H 97 H 97 H 97 H 97 H 96 H 97 H 98 H 98 H 98 H 98 H 98 H 99 H 98 H 98 H 98 H 98 H 98 H 97 H 96 H 96 H 96 H 93 H 94 H 87 H 85 H 86 H 73 H NL
XSH 33 H 45 H 41 H 37 H 54 H 62 H 62 H 64 H 65 H 67 H 73 H 78 H 73 H 80 H 83 H 83 H 86 H 86 H 90 H 91 H 93 H 94 H 94 H 94 H 94 H 96 H 96 H 96 H 97 H 97 H 97 H 97 H 97 H 98 H 98 H 98 H 98 H 98 H 98 H 98 H 98 H 98 H 98 H 99 H 98 H 98 H 98 H 98 H 97 H 97 H 97 H 98 H 97 H 98 H 98 H 98 H 98 H 99 H 98 H 98 H 98 H 97 H 97 H 98 H 97 H 98 H 97 H 97 H 97 H 96 H 96 H 97 H 97 H 98 H 97 H 97 H 97 H 97 H 98 H 98 H 98 H 99 H 98 H 97 H 98 H 98 H 98 H 98 H 97 H 97 H 97 H 96 H 96 H 96 H 92 H 89 H 86 H 76 H 76 H NL
XSH 33 H 51 H 52 H 30 H 69 H 58 H 63 H 68 H 71 H 65 H 75 H 74 H 69 H 76 H 88 H 88 H 87 H 91 H 89 H 94 H 93 H 92 H 93 H 94 H 93 H 97 H 96 H 96 H 98 H 97 H 97 H 98 H 98 H 97 H 98 H 98 H 98 H 97 H 97 H 97 H 97 H 98 H 98 H 97 H 97 H 97 H 97 H 96 H 97 H 96 H 97 H 97 H 97 H 98 H 98 H 98 H 98 H 97 H 97 H 98 H 98 H 98 H 97 H 96 H 97 H 96 H 97 H 97 H 98 H 99 H 96 H 98 H 97 H 97 H 97 H 97 H 97 H 98 H 97 H 97 H 98 H 98 H 98 H 97 H 98 H 98 H 99 H 98 H 98 H 97 H 98 H 97 H 97 H 96 H 94 H 90 H 87 H 85 H 79 H NL
XSH 49 H 49 H 54 H 57 H 54 H 49 H 62 H 72 H 73 H 85 H 75 H 75 H 77 H 81 H 83 H 88 H 87 H 85 H 90 H 93 H 93 H 89 H 93 H 94 H 94 H 94 H 96 H 94 H 96 H 97 H 97 H 97 H 97 H 97 H 98 H 98 H 98 H 98 H 97 H 98 H 97 H 98 H 98 H 98 H 97 H 97 H 97 H 97 H 97 H 98 H 97 H 98 H 98 H 98 H 98 H 98 H 98 H 98 H 98 H 99 H 98 H 98 H 97 H 96 H 97 H 98 H 97 H 98 H 97 H 98 H 97 H 96 H 97 H 97 H 97 H 97 H 97 H 98 H 97 H 97 H 98 H 98 H 98 H 98 H 98 H 98 H 98 H 98 H 98 H 97 H 97 H 97 H 97 H 95 H 95 H 92 H 89 H 81 H 81 H NL
XSH 54 H 56 H 61 H 52 H 66 H 60 H 64 H 79 H 74 H 75 H 80 H 84 H 78 H 80 H 86 H 87 H 88 H 87 H 91 H 92 H 93 H 93 H 95 H 94 H 94 H 96 H 96 H 95 H 97 H 97 H 97 H 98 H 97 H 98 H 97 H 97 H 97 H 98 H 97 H 97 H 97 H 96 H 96 H 97 H 95 H 96 H 96 H 97 H 97 H 98 H 97 H 98 H 98 H 98 H 97 H 97 H 97 H 98 H 98 H 97 H 96 H 97 H 96 H 97 H 98 H 98 H 97 H 96 H 97 H 97 H 97 H 95 H 97 H 98 H 97 H 98 H 98 H 96 H 97 H 97 H 98 H 98 H 98 H 99 H 98 H 97 H 97 H 97 H 97 H 98 H 97 H 98 H 97 H 97 H 96 H 91 H 88 H 79 H 83 H NL
XSH 56 H 69 H 59 H 64 H 65 H 68 H 78 H 82 H 75 H 79 H 80 H 78 H 79 H 88 H 86 H 86 H 88 H 89 H 92 H 93 H 93 H 95 H 95 H 96 H 96 H 96 H 96 H 96 H 97 H 96 H 97 H 98 H 97 H 99 H 97 H 98 H 98 H 98 H 98 H 98 H 97 H 98 H 97 H 96 H 97 H 97 H 97 H 98 H 97 H 97 H 97 H 98 H 98 H 98 H 97 H 98 H 98 H 99 H 97 H 97 H 97 H 97 H 97 H 98 H 98 H 98 H 98 H 98 H 97 H 98 H 97 H 95 H 97 H 98 H 98 H 99 H 98 H 98 H 98 H 98 H 98 H 98 H 98 H 98 H 98 H 98 H 98 H 98 H 98 H 96 H 97 H 97 H 97 H 96 H 95 H 89 H 88 H 86 H 86 H NL
XSH 58 H 56 H 56 H 46 H 57 H 65 H 77 H 79 H 76 H 71 H 80 H 82 H 76 H 84 H 83 H 83 H 88 H 89 H 93 H 93 H 93 H 95 H 94 H 96 H 96 H 96 H 97 H 96 H 97 H 97 H 96 H 97 H 97 H 97 H 97 H 98 H 98 H 97 H 98 H 98 H 98 H 96 H 97 H 96 H 98 H 97 H 97 H 96 H 96 H 96 H 96 H 97 H 97 H 97 H 98 H 97 H 97 H 97 H 97 H 96 H 97 H 97 H 97 H 97 H 97 H 97 H 98 H 97 H 97 H 98 H 97 H 97 H 96 H 97 H 97 H 98 H 98 H 99 H 98 H 98 H 97 H 98 H 98 H 97 H 98 H 97 H 98 H 98 H 98 H 98 H 98 H 98 H 97 H 96 H 95 H 96 H 88 H 92 H 86 H NL
XSH 48 H 47 H 60 H 65 H 62 H 72 H 76 H 75 H 78 H 78 H 79 H 75 H 81 H 81 H 84 H 86 H 86 H 86 H 89 H 90 H 93 H 95 H 95 H 94 H 95 H 96 H 96 H 95 H 96 H 96 H 96 H 96 H 97 H 98 H 97 H 97 H 97 H 98 H 98 H 98 H 98 H 96 H 97 H 98 H 98 H 98 H 97 H 98 H 96 H 98 H 96 H 97 H 97 H 98 H 97 H 98 H 97 H 99 H 97 H 97 H 97 H 98 H 97 H 97 H 97 H 97 H 97 H 98 H 98 H 98 H 97 H 96 H 96 H 96 H 97 H 98 H 98 H 99 H 98 H 97 H 97 H 98 H 98 H 98 H 98 H 98 H 98 H 98 H 98 H 98 H 98 H 97 H 97 H 96 H 95 H 92 H 93 H 91 H 91 H NL
XSH 48 H 67 H 69 H 60 H 77 H 80 H 76 H 80 H 78 H 79 H 82 H 81 H 82 H 87 H 84 H 87 H 87 H 88 H 94 H 92 H 94 H 94 H 95 H 95 H 95 H 96 H 96 H 97 H 96 H 97 H 97 H 98 H 97 H 98 H 98 H 97 H 97 H 98 H 97 H 98 H 95 H 97 H 96 H 98 H 96 H 97 H 96 H 96 H 96 H 96 H 96 H 96 H 96 H 96 H 96 H 96 H 97 H 97 H 97 H 97 H 97 H 98 H 96 H 96 H 96 H 97 H 97 H 97 H 98 H 98 H 97 H 96 H 97 H 96 H 98 H 97 H 99 H 98 H 98 H 97 H 98 H 98 H 97 H 98 H 98 H 98 H 99 H 99 H 99 H 97 H 98 H 98 H 96 H 95 H 95 H 94 H 94 H 92 H 78 H NL
XSH 67 H 71 H 69 H 70 H 79 H 79 H 79 H 77 H 78 H 88 H 84 H 85 H 85 H 85 H 85 H 86 H 86 H 86 H 91 H 94 H 94 H 93 H 95 H 95 H 95 H 98 H 97 H 96 H 97 H 96 H 97 H 98 H 97 H 98 H 97 H 97 H 97 H 97 H 97 H 97 H 97 H 97 H 97 H 97 H 97 H 97 H 98 H 98 H 97 H 97 H 97 H 98 H 97 H 98 H 97 H 98 H 97 H 99 H 97 H 98 H 97 H 97 H 97 H 97 H 97 H 98 H 97 H 98 H 98 H 98 H 97 H 96 H 97 H 98 H 98 H 98 H 98 H 98 H 97 H 97 H 98 H 98 H 98 H 98 H 98 H 98 H 98 H 99 H 98 H 97 H 97 H 96 H 96 H 95 H 95 H 96 H 93 H 80 H 80 H NL
XSH 70 H 60 H 66 H 69 H 78 H 80 H 85 H 80 H 78 H 80 H 84 H 89 H 86 H 85 H 83 H 84 H 86 H 84 H 88 H 90 H 92 H 94 H 95 H 96 H 95 H 96 H 97 H 96 H 98 H 98 H 95 H 97 H 97 H 97 H 97 H 97 H 97 H 96 H 97 H 97 H 98 H 97 H 98 H 98 H 98 H 97 H 99 H 98 H 98 H 97 H 97 H 97 H 97 H 97 H 97 H 97 H 97 H 96 H 97 H 96 H 97 H 96 H 97 H 98 H 97 H 98 H 97 H 97 H 96 H 97 H 98 H 97 H 97 H 98 H 97 H 98 H 96 H 96 H 96 H 97 H 97 H 98 H 98 H 98 H 98 H 98 H 97 H 98 H 98 H 98 H 98 H 97 H 96 H 96 H 95 H 96 H 94 H 90 H 82 H NL
XSH 62 H 62 H 70 H 74 H 76 H 87 H 85 H 84 H 84 H 83 H 84 H 86 H 86 H 87 H 87 H 87 H 88 H 88 H 88 H 87 H 91 H 91 H 94 H 94 H 95 H 96 H 96 H 95 H 96 H 97 H 96 H 95 H 96 H 97 H 97 H 98 H 97 H 96 H 97 H 97 H 97 H 97 H 97 H 98 H 97 H 97 H 98 H 98 H 98 H 98 H 97 H 97 H 97 H 99 H 98 H 98 H 97 H 97 H 97 H 99 H 97 H 98 H 98 H 97 H 97 H 97 H 98 H 98 H 98 H 98 H 97 H 97 H 97 H 97 H 98 H 98 H 98 H 97 H 97 H 98 H 97 H 97 H 98 H 98 H 98 H 99 H 98 H 98 H 98 H 98 H 98 H 97 H 97 H 96 H 96 H 95 H 94 H 93 H 90 H NL
XSH 62 H 79 H 78 H 84 H 74 H 75 H 86 H 86 H 87 H 85 H 87 H 84 H 85 H 89 H 91 H 89 H 89 H 88 H 91 H 89 H 93 H 91 H 94 H 95 H 95 H 95 H 96 H 95 H 96 H 96 H 96 H 96 H 96 H 96 H 96 H 97 H 95 H 97 H 97 H 96 H 96 H 97 H 97 H 97 H 97 H 98 H 97 H 98 H 98 H 98 H 97 H 97 H 99 H 98 H 98 H 98 H 97 H 97 H 97 H 98 H 97 H 99 H 98 H 97 H 97 H 97 H 98 H 98 H 98 H 97 H 97 H 97 H 98 H 98 H 98 H 98 H 98 H 98 H 98 H 97 H 99 H 97 H 98 H 98 H 98 H 98 H 98 H 98 H 97 H 97 H 97 H 98 H 95 H 97 H 95 H 94 H 94 H 93 H 89 H NL
XSH 78 H 81 H 81 H 81 H 76 H 74 H 84 H 83 H 85 H 83 H 88 H 88 H 88 H 90 H 89 H 88 H 89 H 89 H 89 H 88 H 92 H 94 H 94 H 95 H 95 H 95 H 96 H 96 H 97 H 98 H 96 H 96 H 96 H 97 H 96 H 96 H 96 H 98 H 97 H 95 H 96 H 97 H 97 H 97 H 97 H 97 H 97 H 99 H 98 H 98 H 98 H 98 H 98 H 98 H 98 H 97 H 98 H 98 H 98 H 98 H 98 H 98 H 98 H 97 H 97 H 98 H 98 H 98 H 98 H 97 H 98 H 98 H 98 H 97 H 98 H 98 H 98 H 98 H 98 H 98 H 97 H 97 H 98 H 98 H 98 H 98 H 98 H 98 H 97 H 97 H 97 H 95 H 96 H 97 H 95 H 97 H 94 H 92 H 92 H NL
XSH 72 H 78 H 76 H 87 H 77 H 78 H 81 H 84 H 84 H 87 H 88 H 88 H 88 H 85 H 89 H 87 H 89 H 88 H 90 H 90 H 87 H 95 H 93 H 95 H 95 H 96 H 96 H 96 H 97 H 97 H 97 H 96 H 96 H 97 H 96 H 96 H 96 H 96 H 97 H 96 H 96 H 97 H 97 H 97 H 96 H 95 H 97 H 98 H 98 H 98 H 97 H 98 H 97 H 97 H 97 H 97 H 98 H 98 H 98 H 98 H 98 H 98 H 98 H 98 H 97 H 98 H 98 H 98 H 98 H 98 H 98 H 99 H 98 H 98 H 98 H 99 H 99 H 98 H 99 H 99 H 97 H 98 H 97 H 98 H 97 H 97 H 98 H 98 H 98 H 97 H 97 H 96 H 96 H 96 H 95 H 95 H 94 H 95 H 92 H NL
XSH 72 H 72 H 76 H 76 H 79 H 81 H 83 H 84 H 84 H 85 H 87 H 87 H 88 H 89 H 89 H 83 H 87 H 89 H 90 H 90 H 90 H 86 H 93 H 93 H 95 H 95 H 96 H 95 H 97 H 98 H 97 H 97 H 96 H 96 H 97 H 98 H 96 H 95 H 97 H 98 H 96 H 96 H 97 H 97 H 97 H 97 H 98 H 98 H 98 H 98 H 98 H 98 H 98 H 97 H 97 H 97 H 98 H 98 H 98 H 97 H 98 H 98 H 98 H 98 H 98 H 97 H 97 H 98 H 98 H 97 H 98 H 98 H 98 H 97 H 98 H 98 H 98 H 98 H 98 H 98 H 98 H 98 H 98 H 98 H 97 H 97 H 97 H 98 H 98 H 97 H 97 H 97 H 96 H 96 H 96 H 96 H 95 H 95 H 92 H NL
XSH 60 H 64 H 78 H 77 H 87 H 84 H 84 H 83 H 84 H 88 H 88 H 88 H 90 H 90 H 90 H 87 H 85 H 86 H 92 H 92 H 91 H 90 H 95 H 94 H 96 H 96 H 95 H 98 H 97 H 97 H 97 H 98 H 97 H 97 H 98 H 98 H 96 H 97 H 97 H 97 H 97 H 97 H 97 H 97 H 98 H 98 H 99 H 98 H 97 H 97 H 98 H 98 H 97 H 98 H 97 H 98 H 97 H 97 H 97 H 98 H 98 H 99 H 98 H 98 H 97 H 97 H 97 H 97 H 98 H 97 H 98 H 97 H 98 H 98 H 98 H 98 H 98 H 98 H 98 H 99 H 98 H 98 H 98 H 97 H 96 H 97 H 97 H 97 H 95 H 97 H 97 H 99 H 96 H 96 H 93 H 95 H 94 H 92 H 89 H NL
XSH 68 H 78 H 79 H 81 H 84 H 81 H 82 H 81 H 88 H 90 H 89 H 87 H 88 H 87 H 88 H 88 H 87 H 88 H 91 H 93 H 91 H 90 H 93 H 95 H 95 H 94 H 96 H 97 H 97 H 98 H 97 H 96 H 97 H 97 H 98 H 96 H 96 H 97 H 97 H 96 H 96 H 96 H 97 H 97 H 98 H 98 H 98 H 99 H 98 H 98 H 98 H 97 H 97 H 97 H 97 H 98 H 98 H 98 H 98 H 98 H 98 H 99 H 98 H 98 H 97 H 97 H 97 H 98 H 97 H 97 H 98 H 97 H 98 H 98 H 98 H 97 H 98 H 98 H 98 H 98 H 98 H 99 H 98 H 98 H 97 H 97 H 97 H 97 H 97 H 98 H 97 H 96 H 96 H 95 H 95 H 96 H 93 H 90 H 89 H NL
XSH 70 H 68 H 79 H 82 H 88 H 85 H 82 H 83 H 87 H 89 H 89 H 90 H 88 H 87 H 89 H 87 H 86 H 90 H 88 H 91 H 90 H 92 H 92 H 93 H 94 H 95 H 95 H 97 H 98 H 98 H 97 H 97 H 96 H 97 H 98 H 97 H 97 H 96 H 97 H 98 H 96 H 96 H 97 H 97 H 97 H 98 H 97 H 98 H 98 H 99 H 98 H 98 H 97 H 96 H 97 H 97 H 98 H 98 H 97 H 97 H 98 H 98 H 98 H 98 H 98 H 97 H 97 H 97 H 97 H 98 H 98 H 98 H 97 H 98 H 98 H 98 H 98 H 99 H 98 H 99 H 99 H 98 H 99 H 98 H 98 H 97 H 97 H 95 H 97 H 96 H 95 H 92 H 95 H 94 H 95 H 94 H 95 H 91 H 89 H NL
XSH 66 H 66 H 78 H 82 H 82 H 82 H 83 H 84 H 86 H 88 H 88 H 88 H 88 H 89 H 89 H 89 H 85 H 85 H 88 H 87 H 89 H 87 H 92 H 95 H 94 H 92 H 95 H 95 H 97 H 98 H 97 H 97 H 97 H 95 H 97 H 97 H 97 H 96 H 97 H 97 H 96 H 96 H 96 H 96 H 97 H 98 H 98 H 98 H 98 H 98 H 98 H 98 H 97 H 96 H 96 H 98 H 98 H 98 H 98 H 98 H 97 H 98 H 98 H 98 H 98 H 98 H 97 H 98 H 97 H 97 H 98 H 98 H 97 H 96 H 98 H 98 H 98 H 98 H 98 H 98 H 98 H 98 H 98 H 99 H 98 H 97 H 97 H 96 H 97 H 97 H 96 H 97 H 96 H 97 H 96 H 97 H 94 H 94 H 92 H NL
XSH 65 H 76 H 83 H 84 H 82 H 82 H 83 H 84 H 90 H 91 H 87 H 87 H 87 H 89 H 88 H 85 H 85 H 89 H 88 H 89 H 91 H 90 H 96 H 96 H 94 H 95 H 97 H 94 H 97 H 97 H 97 H 97 H 96 H 97 H 96 H 97 H 96 H 98 H 97 H 96 H 94 H 95 H 96 H 96 H 98 H 98 H 97 H 97 H 97 H 96 H 95 H 95 H 93 H 95 H 95 H 95 H 96 H 96 H 95 H 95 H 96 H 96 H 96 H 97 H 96 H 97 H 97 H 97 H 97 H 96 H 98 H 97 H 98 H 95 H 98 H 98 H 98 H 98 H 98 H 98 H 97 H 99 H 98 H 98 H 97 H 98 H 97 H 98 H 97 H 98 H 95 H 98 H 95 H 96 H 93 H 94 H 91 H 95 H 92 H NL
XSH 65 H 65 H 81 H 83 H 82 H 80 H 84 H 89 H 89 H 87 H 87 H 89 H 87 H 86 H 87 H 88 H 88 H 90 H 90 H 89 H 89 H 88 H 94 H 93 H 95 H 95 H 95 H 95 H 97 H 97 H 97 H 96 H 96 H 97 H 96 H 95 H 96 H 97 H 96 H 97 H 96 H 96 H 96 H 96 H 98 H 98 H 98 H 98 H 97 H 96 H 96 H 97 H 97 H 98 H 97 H 98 H 96 H 98 H 97 H 98 H 96 H 98 H 97 H 98 H 97 H 99 H 97 H 98 H 98 H 98 H 98 H 98 H 97 H 96 H 98 H 98 H 98 H 98 H 98 H 98 H 98 H 98 H 98 H 98 H 98 H 98 H 97 H 96 H 97 H 97 H 96 H 96 H 96 H 96 H 95 H 95 H 94 H 93 H 93 H NL
XSH 65 H 65 H 68 H 80 H 78 H 82 H 84 H 85 H 88 H 94 H 88 H 86 H 86 H 87 H 86 H 91 H 88 H 86 H 90 H 91 H 89 H 88 H 91 H 95 H 97 H 94 H 95 H 95 H 96 H 97 H 96 H 96 H 96 H 95 H 96 H 94 H 96 H 95 H 96 H 96 H 98 H 98 H 96 H 97 H 96 H 98 H 98 H 98 H 98 H 96 H 97 H 97 H 98 H 97 H 97 H 97 H 96 H 96 H 96 H 97 H 96 H 95 H 95 H 96 H 96 H 97 H 97 H 97 H 97 H 99 H 98 H 98 H 97 H 98 H 97 H 97 H 97 H 98 H 98 H 98 H 99 H 97 H 98 H 97 H 98 H 97 H 98 H 95 H 98 H 96 H 98 H 95 H 98 H 95 H 98 H 94 H 96 H 94 H 93 H NL
XSH 64 H 64 H 65 H 73 H 79 H 90 H 88 H 89 H 87 H 87 H 87 H 88 H 86 H 86 H 86 H 88 H 88 H 86 H 87 H 88 H 90 H 90 H 91 H 93 H 95 H 95 H 94 H 92 H 96 H 97 H 96 H 96 H 96 H 94 H 96 H 97 H 96 H 96 H 96 H 97 H 96 H 98 H 96 H 96 H 96 H 97 H 97 H 98 H 97 H 97 H 97 H 97 H 97 H 97 H 97 H 98 H 96 H 98 H 97 H 98 H 96 H 98 H 96 H 98 H 96 H 98 H 97 H 98 H 97 H 97 H 98 H 99 H 97 H 96 H 96 H 97 H 97 H 97 H 98 H 98 H 98 H 98 H 98 H 98 H 98 H 98 H 97 H 96 H 96 H 97 H 96 H 96 H 96 H 95 H 95 H 95 H 96 H 95 H 94 H NL
XSH 64 H 64 H 58 H 75 H 86 H 89 H 87 H 86 H 89 H 87 H 87 H 85 H 86 H 86 H 86 H 88 H 88 H 84 H 88 H 91 H 90 H 93 H 92 H 93 H 96 H 93 H 94 H 96 H 96 H 98 H 95 H 96 H 94 H 97 H 96 H 98 H 96 H 97 H 96 H 95 H 95 H 95 H 95 H 96 H 96 H 95 H 95 H 96 H 95 H 97 H 95 H 97 H 94 H 96 H 95 H 96 H 96 H 97 H 96 H 96 H 95 H 96 H 97 H 96 H 97 H 96 H 97 H 97 H 97 H 95 H 96 H 96 H 95 H 94 H 96 H 95 H 97 H 96 H 98 H 97 H 97 H 98 H 98 H 99 H 98 H 99 H 95 H 98 H 96 H 98 H 95 H 98 H 96 H 97 H 95 H 97 H 97 H 95 H 92 H NL
XSH 63 H 59 H 68 H 78 H 81 H 80 H 85 H 86 H 86 H 86 H 85 H 83 H 83 H 83 H 87 H 87 H 85 H 85 H 88 H 85 H 90 H 92 H 92 H 93 H 93 H 91 H 94 H 95 H 95 H 95 H 95 H 94 H 96 H 95 H 96 H 96 H 97 H 98 H 96 H 96 H 96 H 97 H 96 H 96 H 96 H 96 H 96 H 98 H 96 H 96 H 95 H 97 H 96 H 98 H 96 H 98 H 96 H 98 H 96 H 98 H 96 H 97 H 97 H 99 H 97 H 98 H 97 H 99 H 97 H 97 H 96 H 97 H 97 H 97 H 96 H 97 H 97 H 97 H 97 H 98 H 98 H 98 H 98 H 98 H 98 H 96 H 97 H 97 H 97 H 96 H 97 H 97 H 96 H 95 H 97 H 97 H 96 H 93 H 93 H NL
XSH 54 H 63 H 67 H 70 H 77 H 82 H 76 H 84 H 83 H 83 H 81 H 85 H 81 H 82 H 88 H 85 H 85 H 85 H 90 H 89 H 88 H 90 H 89 H 93 H 91 H 94 H 93 H 95 H 95 H 95 H 97 H 95 H 98 H 97 H 96 H 97 H 98 H 97 H 98 H 96 H 98 H 99 H 97 H 95 H 95 H 95 H 95 H 95 H 96 H 94 H 95 H 95 H 97 H 96 H 96 H 96 H 96 H 95 H 96 H 96 H 96 H 97 H 95 H 97 H 97 H 97 H 96 H 97 H 96 H 95 H 95 H 95 H 96 H 97 H 96 H 98 H 96 H 98 H 96 H 98 H 98 H 98 H 98 H 97 H 99 H 96 H 98 H 97 H 99 H 97 H 99 H 97 H 98 H 96 H 98 H 97 H 96 H 95 H 93 H NL
XSH 59 H 65 H 63 H 61 H 74 H 78 H 79 H 80 H 83 H 85 H 84 H 87 H 86 H 85 H 88 H 89 H 87 H 86 H 88 H 87 H 89 H 91 H 90 H 89 H 89 H 89 H 94 H 94 H 95 H 95 H 95 H 94 H 96 H 97 H 97 H 94 H 97 H 96 H 97 H 97 H 97 H 98 H 96 H 96 H 96 H 96 H 96 H 97 H 96 H 96 H 96 H 97 H 97 H 97 H 97 H 98 H 97 H 97 H 97 H 99 H 98 H 98 H 97 H 97 H 97 H 97 H 97 H 99 H 97 H 97 H 97 H 98 H 98 H 98 H 97 H 97 H 97 H 98 H 97 H 96 H 98 H 98 H 97 H 97 H 97 H 97 H 97 H 96 H 97 H 96 H 97 H 97 H 97 H 95 H 97 H 96 H 96 H 96 H 96 H NL
XSH 59 H 63 H 63 H 74 H 73 H 79 H 73 H 78 H 85 H 83 H 86 H 88 H 87 H 88 H 88 H 87 H 87 H 90 H 89 H 92 H 88 H 90 H 88 H 90 H 89 H 93 H 95 H 93 H 94 H 95 H 95 H 96 H 97 H 98 H 96 H 97 H 96 H 97 H 96 H 97 H 95 H 95 H 94 H 97 H 95 H 96 H 96 H 96 H 95 H 96 H 97 H 97 H 97 H 97 H 97 H 98 H 96 H 97 H 97 H 97 H 98 H 97 H 98 H 95 H 97 H 96 H 97 H 97 H 96 H 98 H 97 H 97 H 98 H 97 H 99 H 96 H 99 H 97 H 98 H 97 H 98 H 97 H 96 H 97 H 95 H 98 H 96 H 99 H 97 H 99 H 98 H 98 H 96 H 98 H 97 H 98 H 96 H 96 H 96 H NL
XSH 59 H 51 H 59 H 66 H 74 H 79 H 73 H 73 H 81 H 82 H 84 H 89 H 86 H 85 H 87 H 88 H 88 H 87 H 88 H 87 H 89 H 87 H 88 H 86 H 90 H 93 H 94 H 94 H 95 H 96 H 95 H 94 H 96 H 96 H 96 H 96 H 96 H 95 H 97 H 97 H 96 H 96 H 96 H 96 H 96 H 96 H 97 H 97 H 96 H 96 H 96 H 97 H 96 H 96 H 97 H 97 H 97 H 99 H 98 H 98 H 98 H 99 H 97 H 97 H 97 H 97 H 97 H 97 H 98 H 98 H 98 H 98 H 98 H 98 H 98 H 97 H 98 H 98 H 97 H 97 H 97 H 96 H 96 H 97 H 97 H 97 H 97 H 97 H 97 H 98 H 98 H 95 H 97 H 96 H 96 H 97 H 96 H 96 H 96 H NL
XSH 64 H 45 H 54 H 55 H 56 H 75 H 74 H 72 H 79 H 81 H 80 H 80 H 86 H 86 H 86 H 88 H 88 H 85 H 85 H 89 H 90 H 89 H 90 H 87 H 85 H 90 H 88 H 94 H 94 H 97 H 96 H 95 H 97 H 95 H 98 H 95 H 98 H 95 H 97 H 96 H 97 H 96 H 96 H 96 H 96 H 96 H 97 H 97 H 97 H 96 H 96 H 96 H 96 H 96 H 96 H 96 H 97 H 98 H 98 H 97 H 97 H 97 H 97 H 97 H 96 H 97 H 96 H 97 H 97 H 98 H 98 H 99 H 98 H 99 H 98 H 98 H 97 H 98 H 97 H 97 H 98 H 97 H 98 H 96 H 98 H 97 H 98 H 96 H 98 H 96 H 98 H 97 H 97 H 97 H 94 H 96 H 95 H 95 H 95 H NL
XSH 45 H 45 H 45 H 50 H 56 H 61 H 71 H 69 H 71 H 71 H 80 H 75 H 80 H 79 H 85 H 88 H 87 H 85 H 85 H 89 H 89 H 89 H 88 H 88 H 87 H 86 H 88 H 87 H 92 H 93 H 95 H 93 H 95 H 95 H 95 H 94 H 96 H 96 H 97 H 97 H 97 H 97 H 96 H 96 H 96 H 95 H 96 H 97 H 97 H 96 H 97 H 97 H 96 H 95 H 96 H 98 H 98 H 99 H 98 H 98 H 98 H 99 H 97 H 97 H 97 H 97 H 97 H 98 H 97 H 98 H 98 H 98 H 98 H 99 H 98 H 98 H 98 H 97 H 97 H 96 H 98 H 98 H 97 H 96 H 97 H 97 H 97 H 97 H 97 H 97 H 97 H 98 H 97 H 97 H 97 H 96 H 95 H 94 H 94 H NL
XSH 42 H 44 H 42 H 43 H 56 H 73 H 69 H 77 H 65 H 84 H 80 H 82 H 74 H 81 H 84 H 82 H 86 H 86 H 84 H 87 H 86 H 87 H 88 H 87 H 87 H 83 H 89 H 87 H 91 H 95 H 96 H 95 H 95 H 97 H 95 H 98 H 95 H 97 H 96 H 98 H 96 H 97 H 95 H 97 H 96 H 95 H 96 H 97 H 96 H 97 H 97 H 98 H 97 H 96 H 98 H 97 H 98 H 98 H 97 H 98 H 98 H 97 H 96 H 96 H 97 H 95 H 97 H 95 H 98 H 97 H 99 H 98 H 99 H 98 H 99 H 98 H 98 H 98 H 98 H 98 H 98 H 98 H 97 H 98 H 98 H 99 H 97 H 98 H 98 H 98 H 97 H 96 H 98 H 97 H 95 H 94 H 94 H 94 H 94 H NL
XSH 51 H 51 H 42 H 54 H 61 H 70 H 71 H 75 H 76 H 78 H 77 H 71 H 74 H 74 H 80 H 83 H 84 H 84 H 85 H 83 H 84 H 80 H 86 H 86 H 87 H 88 H 87 H 84 H 91 H 95 H 95 H 94 H 95 H 93 H 95 H 96 H 97 H 97 H 97 H 97 H 97 H 96 H 97 H 97 H 97 H 96 H 97 H 96 H 97 H 97 H 97 H 97 H 97 H 97 H 97 H 97 H 98 H 99 H 98 H 99 H 98 H 97 H 97 H 98 H 98 H 98 H 97 H 96 H 97 H 97 H 98 H 98 H 98 H 98 H 98 H 97 H 98 H 97 H 98 H 97 H 98 H 97 H 97 H 96 H 98 H 97 H 98 H 98 H 98 H 97 H 97 H 96 H 96 H 96 H 95 H 95 H 94 H 96 H 94 H NL
XSH 52 H 53 H 40 H 24 H 44 H 66 H 71 H 71 H 69 H 76 H 77 H 75 H 78 H 74 H 78 H 75 H 81 H 79 H 87 H 85 H 84 H 84 H 82 H 85 H 88 H 87 H 85 H 87 H 87 H 91 H 91 H 95 H 94 H 96 H 95 H 98 H 97 H 97 H 98 H 97 H 99 H 97 H 98 H 98 H 98 H 97 H 98 H 97 H 97 H 97 H 98 H 98 H 98 H 98 H 98 H 98 H 97 H 98 H 98 H 98 H 99 H 97 H 99 H 98 H 98 H 99 H 98 H 99 H 97 H 99 H 97 H 99 H 98 H 99 H 98 H 97 H 98 H 98 H 98 H 97 H 99 H 98 H 99 H 97 H 98 H 98 H 98 H 98 H 98 H 97 H 97 H 97 H 96 H 97 H 96 H 94 H 93 H 93 H 93 H NL
XSH 37 H 37 H 46 H 54 H 44 H 47 H 61 H 60 H 61 H 62 H 76 H 71 H 74 H 76 H 75 H 78 H 77 H 77 H 79 H 81 H 84 H 85 H 84 H 87 H 85 H 85 H 85 H 85 H 85 H 86 H 89 H 90 H 91 H 92 H 93 H 94 H 95 H 95 H 97 H 97 H 97 H 96 H 97 H 97 H 98 H 96 H 97 H 96 H 97 H 96 H 98 H 98 H 98 H 96 H 98 H 98 H 98 H 97 H 98 H 98 H 98 H 97 H 98 H 98 H 98 H 98 H 98 H 98 H 98 H 97 H 98 H 98 H 98 H 98 H 98 H 97 H 98 H 98 H 98 H 96 H 98 H 97 H 98 H 96 H 97 H 97 H 97 H 97 H 98 H 97 H 96 H 95 H 95 H 95 H 95 H 94 H 94 H 94 H 93 H NL
XSH 33 H 60 H 36 H 33 H 44 H 44 H 62 H 59 H 52 H 75 H 76 H 73 H 64 H 71 H 75 H 77 H 82 H 69 H 79 H 73 H 86 H 84 H 79 H 79 H 84 H 85 H 80 H 80 H 83 H 88 H 87 H 87 H 89 H 91 H 91 H 94 H 96 H 96 H 96 H 99 H 96 H 98 H 97 H 99 H 98 H 98 H 98 H 98 H 98 H 98 H 98 H 98 H 98 H 98 H 99 H 98 H 98 H 99 H 99 H 99 H 97 H 99 H 99 H 99 H 99 H 99 H 99 H 99 H 99 H 97 H 99 H 98 H 100 H 98 H 99 H 98 H 98 H 98 H 98 H 98 H 98 H 98 H 97 H 98 H 97 H 97 H 97 H 98 H 96 H 96 H 96 H 95 H 96 H 96 H 95 H 93 H 95 H 94 H 89 H NL
XSH 50 H 50 H 39 H 42 H 43 H 38 H 60 H 62 H 65 H 69 H 71 H 63 H 67 H 72 H 74 H 70 H 73 H 76 H 75 H 75 H 82 H 80 H 79 H 78 H 81 H 78 H 80 H 81 H 83 H 84 H 85 H 82 H 87 H 85 H 92 H 93 H 96 H 96 H 96 H 96 H 97 H 97 H 97 H 97 H 97 H 96 H 97 H 96 H 98 H 98 H 98 H 97 H 97 H 97 H 98 H 96 H 98 H 99 H 99 H 97 H 98 H 98 H 99 H 99 H 99 H 98 H 99 H 99 H 98 H 96 H 98 H 99 H 98 H 98 H 98 H 97 H 98 H 98 H 98 H 97 H 97 H 96 H 97 H 97 H 97 H 96 H 97 H 96 H 96 H 96 H 95 H 95 H 95 H 95 H 94 H 91 H 93 H 91 H 90 H NL
/y 0 def
/xoff 5.000000 def
/yoff 854.478450 def
XSH 27 LN 8 LN 21 LN 18 LN 31 LN 26 LN 16 LN 32 LN 24 LN 25 LN 31 LN 28 LN 34 LN 28 LN 41 LN 54 LN 47 LN 45 LN 54 LN 64 LN 70 LN 78 LN 87 LN 85 LN 80 LN 80 LN 78 LN 85 LN 89 LN (multinube) 89 LAB 90 LN 91 LN 91 LN 91 LN 93 LN 95 LN 95 LN 93 LN 87 LN 82 LN 82 LN 79 LN 71 LN 65 LN 53 LN 46 LN 35 LN 35 LN 39 LN 24 LN NL NL
XSH 22 LN 20 LN 18 LN 24 LN 42 LN 30 LN 34 LN 42 LN 31 LN 46 LN 41 LN 37 LN 44 LN 47 LN 51 LN 61 LN 59 LN 62 LN 73 LN 74 LN 80 LN 86 LN 87 LN (nube) 83 LAB 84 LN 85 LN 87 LN 89 LN 93 LN 91 LN 93 LN 93 LN 94 LN 94 LN 94 LN 95 LN 96 LN 94 LN (nube) 91 LAB 85 LN 83 LN 83 LN 75 LN 69 LN 61 LN 55 LN 39 LN 36 LN 38 LN 49 LN NL NL
XSH 34 LN 34 LN 28 LN 31 LN 26 LN 36 LN 34 LN 45 LN 44 LN 35 LN 47 LN 41 LN 42 LN 44 LN 50 LN 57 LN 62 LN 66 LN 73 LN 75 LN 78 LN 87 LN 87 LN 89 LN (nube) 89 LAB 90 LN 90 LN 93 LN 93 LN 93 LN 95 LN 94 LN 95 LN 94 LN 95 LN (nube) 96 LAB (nube) 97 LAB 97 LN 95 LN 94 LN 87 LN 86 LN 83 LN 78 LN 71 LN 66 LN 66 LN 54 LN 50 LN 34 LN NL NL
XSH 33 LN 34 LN 28 LN 31 LN 33 LN 37 LN 40 LN 41 LN 51 LN 52 LN 52 LN 37 LN 49 LN 40 LN 58 LN 63 LN 62 LN 75 LN 77 LN 81 LN 88 LN 90 LN 90 LN 91 LN 93 LN 94 LN 94 LN 94 LN 94 LN 96 LN 96 LN 96 LN (nube) 96 LAB 97 LN 97 LN 96 LN 97 LN (nube) 97 LAB (nube) 95 LAB 94 LN 89 LN 84 LN 84 LN 77 LN 76 LN 70 LN 62 LN 61 LN 49 LN 44 LN NL NL
XSH 31 LN 37 LN 41 LN (nube) 37 LAB 37 LN 36 LN 47 LN 42 LN 36 LN 51 LN 46 LN 51 LN 57 LN 44 LN 47 LN 66 LN 69 LN 75 LN 74 LN 81 LN (nube) 85 LAB 91 LN (multinube) 91 LAB 95 LN 95 LN 95 LN 95 LN 95 LN 96 LN 96 LN 96 LN 97 LN 97 LN 97 LN 96 LN 96 LN 96 LN 97 LN 96 LN 96 LN 94 LN 89 LN 88 LN 84 LN 80 LN 78 LN 75 LN 66 LN 60 LN 52 LN NL NL
XSH 29 LN 43 LN 36 LN 33 LN 38 LN 26 LN 33 LN 36 LN 47 LN 49 LN 53 LN 56 LN 44 LN 49 LN 50 LN 62 LN 74 LN 76 LN 81 LN 88 LN 91 LN 93 LN (nube) 95 LAB 95 LN 96 LN 96 LN 96 LN (multinube) 96 LAB 97 LN 96 LN 97 LN 97 LN (nube) 97 LAB 97 LN 96 LN 96 LN 97 LN 96 LN (nube) 96 LAB (multinube) 96 LAB (multinube) 94 LAB 92 LN 89 LN 85 LN 77 LN 81 LN 71 LN 67 LN 58 LN 54 LN NL NL
XSH 29 LN 25 LN 29 LN 32 LN 45 LN 41 LN 37 LN 35 LN 55 LN 48 LN 50 LN 50 LN 54 LN 61 LN 63 LN 61 LN 69 LN 82 LN 82 LN 88 LN 90 LN (nube) 93 LAB 95 LN (multinube) 96 LAB (nube) 96 LAB 97 LN 95 LN 97 LN 97 LN 97 LN 97 LN (nube) 97 LAB 97 LN 97 LN 96 LN 96 LN 97 LN 97 LN 97 LN 96 LN (nube) 95 LAB 94 LN 92 LN 91 LN 88 LN 86 LN 85 LN (nube) 78 LAB 72 LN 67 LN NL NL
XSH 32 LN 34 LN 27 LN 41 LN 42 LN 46 LN 60 LN 65 LN 65 LN 63 LN 65 LN 67 LN 63 LN 62 LN 58 LN 64 LN 79 LN 83 LN 87 LN 92 LN 94 LN (nube) 95 LAB 96 LN 96 LN 96 LN 95 LN 96 LN 97 LN 97 LN (nube) 98 LAB 97 LN (nube) 97 LAB (nube) 97 LAB 97 LN 97 LN (nube) 97 LAB 96 LN 96 LN 96 LN (multinube) 96 LAB 95 LN 94 LN 93 LN 92 LN 89 LN 88 LN 87 LN 81 LN 76 LN 68 LN NL NL
XSH 30 LN 30 LN 36 LN 41 LN 37 LN 49 LN 57 LN 64 LN 72 LN 69 LN 76 LN 73 LN 73 LN 67 LN 59 LN 68 LN 77 LN 83 LN 86 LN 93 LN 94 LN 95 LN 96 LN 96 LN 97 LN 97 LN 97 LN 97 LN 97 LN 97 LN (nube) 97 LAB 97 LN 97 LN 97 LN (nube) 97 LAB (nube) 97 LAB 97 LN (nube) 96 LAB (nube) 95 LAB 96 LN 96 LN (multinube) 95 LAB 93 LN 94 LN (nube) 93 LAB 89 LN 89 LN 86 LN (nube) 81 LAB 73 LN NL NL
XSH 35 LN 24 LN 53 LN 56 LN 61 LN 63 LN 68 LN 68 LN 70 LN 77 LN 78 LN (multinube) 78 LAB 77 LN 74 LN 78 LN 78 LN 81 LN 88 LN 92 LN 95 LN 97 LN 96 LN 96 LN 97 LN (multinube) 98 LAB 97 LN 97 LN 97 LN 97 LN 97 LN 97 LN 97 LN 96 LN 97 LN 97 LN 97 LN 96 LN 96 LN 97 LN 97 LN 95 LN 95 LN (nube) 94 LAB (nube) 93 LAB (nube) 92 LAB (nube) 91 LAB 88 LN 88 LN 81 LN 80 LN NL NL
XSH 39 LN 33 LN 48 LN 54 LN 63 LN 65 LN 70 LN 71 LN 71 LN 82 LN 86 LN (nube) 87 LAB 82 LN 82 LN 81 LN 80 LN 79 LN 86 LN 92 LN (nube) 96 LAB 97 LN 97 LN 97 LN 97 LN 97 LN 96 LN (nube) 98 LAB 97 LN 97 LN 97 LN 97 LN (multinube) 97 LAB 96 LN (nube) 96 LAB 97 LN 96 LN 96 LN 96 LN 97 LN 96 LN (nube) 96 LAB 96 LN 95 LN 94 LN 94 LN (nube) 92 LAB 88 LN 83 LN 84 LN 78 LN NL NL
XSH 39 LN 42 LN 66 LN 68 LN 68 LN 69 LN 76 LN 79 LN 83 LN (nube) 87 LAB (multinube) 89 LAB 89 LN 85 LN 82 LN 81 LN 83 LN 84 LN (multinube) 91 LAB 96 LN (multinube) 96 LAB (nube) 97 LAB 97 LN 97 LN 97 LN 97 LN 97 LN (nube) 97 LAB 97 LN 97 LN 97 LN 96 LN 96 LN 96 LN (nube) 97 LAB 97 LN 97 LN 96 LN 96 LN 96 LN 96 LN 96 LN 96 LN 94 LN 94 LN 92 LN (nube) 90 LAB 87 LN 87 LN 83 LN 82 LN NL NL
XSH 47 LN 59 LN 64 LN 67 LN 75 LN 80 LN 81 LN 81 LN 85 LN 86 LN 88 LN 89 LN 85 LN 83 LN 82 LN 86 LN 88 LN 91 LN 95 LN 96 LN 96 LN (multinube) 96 LAB 97 LN 97 LN 97 LN 97 LN 97 LN 98 LN (nube) 97 LAB (nube) 97 LAB 97 LN 97 LN 97 LN 97 LN (multinube) 97 LAB (nube) 97 LAB 97 LN (multinube) 96 LAB 97 LN 97 LN (nube) 96 LAB (nube) 95 LAB 95 LN 94 LN 93 LN 92 LN 88 LN 86 LN 86 LN 83 LN NL NL
XSH 57 LN 60 LN 62 LN 77 LN 80 LN 82 LN 82 LN 87 LN 87 LN 87 LN 91 LN (multinube) 88 LAB 86 LN 84 LN 88 LN 92 LN 93 LN 94 LN 96 LN 96 LN 96 LN 97 LN 97 LN 97 LN 97 LN 96 LN (nube) 98 LAB (multinube) 97 LAB 97 LN 96 LN 96 LN 97 LN (multinube) 97 LAB 97 LN (multinube) 97 LAB (multinube) 97 LAB 97 LN 96 LN 96 LN 95 LN 95 LN 94 LN 94 LN 94 LN 93 LN 90 LN 83 LN 83 LN 84 LN 75 LN NL NL
XSH 58 LN 60 LN 61 LN 72 LN 78 LN (nube) 80 LAB 83 LN 84 LN 88 LN (multinube) 87 LAB 89 LN 91 LN 89 LN 87 LN 90 LN 92 LN 93 LN 92 LN (multinube) 94 LAB (nube) 96 LAB 96 LN 96 LN 96 LN 96 LN 96 LN 96 LN 96 LN 96 LN 97 LN 96 LN (multinube) 96 LAB 97 LN 97 LN 96 LN 97 LN (nube) 97 LAB 97 LN 97 LN 97 LN 96 LN 96 LN 95 LN 94 LN 94 LN 92 LN 91 LN 86 LN 83 LN 84 LN 79 LN NL NL
XSH 51 LN 57 LN 69 LN 79 LN 82 LN 84 LN 84 LN 89 LN 89 LN 90 LN 91 LN 92 LN 89 LN 90 LN 93 LN 94 LN 94 LN 94 LN 95 LN 96 LN 96 LN 96 LN 97 LN 97 LN 98 LN 97 LN (nube) 96 LAB 97 LN 96 LN 96 LN 97 LN 97 LN 97 LN 97 LN 97 LN 97 LN 97 LN (nube) 97 LAB (nube) 96 LAB 96 LN 96 LN 96 LN 94 LN 94 LN 93 LN 91 LN 86 LN (nube) 83 LAB 77 LN 75 LN NL NL
XSH 50 LN 64 LN 71 LN 77 LN 78 LN 83 LN 86 LN 88 LN 91 LN 90 LN 90 LN 93 LN 93 LN 91 LN 91 LN (nube) 94 LAB 94 LN 95 LN 95 LN 96 LN 96 LN 97 LN 97 LN 98 LN 98 LN 97 LN 97 LN 97 LN (multinube) 97 LAB 97 LN (multinube) 97 LAB 97 LN 98 LN 97 LN 97 LN 97 LN (nube) 96 LAB 96 LN 96 LN 97 LN (multinube) 96 LAB 96 LN 94 LN 94 LN (nube) 94 LAB 93 LN 91 LN 89 LN 77 LN 72 LN NL NL
XSH 62 LN 67 LN 72 LN 78 LN 81 LN 84 LN 87 LN 87 LN 91 LN 94 LN 95 LN 94 LN 93 LN 93 LN 95 LN 95 LN 95 LN (multinube) 96 LAB 96 LN 96 LN (nube) 97 LAB (nube) 97 LAB (nube) 97 LAB (multinube) 98 LAB 97 LN 97 LN 97 LN 97 LN 97 LN 97 LN 97 LN (nube) 97 LAB (multinube) 97 LAB (multinube) 97 LAB 97 LN 96 LN 97 LN 96 LN (multinube) 96 LAB 96 LN 96 LN 94 LN (nube) 93 LAB 93 LN 91 LN 92 LN 91 LN 85 LN 80 LN 66 LN NL NL
XSH 54 LN 66 LN 76 LN 81 LN 80 LN 83 LN 84 LN (nube) 88 LAB 91 LN (nube) 95 LAB (nube) 95 LAB (nube) 94 LAB 94 LN 95 LN 95 LN 95 LN 97 LN 97 LN 97 LN 97 LN 97 LN 98 LN 97 LN 98 LN 98 LN 97 LN 97 LN 97 LN 97 LN 97 LN 98 LN 98 LN 97 LN (nube) 97 LAB (nube) 97 LAB 96 LN 96 LN 97 LN 97 LN (multinube) 96 LAB 97 LN 96 LN 95 LN 93 LN 92 LN 91 LN 91 LN 87 LN 83 LN 78 LN NL NL
XSH 56 LN (nube) 67 LAB 77 LN 79 LN 79 LN 82 LN 86 LN 91 LN (nube) 92 LAB (nube) 95 LAB (nube) 94 LAB 94 LN (nube) 94 LAB 95 LN 95 LN 96 LN 97 LN 97 LN (multinube) 97 LAB 97 LN 97 LN 97 LN 97 LN 97 LN 97 LN 98 LN 97 LN (nube) 97 LAB 98 LN 97 LN 98 LN 97 LN 97 LN 97 LN 96 LN 97 LN (multinube) 97 LAB 97 LN 96 LN 96 LN 97 LN 96 LN 95 LN 93 LN 93 LN 91 LN (nube) 89 LAB 85 LN 80 LN 81 LN NL NL
XSH 44 LN 60 LN 74 LN 75 LN 79 LN 80 LN 83 LN 91 LN 93 LN 93 LN (nube) 93 LAB 93 LN 93 LN 94 LN 95 LN 96 LN 96 LN (nube) 97 LAB (multinube) 96 LAB 96 LN 97 LN 97 LN 97 LN (multinube) 97 LAB 97 LN (nube) 97 LAB (nube) 98 LAB 98 LN 98 LN (nube) 98 LAB 97 LN 97 LN 97 LN 98 LN 97 LN 97 LN 97 LN 97 LN 97 LN 97 LN 96 LN (nube) 96 LAB 96 LN 95 LN 93 LN 93 LN (nube) 88 LAB 88 LN 83 LN 78 LN NL NL
XSH 58 LN 64 LN 73 LN 76 LN 80 LN 82 LN 86 LN 88 LN (nube) 93 LAB (nube) 91 LAB 92 LN 93 LN 94 LN 94 LN 96 LN 96 LN 97 LN (nube) 97 LAB (multinube) 97 LAB 97 LN 97 LN 97 LN 98 LN 98 LN 97 LN (nube) 97 LAB (nube) 98 LAB (nube) 98 LAB (nube) 98 LAB 98 LN 98 LN 98 LN (multinube) 98 LAB 97 LN 97 LN 97 LN (nube) 97 LAB 97 LN 97 LN 96 LN 96 LN 96 LN 96 LN 96 LN 92 LN 91 LN 86 LN 85 LN 82 LN 80 LN NL NL
XSH 49 LN 57 LN 72 LN 75 LN 78 LN 78 LN 82 LN 87 LN 87 LN 91 LN 91 LN 92 LN 92 LN 95 LN 95 LN 96 LN 97 LN 97 LN 97 LN 97 LN 97 LN 97 LN 98 LN 97 LN 97 LN (nube) 98 LAB 98 LN (nube) 97 LAB 97 LN (nube) 98 LAB (nube) 98 LAB 98 LN 98 LN 97 LN 97 LN 97 LN (multinube) 97 LAB 97 LN (nube) 97 LAB 97 LN 96 LN 97 LN 97 LN 96 LN 95 LN 92 LN 90 LN 85 LN 82 LN 82 LN NL NL
XSH 48 LN 66 LN 70 LN 77 LN 75 LN 80 LN 84 LN 85 LN 85 LN 89 LN 91 LN 94 LN 96 LN 96 LN 96 LN (multinube) 97 LAB 97 LN 97 LN 97 LN 97 LN 97 LN 98 LN (multinube) 98 LAB (nube) 97 LAB 98 LN (multinube) 98 LAB (nube) 97 LAB 97 LN 98 LN 98 LN (nube) 98 LAB 98 LN 98 LN 97 LN 97 LN 97 LN 97 LN 97 LN (multinube) 97 LAB (nube) 97 LAB 97 LN 97 LN (nube) 97 LAB 97 LN 94 LN 93 LN 85 LN 81 LN 79 LN 76 LN NL NL
XSH 47 LN 55 LN 62 LN 67 LN 73 LN 73 LN 81 LN 85 LN 86 LN 88 LN (multinube) 91 LAB 93 LN (nube) 96 LAB 96 LN (nube) 96 LAB 97 LN 96 LN (multinube) 97 LAB 98 LN 98 LN (multinube) 98 LAB 98 LN 98 LN (nube) 98 LAB 98 LN (nube) 97 LAB 97 LN 98 LN 98 LN 98 LN (nube) 98 LAB 98 LN 98 LN 97 LN (multinube) 97 LAB (nube) 97 LAB 97 LN 97 LN 97 LN (multinube) 98 LAB 98 LN (multinube) 97 LAB 96 LN 96 LN 95 LN 93 LN 91 LN 83 LN 83 LN 74 LN NL NL
XSH 33 LN 51 LN 55 LN 66 LN 72 LN 78 LN 81 LN 88 LN 90 LN 89 LN 93 LN 93 LN (nube) 95 LAB 96 LN 96 LN 97 LN 96 LN 98 LN (nube) 98 LAB 98 LN 98 LN (nube) 98 LAB 98 LN (nube) 97 LAB 97 LN 98 LN 98 LN 98 LN (nube) 97 LAB 98 LN 98 LN (nube) 98 LAB 98 LN 97 LN (nube) 97 LAB 98 LN (multinube) 97 LAB (multinube) 97 LAB (multinube) 98 LAB 98 LN 98 LN 97 LN 97 LN 96 LN 95 LN 94 LN 92 LN 84 LN (nube) 81 LAB 73 LN NL NL
XSH 34 LN 33 LN 54 LN 52 LN 64 LN 73 LN 82 LN 83 LN 88 LN 89 LN 91 LN 94 LN 95 LN (multinube) 95 LAB 96 LN 97 LN 97 LN 97 LN 98 LN 98 LN (nube) 98 LAB (multinube) 98 LAB (multinube) 98 LAB 97 LN 97 LN (multinube) 98 LAB 97 LN 98 LN 97 LN (nube) 97 LAB 97 LN 97 LN 98 LN (nube) 98 LAB (nube) 97 LAB 98 LN (nube) 98 LAB (nube) 98 LAB 98 LN 97 LN 98 LN 98 LN 97 LN (multinube) 97 LAB 96 LN (nube) 95 LAB 94 LN 91 LN 82 LN 81 LN NL NL
XSH 23 LN 32 LN 47 LN 54 LN 66 LN 75 LN (nube) 83 LAB 85 LN 85 LN 88 LN 92 LN 93 LN 95 LN 95 LN 96 LN 97 LN (nube) 97 LAB 98 LN (nube) 98 LAB 97 LN 98 LN 97 LN 97 LN 97 LN 98 LN (multinube) 97 LAB (nube) 97 LAB (nube) 98 LAB (multinube) 97 LAB 97 LN 97 LN (nube) 97 LAB (nube) 97 LAB 97 LN 97 LN 97 LN 98 LN 98 LN 97 LN 97 LN 97 LN 97 LN 98 LN 97 LN 96 LN 94 LN 92 LN 85 LN 81 LN 83 LN NL NL
XSH 23 LN 32 LN 47 LN 45 LN 45 LN 61 LN 73 LN 83 LN 81 LN 86 LN 89 LN (nube) 90 LAB 93 LN (nube) 94 LAB 95 LN 96 LN 97 LN 96 LN 96 LN 97 LN (multinube) 97 LAB 97 LN 97 LN 97 LN 97 LN 98 LN 97 LN 97 LN 98 LN 97 LN 97 LN 98 LN 98 LN 98 LN 97 LN 97 LN (nube) 98 LAB (nube) 98 LAB 98 LN (multinube) 97 LAB 97 LN 97 LN (nube) 97 LAB 98 LN (nube) 97 LAB 96 LN 93 LN 89 LN 82 LN 81 LN NL NL
XSH 34 LN 44 LN 46 LN 33 LN 47 LN 58 LN 74 LN 76 LN (nube) 80 LAB 88 LN 90 LN 92 LN (multinube) 95 LAB 94 LN 96 LN 96 LN 97 LN 96 LN 97 LN 97 LN 97 LN 97 LN (nube) 97 LAB 97 LN 98 LN 98 LN 98 LN 97 LN 97 LN 98 LN 97 LN 98 LN (multinube) 97 LAB 97 LN 97 LN 97 LN 98 LN 97 LN (multinube) 98 LAB 98 LN 98 LN 98 LN 98 LN 98 LN 98 LN 95 LN 94 LN 88 LN 81 LN 77 LN NL NL
XSH 34 LN 35 LN 46 LN 37 LN 50 LN 55 LN 65 LN 74 LN 78 LN 88 LN 91 LN 92 LN 94 LN 95 LN 95 LN 96 LN 97 LN 97 LN 98 LN 98 LN (multinube) 98 LAB 98 LN 98 LN 97 LN 98 LN 97 LN 97 LN (nube) 97 LAB 98 LN (multinube) 98 LAB 98 LN (multinube) 97 LAB 97 LN 97 LN 96 LN (nube) 97 LAB (multinube) 97 LAB 97 LN (multinube) 97 LAB 98 LN (nube) 98 LAB 98 LN 98 LN 98 LN 98 LN 97 LN 95 LN 92 LN 87 LN 80 LN NL NL
XSH 33 LN (multinube) 41 LAB 54 LN 62 LN 65 LN 73 LN 73 LN 83 LN 86 LN (nube) 90 LAB 93 LN 94 LN 94 LN 96 LN 97 LN (multinube) 97 LAB 97 LN 98 LN 98 LN 98 LN (multinube) 98 LAB 98 LN 98 LN 98 LN 97 LN (multinube) 97 LAB 97 LN 98 LN (nube) 98 LAB 98 LN 98 LN 97 LN 97 LN 97 LN 97 LN 96 LN 97 LN 97 LN (multinube) 97 LAB (nube) 98 LAB 98 LN 98 LN (multinube) 98 LAB 98 LN 97 LN 97 LN 96 LN 92 LN 86 LN 76 LN NL NL
XSH 49 LN 54 LN 54 LN 62 LN 73 LN 75 LN 77 LN 83 LN 87 LN 90 LN 93 LN (nube) 93 LAB (nube) 94 LAB (nube) 96 LAB 96 LN 97 LN (nube) 97 LAB 98 LN 98 LN 97 LN 97 LN 98 LN 97 LN 97 LN (nube) 97 LAB (nube) 97 LAB 98 LN (nube) 98 LAB 98 LN 98 LN (nube) 98 LAB 97 LN 97 LN 97 LN 97 LN 97 LN 97 LN 97 LN 97 LN 97 LN 98 LN (multinube) 98 LAB 98 LN 98 LN 98 LN (nube) 97 LAB (nube) 97 LAB 95 LN (nube) 89 LAB 81 LN NL NL
XSH 56 LN 59 LN 65 LN 78 LN 75 LN 80 LN 79 LN 86 LN 88 LN 92 LN 93 LN 95 LN 96 LN 96 LN 97 LN 97 LN 97 LN (nube) 97 LAB (multinube) 98 LAB 98 LN (multinube) 97 LAB 97 LN 97 LN 97 LN 97 LN (nube) 97 LAB 98 LN (nube) 97 LAB 98 LN 97 LN 97 LN 97 LN (nube) 98 LAB 98 LN (nube) 97 LAB 97 LN 97 LN 98 LN 98 LN 98 LN 98 LN 98 LN 98 LN 98 LN (nube) 98 LAB 97 LN 97 LN 95 LN (nube) 88 LAB 86 LN NL NL
XSH 48 LN 60 LN 62 LN 76 LN 78 LN 79 LN 81 LN 84 LN 86 LN 89 LN 93 LN 95 LN (nube) 95 LAB 96 LN 96 LN 96 LN 97 LN 97 LN 97 LN 98 LN 98 LN 97 LN 98 LN (multinube) 97 LAB (nube) 96 LAB 96 LN (nube) 97 LAB 97 LN (multinube) 97 LAB 97 LN (nube) 97 LAB 97 LN (nube) 97 LAB 97 LN 98 LN 97 LN 96 LN 97 LN 98 LN (nube) 98 LAB 97 LN 98 LN (nube) 98 LAB 98 LN 98 LN 98 LN 97 LN 95 LN 93 LN 91 LN NL NL
XSH 67 LN 69 LN 79 LN 79 LN 78 LN 84 LN 85 LN 85 LN 86 LN 91 LN 94 LN 95 LN 95 LN 97 LN 97 LN 97 LN 97 LN (nube) 97 LAB (nube) 97 LAB 97 LN 97 LN (multinube) 97 LAB 97 LN (nube) 98 LAB 97 LN 97 LN (multinube) 97 LAB 97 LN 97 LN (nube) 97 LAB 97 LN 97 LN 97 LN 97 LN 98 LN 97 LN 97 LN 98 LN 98 LN (nube) 97 LAB 98 LN 98 LN (nube) 98 LAB 98 LN 98 LN 97 LN 96 LN (nube) 95 LAB 93 LN 80 LN NL NL
XSH 62 LN 70 LN 76 LN 85 LN 84 LN 84 LN 86 LN 87 LN 88 LN 88 LN 91 LN 94 LN 95 LN 96 LN 96 LN 96 LN 96 LN 97 LN (nube) 97 LAB 97 LN (nube) 97 LAB 97 LN 97 LN 98 LN (multinube) 98 LAB 97 LN 97 LN 98 LN (nube) 97 LAB 97 LN 97 LN (multinube) 98 LAB 97 LN (nube) 98 LAB (nube) 98 LAB (nube) 97 LAB 97 LN 98 LN 98 LN 97 LN 97 LN 98 LN 98 LN (nube) 98 LAB 98 LN 98 LN 97 LN 96 LN 94 LN 90 LN NL NL
XSH 78 LN 81 LN 76 LN 84 LN 85 LN (nube) 88 LAB 88 LN 89 LN 89 LN 89 LN 92 LN 94 LN 95 LN 96 LN 97 LN (nube) 96 LAB (nube) 96 LAB 96 LN 96 LN 97 LN 96 LN 97 LN 97 LN 97 LN 98 LN (nube) 98 LAB 98 LN (nube) 98 LAB 98 LN (nube) 98 LAB 98 LN 98 LN (nube) 97 LAB 98 LN (nube) 98 LAB 98 LN (nube) 98 LAB 98 LN 98 LN (nube) 98 LAB (nube) 97 LAB 98 LN 98 LN (nube) 98 LAB 97 LN 97 LN 96 LN (nube) 95 LAB 94 LN 92 LN NL NL
XSH 72 LN 76 LN 79 LN 83 LN 84 LN 87 LN 88 LN 89 LN (nube) 87 LAB 90 LN 90 LN 93 LN (nube) 95 LAB 96 LN 97 LN 97 LN (nube) 96 LAB (multinube) 97 LAB 96 LN 97 LN 96 LN 97 LN (nube) 97 LAB 98 LN (nube) 98 LAB 98 LN 98 LN (nube) 97 LAB 98 LN (nube) 98 LAB 98 LN (nube) 98 LAB 98 LN 97 LN 98 LN 98 LN 98 LN (nube) 98 LAB 98 LN 98 LN 98 LN 98 LN (nube) 97 LAB 97 LN 98 LN 97 LN (nube) 96 LAB (nube) 96 LAB 95 LN 92 LN NL NL
XSH 68 LN 79 LN 84 LN 82 LN 88 LN 89 LN 88 LN (nube) 88 LAB 87 LN 91 LN 91 LN 93 LN 95 LN 96 LN (nube) 97 LAB (multinube) 97 LAB 97 LN 98 LN 96 LN 97 LN 96 LN 97 LN 98 LN 98 LN 98 LN 98 LN 97 LN 97 LN (multinube) 98 LAB 98 LN 98 LN 98 LN (nube) 97 LAB 97 LN 97 LN 98 LN (nube) 98 LAB 98 LN (nube) 98 LAB (multinube) 98 LAB (nube) 98 LAB 98 LN (nube) 97 LAB 97 LN (nube) 97 LAB 97 LN 96 LN 95 LN 93 LN 89 LN NL NL
XSH 66 LN 78 LN 82 LN (multinube) 83 LAB 86 LN 88 LN (nube) 88 LAB 89 LN 85 LN 88 LN 89 LN 92 LN 94 LN (multinube) 95 LAB 97 LN 97 LN 97 LN 97 LN 97 LN (nube) 97 LAB 96 LN (nube) 96 LAB 97 LN 98 LN (multinube) 98 LAB 98 LN 97 LN (nube) 96 LAB (nube) 98 LAB 98 LN 97 LN 98 LN (nube) 98 LAB 97 LN 97 LN 98 LN (nube) 97 LAB 98 LN 98 LN 98 LN 98 LN 98 LN 98 LN (nube) 97 LAB (nube) 97 LAB 96 LN 96 LN 96 LN 94 LN 92 LN NL NL
XSH 65 LN 81 LN 82 LN 84 LN 89 LN 87 LN 87 LN 87 LN 88 LN 90 LN 89 LN 94 LN 95 LN 95 LN (nube) 97 LAB 97 LN 96 LN 96 LN 96 LN 96 LN (nube) 96 LAB 96 LN 98 LN (nube) 98 LAB 97 LN 96 LN 97 LN 97 LN 96 LN (nube) 97 LAB 96 LN 97 LN 97 LN 97 LN (nube) 98 LAB 98 LN 97 LN 98 LN 98 LN 98 LN 98 LN (nube) 98 LAB 98 LN 97 LN 97 LN 96 LN 96 LN 95 LN 94 LN 93 LN NL NL
XSH 64 LN 65 LN 79 LN 88 LN 87 LN 87 LN 86 LN 86 LN 88 LN 87 LN 90 LN 91 LN 95 LN 94 LN 96 LN 96 LN 96 LN 96 LN 96 LN (nube) 96 LAB 96 LN 96 LN 96 LN 97 LN 97 LN 97 LN 97 LN 97 LN (nube) 96 LAB (nube) 97 LAB 96 LN 96 LN (nube) 96 LAB 97 LN 97 LN 98 LN 97 LN 96 LN 97 LN 98 LN 98 LN 98 LN (nube) 98 LAB 97 LN 96 LN 96 LN 96 LN (nube) 95 LAB 96 LN 94 LN NL NL
XSH 63 LN (nube) 68 LAB 81 LN 85 LN 86 LN 85 LN 83 LN 87 LN 85 LN 88 LN 90 LN 92 LN 93 LN 94 LN 95 LN (nube) 95 LAB 96 LN 96 LN 97 LN (nube) 96 LAB (nube) 96 LAB (nube) 96 LAB 96 LN (nube) 96 LAB 96 LN 95 LN (nube) 96 LAB 96 LN 96 LN (nube) 96 LAB 96 LN 97 LN (nube) 97 LAB (nube) 97 LAB 97 LN 96 LN (nube) 97 LAB 96 LN 97 LN 97 LN (nube) 98 LAB 98 LN (nube) 98 LAB 97 LN 97 LN 97 LN 96 LN 97 LN 96 LN (cieloDespejado) 93 LAB NL NL
XSH 59 LN 63 LN 74 LN 79 LN 83 LN 84 LN 86 LN 88 LN 87 LN 88 LN 89 LN 90 LN 89 LN 94 LN 95 LN (nube) 95 LAB 96 LN (nube) 97 LAB 97 LN 97 LN (multinube) 97 LAB 96 LN 96 LN 96 LN 96 LN (nube) 96 LAB 97 LN 97 LN 97 LN (nube) 97 LAB 98 LN (nube) 97 LAB 97 LN (nube) 97 LAB 97 LN 97 LN (nube) 98 LAB 97 LN 97 LN 97 LN 98 LN 97 LN 97 LN 97 LN 97 LN 97 LN 97 LN (nube) 97 LAB (nube) 96 LAB 96 LN NL NL
XSH 59 LN 59 LN 74 LN 73 LN 81 LN 84 LN 86 LN 87 LN 88 LN (nube) 88 LAB 89 LN 88 LN 90 LN 94 LN 95 LN (nube) 95 LAB 96 LN 96 LN (nube) 96 LAB 97 LN 96 LN 96 LN 96 LN (nube) 97 LAB 96 LN 96 LN 96 LN 97 LN 97 LN (nube) 98 LAB 98 LN 97 LN 97 LN 97 LN 98 LN 98 LN 98 LN (nube) 98 LAB 98 LN 97 LN 97 LN 96 LN 97 LN 97 LN 97 LN 98 LN 97 LN (cieloDespejado) 96 LAB (nube) 96 LAB 96 LN NL NL
XSH 45 LN 45 LN 56 LN 71 LN 71 LN 80 LN 80 LN 85 LN 87 LN 85 LN 89 LN 88 LN 87 LN 88 LN (nube) 92 LAB 95 LN (nube) 95 LAB (nube) 95 LAB 96 LN 97 LN 97 LN 96 LN 96 LN 96 LN (nube) 97 LAB 97 LN 96 LN (nube) 96 LAB 98 LN 98 LN (cieloDespejado) 98 LAB 97 LN 97 LN 97 LN 97 LN 98 LN (nube) 98 LAB (nube) 98 LAB 98 LN (nube) 97 LAB 98 LN 97 LN 97 LN 97 LN 97 LN 97 LN 97 LN 97 LN (nube) 95 LAB 94 LN NL NL
XSH 51 LN 42 LN 61 LN 71 LN 76 LN 77 LN 74 LN 80 LN 84 LN 85 LN (nube) 84 LAB 86 LN 87 LN 87 LN 91 LN 95 LN 95 LN 95 LN (nube) 97 LAB 97 LN 97 LN 97 LN (nube) 97 LAB 97 LN 97 LN 97 LN 97 LN 97 LN 98 LN (cieloDespejado) 98 LAB (cieloDespejado) 98 LAB (cieloDespejado) 97 LAB 98 LN 97 LN (nube) 97 LAB (cieloDespejado) 98 LAB 98 LN 98 LN 98 LN (nube) 98 LAB 98 LN 97 LN 98 LN 98 LN (nube) 98 LAB 97 LN 96 LN 95 LN 94 LN 94 LN NL NL
XSH 37 LN 46 LN 44 LN 61 LN 61 LN 76 LN 74 LN 75 LN 77 LN 79 LN (nube) 84 LAB 84 LN 85 LN 85 LN 85 LN 89 LN 91 LN 93 LN 95 LN 97 LN (nube) 97 LAB (nube) 97 LAB 98 LN 97 LN 97 LN 98 LN 98 LN 98 LN 98 LN (cieloDespejado) 98 LAB (nube) 98 LAB 98 LN (nube) 98 LAB (cieloDespejado) 98 LAB 98 LN 98 LN 98 LN 98 LN 98 LN (nube) 98 LAB (nube) 98 LAB 98 LN (nube) 97 LAB (nube) 97 LAB 98 LN (nube) 96 LAB 95 LN 95 LN 94 LN 93 LN NL NL
XSH 50 LN 39 LN 43 LN 60 LN 65 LN 71 LN 67 LN 74 LN 73 LN 75 LN 82 LN 79 LN 81 LN 80 LN 83 LN 85 LN 87 LN 92 LN 96 LN 96 LN 97 LN (cieloDespejado) 97 LAB 97 LN (cieloDespejado) 97 LAB (cieloDespejado) 98 LAB (cieloDespejado) 98 LAB (cieloDespejado) 97 LAB 98 LN 98 LN (nube) 99 LAB (cieloDespejado) 98 LAB 99 LN (cieloDespejado) 99 LAB (nube) 99 LAB (cieloDespejado) 98 LAB (nube) 98 LAB 98 LN (nube) 98 LAB 98 LN 98 LN 97 LN 97 LN 97 LN 97 LN (nube) 96 LAB 95 LN 95 LN 94 LN 93 LN 90 LN NL NL
end
% end of EPS object
