%!PS-Adobe-3.0 EPSF-3.0
%%BoundingBox: 0 0 1000 1000
%%Title: MapaEntrenado.cod
%%Creator: umat V1.0
%%CreationDate: Thu Dec 15 18:37:49 2016
%%Pages: 0
%%DocumentFonts: Helvetica
%%DocumentNeededFonts: Helvetica
%%EndComments
%
% PS header for umat - SOM to PS converter
% Version 1.0 Tue Feb 28 1995
% Author: Jussi Hynninen <hynde@nucleus.hut.fi>
100 dict begin

% predefine variables
/yoff 0 def /xoff 0 def /xstep 0 def /ystep 0 def /y 0 def /radius 0 def
/doborder false def
% default font
/fontname /Helvetica def
% font size relative to radius
/fontsize 1.0 def

% default black and white tresholds
/bt 0.0 def /wt 1.0 def

% labelpallon sade suhteessa hexan sateeseen
/ballrad 0.2 def

% newline function. Moves the y coordinate to the next line
/NL 
{ /yoff yoff ystep sub def % next row
  /y y 1 add def % add y by one
  } bind def

% start of line (for hexagonal lattice) - moves the current position in 
% x direction to the correct place of the line
/XSH
{ xoff 
  y 4 mod
  dup 3 eq {pop 1} if
  xstep 2 div mul
  add
  yoff moveto % move to start of line
} bind def

% start of line (for rectangular lattice) - moves the current position in 
% x direction to the correct place of the line
/XSR { xoff yoff moveto } bind def

% set label color. If block is light -> label is black and same for dark block
/sbc { .5 gt {0} {1} ifelse setgray } bind def

% set gray level
/G { 
  100 div dup bt le {pop 0}
  { dup wt ge {pop 1} {bt sub wt bt sub div} ifelse
  } ifelse
} bind def

% unlabelled node
/LN { 
  gsave
  G sbc
  currentpoint radius ballrad mul 0 360 arc fill 
  grestore
  xstep 2 mul 0 rmoveto
} bind def

%select font
/selfont {
  fontname findfont radius fontsize mul scalefont setfont
} bind def

% print single label

/LAB { 
  gsave
  G sbc
  dup %duplicate string  
  stringwidth
  pop fontsize radius mul -0.25 mul exch
  -2 div exch
  rmoveto
  show
  grestore
  xstep 2 mul 0 rmoveto
} bind def

% print multiple labels on one unit
/ML {
  gsave
  G sbc
  /numlabs exch def %number of labels
  numlabs
  2 div 
  0.25 sub
  radius fontsize mul mul neg
  0 exch rmoveto
  1 1 numlabs {
    pop
    gsave
    dup %duplicate string  
    stringwidth
    pop 
    -2 div 0
    rmoveto
    show
    grestore
    0 fontsize radius mul rmoveto
  } for 
  grestore
  xstep 2 mul 0 rmoveto
} bind def

% print hexagon
/H { 
  gsave
  G dup setgray %duplicate gray level
  currentpoint translate
  newpath 0 radius moveto
  5 {60 rotate 0 radius lineto} repeat
  closepath
  doborder { gsave fill grestore sbc stroke}
           { fill pop } ifelse
  grestore  
  xstep 0 rmoveto
} bind def

% print rectangle
/R {
  gsave
  G dup setgray %duplicate gray level
  currentpoint translate
  newpath
  xstep 0.5 mul dup moveto
  xstep neg 0 rlineto
  0 xstep neg rlineto
  xstep 0 rlineto
  closepath
  doborder { gsave fill grestore sbc stroke}
           { fill pop } ifelse
  grestore  
  xstep 0 rmoveto
} bind def

1 setlinewidth

% End of umat PS header
% Start image


/radius 17.241379 def
/xstep 34.482758 def
/ystep 34.482758 def
%%IncludeFont: Helvetica
/fontname /Helvetica def
selfont
/doborder false def
/wt 1.000000 def /bt 0.000000 def
/y 0 def
/xoff 17.241379 def
/yoff 982.758621 def
XSR 85 R 96 R 74 R 73 R 73 R 56 R 56 R 44 R 44 R 36 R 36 R 33 R 33 R 30 R 30 R 27 R 29 R 29 R 36 R 36 R 37 R 37 R 37 R 34 R 45 R 45 R 78 R 78 R 87 R NL
XSR 75 R 84 R 74 R 73 R 74 R 65 R 75 R 59 R 76 R 55 R 75 R 54 R 73 R 52 R 70 R 49 R 69 R 50 R 70 R 54 R 73 R 56 R 77 R 57 R 83 R 65 R 90 R 86 R 96 R NL
XSR 75 R 95 R 73 R 72 R 64 R 55 R 53 R 44 R 48 R 37 R 43 R 35 R 40 R 33 R 37 R 30 R 34 R 31 R 38 R 38 R 42 R 42 R 45 R 40 R 51 R 48 R 69 R 78 R 78 R NL
XSR 45 R 66 R 44 R 58 R 47 R 53 R 50 R 49 R 51 R 46 R 49 R 44 R 46 R 42 R 41 R 39 R 38 R 39 R 38 R 43 R 42 R 47 R 48 R 50 R 54 R 58 R 59 R 73 R 65 R NL
XSR 45 R 96 R 59 R 73 R 51 R 56 R 47 R 44 R 41 R 38 R 37 R 37 R 37 R 37 R 36 R 35 R 35 R 35 R 36 R 41 R 41 R 48 R 48 R 50 R 52 R 57 R 58 R 80 R 65 R NL
XSR 30 R 56 R 27 R 48 R 28 R 43 R 31 R 40 R 33 R 38 R 33 R 38 R 32 R 39 R 30 R 38 R 27 R 37 R 26 R 39 R 29 R 44 R 34 R 48 R 37 R 53 R 39 R 62 R 42 R NL
XSR 30 R 97 R 51 R 74 R 42 R 56 R 37 R 44 R 35 R 38 R 35 R 37 R 35 R 40 R 35 R 40 R 35 R 39 R 35 R 43 R 38 R 52 R 43 R 58 R 48 R 67 R 53 R 83 R 42 R NL
XSR 30 R 56 R 25 R 47 R 22 R 39 R 21 R 35 R 22 R 35 R 25 R 37 R 28 R 40 R 30 R 42 R 30 R 42 R 30 R 43 R 32 R 47 R 35 R 51 R 35 R 54 R 33 R 58 R 32 R NL
XSR 36 R 99 R 55 R 77 R 42 R 57 R 34 R 43 R 31 R 37 R 32 R 37 R 33 R 41 R 36 R 43 R 38 R 43 R 39 R 45 R 41 R 53 R 47 R 63 R 52 R 73 R 55 R 87 R 34 R NL
XSR 36 R 60 R 32 R 51 R 27 R 43 R 25 R 38 R 25 R 38 R 27 R 40 R 29 R 44 R 31 R 46 R 32 R 46 R 35 R 48 R 38 R 51 R 41 R 56 R 41 R 58 R 37 R 60 R 34 R NL
XSR 41 R 98 R 59 R 79 R 49 R 60 R 41 R 44 R 37 R 37 R 37 R 37 R 36 R 41 R 37 R 44 R 38 R 43 R 39 R 44 R 41 R 52 R 47 R 65 R 55 R 78 R 61 R 91 R 42 R NL
XSR 41 R 64 R 40 R 58 R 38 R 51 R 37 R 47 R 37 R 46 R 37 R 47 R 35 R 48 R 33 R 49 R 32 R 47 R 33 R 47 R 37 R 50 R 42 R 56 R 44 R 61 R 44 R 66 R 42 R NL
XSR 41 R 96 R 61 R 79 R 53 R 61 R 46 R 45 R 41 R 38 R 38 R 39 R 39 R 42 R 38 R 45 R 38 R 43 R 37 R 41 R 39 R 48 R 45 R 63 R 54 R 80 R 64 R 96 R 51 R NL
XSR 41 R 64 R 42 R 61 R 45 R 57 R 47 R 53 R 47 R 51 R 45 R 51 R 40 R 50 R 33 R 48 R 29 R 44 R 27 R 41 R 29 R 44 R 35 R 52 R 42 R 62 R 48 R 71 R 51 R NL
XSR 41 R 93 R 59 R 76 R 52 R 59 R 46 R 44 R 44 R 38 R 41 R 41 R 40 R 46 R 40 R 48 R 36 R 44 R 33 R 38 R 34 R 42 R 39 R 59 R 50 R 80 R 65 R 100 R 59 R NL
XSR 40 R 65 R 41 R 61 R 44 R 57 R 46 R 51 R 45 R 47 R 41 R 46 R 35 R 46 R 28 R 43 R 23 R 39 R 21 R 36 R 23 R 38 R 29 R 48 R 40 R 62 R 51 R 75 R 59 R NL
XSR 40 R 91 R 57 R 72 R 50 R 56 R 44 R 42 R 40 R 37 R 39 R 43 R 39 R 50 R 39 R 51 R 34 R 44 R 29 R 36 R 31 R 38 R 35 R 52 R 48 R 76 R 65 R 98 R 64 R NL
XSR 37 R 63 R 37 R 57 R 38 R 51 R 38 R 44 R 36 R 39 R 32 R 40 R 27 R 41 R 23 R 40 R 20 R 36 R 21 R 34 R 25 R 38 R 33 R 48 R 43 R 64 R 55 R 78 R 64 R NL
XSR 37 R 89 R 52 R 67 R 44 R 50 R 38 R 39 R 36 R 36 R 34 R 44 R 35 R 53 R 38 R 53 R 32 R 44 R 28 R 34 R 30 R 34 R 35 R 47 R 47 R 70 R 63 R 94 R 66 R NL
XSR 25 R 54 R 23 R 46 R 24 R 39 R 26 R 34 R 27 R 33 R 26 R 36 R 24 R 39 R 21 R 38 R 19 R 34 R 20 R 33 R 26 R 37 R 36 R 48 R 46 R 64 R 57 R 78 R 66 R NL
XSR 25 R 88 R 42 R 61 R 33 R 42 R 29 R 32 R 29 R 33 R 29 R 43 R 33 R 53 R 37 R 52 R 31 R 43 R 27 R 33 R 29 R 31 R 34 R 43 R 44 R 64 R 61 R 89 R 66 R NL
XSR 12 R 44 R 8 R 34 R 9 R 27 R 13 R 24 R 18 R 26 R 20 R 31 R 20 R 34 R 17 R 33 R 14 R 30 R 14 R 28 R 20 R 32 R 29 R 43 R 41 R 58 R 52 R 74 R 62 R NL
XSR 14 R 87 R 33 R 55 R 21 R 32 R 18 R 22 R 20 R 26 R 23 R 38 R 29 R 49 R 33 R 50 R 29 R 43 R 24 R 33 R 24 R 29 R 29 R 37 R 39 R 58 R 55 R 82 R 62 R NL
XSR 14 R 44 R 10 R 32 R 9 R 22 R 12 R 18 R 16 R 21 R 18 R 26 R 17 R 30 R 14 R 30 R 12 R 28 R 13 R 27 R 17 R 29 R 25 R 38 R 35 R 52 R 46 R 68 R 57 R NL
XSR 40 R 87 R 43 R 50 R 28 R 22 R 17 R 11 R 15 R 15 R 23 R 28 R 29 R 41 R 34 R 47 R 36 R 44 R 32 R 35 R 31 R 28 R 30 R 32 R 40 R 50 R 52 R 74 R 62 R NL
XSR 40 R 60 R 35 R 44 R 34 R 29 R 33 R 21 R 32 R 22 R 32 R 27 R 30 R 33 R 28 R 36 R 27 R 37 R 30 R 36 R 34 R 36 R 39 R 41 R 45 R 53 R 54 R 68 R 62 R NL
XSR 79 R 87 R 61 R 46 R 40 R 15 R 24 R 3 R 19 R 5 R 24 R 17 R 31 R 31 R 37 R 42 R 42 R 43 R 40 R 36 R 35 R 29 R 34 R 30 R 45 R 44 R 60 R 66 R 66 R NL
XSR 79 R 83 R 76 R 60 R 73 R 40 R 69 R 31 R 66 R 30 R 63 R 35 R 62 R 44 R 62 R 51 R 64 R 54 R 67 R 53 R 69 R 51 R 71 R 52 R 73 R 61 R 77 R 75 R 82 R NL
XSR 83 R 87 R 76 R 46 R 46 R 14 R 14 R 0 R 0 R 0 R 9 R 9 R 25 R 25 R 38 R 38 R 42 R 42 R 42 R 38 R 38 R 32 R 32 R 31 R 41 R 41 R 61 R 61 R 72 R NL
/y 0 def
/xoff 17.241379 def
/yoff 982.758621 def
XSR 85 LN 74 LN 73 LN 56 LN 44 LN 36 LN 33 LN 30 LN 29 LN 36 LN 37 LN 37 LN 45 LN 78 LN 87 LN NL NL
XSR 75 LN 73 LN 64 LN 53 LN 48 LN 43 LN 40 LN 37 LN 34 LN 38 LN 42 LN 45 LN 51 LN 69 LN 78 LN NL NL
XSR 45 LN 59 LN 51 LN 47 LN 41 LN 37 LN 37 LN 36 LN 35 LN 36 LN 41 LN 48 LN 52 LN 58 LN 65 LN NL NL
XSR 30 LN 51 LN 42 LN 37 LN 35 LN 35 LN 35 LN 35 LN 35 LN 35 LN 38 LN 43 LN 48 LN 53 LN 42 LN NL NL
XSR 36 LN 55 LN 42 LN 34 LN 31 LN 32 LN 33 LN 36 LN 38 LN 39 LN 41 LN 47 LN 52 LN 55 LN 34 LN NL NL
XSR 41 LN 59 LN 49 LN 41 LN 37 LN 37 LN 36 LN 37 LN 38 LN 39 LN 41 LN 47 LN 55 LN 61 LN 42 LN NL NL
XSR 41 LN 61 LN 53 LN 46 LN 41 LN 38 LN 39 LN 38 LN 38 LN 37 LN 39 LN 45 LN 54 LN 64 LN 51 LN NL NL
XSR 41 LN 59 LN 52 LN 46 LN 44 LN 41 LN 40 LN 40 LN 36 LN 33 LN 34 LN 39 LN 50 LN 65 LN 59 LN NL NL
XSR 40 LN 57 LN 50 LN 44 LN 40 LN 39 LN 39 LN 39 LN 34 LN 29 LN 31 LN 35 LN 48 LN 65 LN 64 LN NL NL
XSR 37 LN 52 LN 44 LN 38 LN 36 LN 34 LN 35 LN 38 LN 32 LN 28 LN 30 LN 35 LN 47 LN 63 LN 66 LN NL NL
XSR 25 LN 42 LN 33 LN 29 LN 29 LN 29 LN 33 LN 37 LN 31 LN 27 LN 29 LN 34 LN 44 LN 61 LN 66 LN NL NL
XSR 14 LN 33 LN 21 LN 18 LN 20 LN 23 LN 29 LN 33 LN 29 LN 24 LN 24 LN 29 LN 39 LN 55 LN 62 LN NL NL
XSR 40 LN 43 LN 28 LN 17 LN 15 LN 23 LN 29 LN 34 LN 36 LN 32 LN 31 LN 30 LN 40 LN 52 LN 62 LN NL NL
XSR 79 LN 61 LN 40 LN 24 LN 19 LN 24 LN 31 LN 37 LN 42 LN 40 LN 35 LN 34 LN 45 LN 60 LN 66 LN NL NL
XSR 83 LN 76 LN 46 LN 14 LN 0 LN 9 LN 25 LN 38 LN 42 LN 42 LN 38 LN 32 LN 41 LN 61 LN 72 LN NL NL
end
% end of EPS object
