%!PS-Adobe-2.0 EPSF-2.0
%%Title: undefined
%%Creator: sammon
%%Pages: 1
%%EndComments
40 40 translate
/gscale 401.205872 def
gscale dup scale
/Helvetica findfont 12 gscale div scalefont setfont
/radius 0.004985 def
/LN
{newpath
radius 0 360 arc fill
} def
/LP
{dup stringwidth pop
-2 div 0 rmoveto show} def
0.000498 setlinewidth
0 setgray
0.355713 0.192672 LN
0.389411 0.188257 LN
0.439164 0.185608 LN
0.498801 0.176975 LN
0.564245 0.158336 LN
0.632657 0.130953 LN
0.702058 0.099445 LN
0.773673 0.067047 LN
0.848935 0.036234 LN
0.926027 0.011989 LN
1.002498 0.000000 LN
1.079769 0.003361 LN
1.158030 0.020166 LN
1.226816 0.043661 LN
1.271168 0.064598 LN
0.350720 0.235779 LN
0.385453 0.232712 LN
0.436037 0.229902 LN
0.496394 0.220379 LN
0.561839 0.200736 LN
0.629493 0.172821 LN
0.697753 0.141336 LN
0.767935 0.109438 LN
0.841666 0.079155 LN
0.917043 0.054617 LN
0.990653 0.040817 LN
1.063377 0.040184 LN
1.137040 0.050864 LN
1.203575 0.067719 LN
1.248770 0.084302 LN
0.344752 0.295528 LN
0.379481 0.293452 LN
0.429730 0.289087 LN
0.489983 0.277447 LN
0.555432 0.256507 LN
0.622937 0.228299 LN
0.690555 0.197177 LN
0.758802 0.166481 LN
0.829425 0.137924 LN
0.901718 0.114042 LN
0.972085 0.098468 LN
1.039506 0.093080 LN
1.105471 0.096514 LN
1.165697 0.105488 LN
1.210152 0.116332 LN
0.331345 0.360907 LN
0.364917 0.360472 LN
0.414174 0.355849 LN
0.474552 0.342821 LN
0.540884 0.320404 LN
0.609177 0.290955 LN
0.676719 0.258913 LN
0.743058 0.228401 LN
0.810078 0.201213 LN
0.878834 0.178217 LN
0.946463 0.161598 LN
1.010069 0.153165 LN
1.069451 0.152113 LN
1.122862 0.155911 LN
1.164854 0.161832 LN
0.309855 0.422716 LN
0.341069 0.424207 LN
0.387768 0.421336 LN
0.447496 0.409179 LN
0.515041 0.386431 LN
0.584845 0.355802 LN
0.653190 0.322189 LN
0.718919 0.290457 LN
0.783706 0.262852 LN
0.849972 0.239473 LN
0.916182 0.221755 LN
0.978217 0.211880 LN
1.033839 0.209601 LN
1.082209 0.212238 LN
1.120816 0.216175 LN
0.280870 0.478136 LN
0.309654 0.480306 LN
0.353087 0.479249 LN
0.411182 0.469321 LN
0.479395 0.447998 LN
0.550578 0.417993 LN
0.619984 0.384494 LN
0.686170 0.352192 LN
0.750493 0.323447 LN
0.816217 0.298502 LN
0.883060 0.278916 LN
0.946002 0.267627 LN
1.000720 0.265173 LN
1.046086 0.268530 LN
1.081167 0.272541 LN
0.244730 0.529834 LN
0.272364 0.530558 LN
0.314116 0.529592 LN
0.371303 0.521207 LN
0.439945 0.501757 LN
0.511933 0.473880 LN
0.581709 0.442988 LN
0.647880 0.412752 LN
0.712036 0.384680 LN
0.778321 0.359052 LN
0.847399 0.337619 LN
0.913486 0.324096 LN
0.970012 0.320164 LN
1.014456 0.322887 LN
1.046768 0.326292 LN
0.204126 0.581970 LN
0.232166 0.579813 LN
0.274700 0.577128 LN
0.332496 0.568760 LN
0.401840 0.550988 LN
0.474588 0.526115 LN
0.544084 0.499550 LN
0.608985 0.473753 LN
0.672208 0.448711 LN
0.738906 0.424307 LN
0.810289 0.401995 LN
0.880385 0.385456 LN
0.940727 0.377464 LN
0.986527 0.376274 LN
1.017783 0.376576 LN
0.163848 0.635776 LN
0.193568 0.631256 LN
0.238889 0.626597 LN
0.298605 0.617838 LN
0.369167 0.602239 LN
0.442727 0.581238 LN
0.511432 0.559465 LN
0.574151 0.538433 LN
0.635992 0.516915 LN
0.702921 0.494243 LN
0.775750 0.471292 LN
0.848689 0.450945 LN
0.912779 0.436603 LN
0.961296 0.428696 LN
0.993343 0.423841 LN
0.127406 0.692648 LN
0.159893 0.687603 LN
0.209454 0.682076 LN
0.273036 0.673608 LN
0.345850 0.660353 LN
0.419928 0.643051 LN
0.487454 0.625077 LN
0.548085 0.607479 LN
0.608685 0.588425 LN
0.675578 0.566254 LN
0.748647 0.541206 LN
0.822104 0.515915 LN
0.887839 0.494389 LN
0.938683 0.479160 LN
0.972436 0.468764 LN
0.095006 0.757243 LN
0.130679 0.753610 LN
0.185471 0.748351 LN
0.254700 0.739684 LN
0.331295 0.727099 LN
0.406526 0.711745 LN
0.473749 0.696173 LN
0.533763 0.681015 LN
0.593732 0.663681 LN
0.659578 0.640907 LN
0.730996 0.612100 LN
0.802759 0.580435 LN
0.867905 0.551156 LN
0.919820 0.528652 LN
0.955293 0.512911 LN
0.064469 0.829545 LN
0.102724 0.829266 LN
0.162783 0.825594 LN
0.238429 0.816510 LN
0.320568 0.802975 LN
0.399424 0.787727 LN
0.469313 0.773600 LN
0.531541 0.760715 LN
0.592044 0.745048 LN
0.655796 0.721394 LN
0.723405 0.688244 LN
0.791644 0.649388 LN
0.854794 0.611584 LN
0.906634 0.580917 LN
0.943351 0.558768 LN
0.035745 0.900546 LN
0.075545 0.905112 LN
0.139888 0.904646 LN
0.221701 0.896835 LN
0.310471 0.883372 LN
0.395784 0.868239 LN
0.472053 0.855348 LN
0.539451 0.844527 LN
0.601750 0.829877 LN
0.663220 0.804630 LN
0.726135 0.767182 LN
0.789964 0.721840 LN
0.850340 0.676178 LN
0.900945 0.637022 LN
0.938022 0.606996 LN
0.012570 0.957292 LN
0.053126 0.966477 LN
0.120133 0.969869 LN
0.206941 0.965492 LN
0.301662 0.954727 LN
0.394137 0.941484 LN
0.478419 0.930141 LN
0.552116 0.920370 LN
0.616850 0.905149 LN
0.676897 0.877436 LN
0.735982 0.836334 LN
0.795498 0.786425 LN
0.852694 0.735197 LN
0.901479 0.689801 LN
0.937825 0.652552 LN
0.000000 0.993382 LN
0.040593 1.005018 LN
0.108677 1.011675 LN
0.197731 1.010954 LN
0.295727 1.003894 LN
0.393156 0.993617 LN
0.483514 0.983604 LN
0.562054 0.973218 LN
0.628975 0.955993 LN
0.688758 0.926061 LN
0.745641 0.883217 LN
0.801628 0.831726 LN
0.855375 0.778138 LN
0.902205 0.729379 LN
0.937075 0.688048 LN
newpath
0.355713 0.192672 moveto
0.389411 0.188257 lineto
0.439164 0.185608 lineto
0.498801 0.176975 lineto
0.564245 0.158336 lineto
0.632657 0.130953 lineto
0.702058 0.099445 lineto
0.773673 0.067047 lineto
0.848935 0.036234 lineto
0.926027 0.011989 lineto
1.002498 0.000000 lineto
1.079769 0.003361 lineto
1.158030 0.020166 lineto
1.226816 0.043661 lineto
1.271168 0.064598 lineto
stroke
newpath
0.350720 0.235779 moveto
0.385453 0.232712 lineto
0.436037 0.229902 lineto
0.496394 0.220379 lineto
0.561839 0.200736 lineto
0.629493 0.172821 lineto
0.697753 0.141336 lineto
0.767935 0.109438 lineto
0.841666 0.079155 lineto
0.917043 0.054617 lineto
0.990653 0.040817 lineto
1.063377 0.040184 lineto
1.137040 0.050864 lineto
1.203575 0.067719 lineto
1.248770 0.084302 lineto
stroke
newpath
0.344752 0.295528 moveto
0.379481 0.293452 lineto
0.429730 0.289087 lineto
0.489983 0.277447 lineto
0.555432 0.256507 lineto
0.622937 0.228299 lineto
0.690555 0.197177 lineto
0.758802 0.166481 lineto
0.829425 0.137924 lineto
0.901718 0.114042 lineto
0.972085 0.098468 lineto
1.039506 0.093080 lineto
1.105471 0.096514 lineto
1.165697 0.105488 lineto
1.210152 0.116332 lineto
stroke
newpath
0.331345 0.360907 moveto
0.364917 0.360472 lineto
0.414174 0.355849 lineto
0.474552 0.342821 lineto
0.540884 0.320404 lineto
0.609177 0.290955 lineto
0.676719 0.258913 lineto
0.743058 0.228401 lineto
0.810078 0.201213 lineto
0.878834 0.178217 lineto
0.946463 0.161598 lineto
1.010069 0.153165 lineto
1.069451 0.152113 lineto
1.122862 0.155911 lineto
1.164854 0.161832 lineto
stroke
newpath
0.309855 0.422716 moveto
0.341069 0.424207 lineto
0.387768 0.421336 lineto
0.447496 0.409179 lineto
0.515041 0.386431 lineto
0.584845 0.355802 lineto
0.653190 0.322189 lineto
0.718919 0.290457 lineto
0.783706 0.262852 lineto
0.849972 0.239473 lineto
0.916182 0.221755 lineto
0.978217 0.211880 lineto
1.033839 0.209601 lineto
1.082209 0.212238 lineto
1.120816 0.216175 lineto
stroke
newpath
0.280870 0.478136 moveto
0.309654 0.480306 lineto
0.353087 0.479249 lineto
0.411182 0.469321 lineto
0.479395 0.447998 lineto
0.550578 0.417993 lineto
0.619984 0.384494 lineto
0.686170 0.352192 lineto
0.750493 0.323447 lineto
0.816217 0.298502 lineto
0.883060 0.278916 lineto
0.946002 0.267627 lineto
1.000720 0.265173 lineto
1.046086 0.268530 lineto
1.081167 0.272541 lineto
stroke
newpath
0.244730 0.529834 moveto
0.272364 0.530558 lineto
0.314116 0.529592 lineto
0.371303 0.521207 lineto
0.439945 0.501757 lineto
0.511933 0.473880 lineto
0.581709 0.442988 lineto
0.647880 0.412752 lineto
0.712036 0.384680 lineto
0.778321 0.359052 lineto
0.847399 0.337619 lineto
0.913486 0.324096 lineto
0.970012 0.320164 lineto
1.014456 0.322887 lineto
1.046768 0.326292 lineto
stroke
newpath
0.204126 0.581970 moveto
0.232166 0.579813 lineto
0.274700 0.577128 lineto
0.332496 0.568760 lineto
0.401840 0.550988 lineto
0.474588 0.526115 lineto
0.544084 0.499550 lineto
0.608985 0.473753 lineto
0.672208 0.448711 lineto
0.738906 0.424307 lineto
0.810289 0.401995 lineto
0.880385 0.385456 lineto
0.940727 0.377464 lineto
0.986527 0.376274 lineto
1.017783 0.376576 lineto
stroke
newpath
0.163848 0.635776 moveto
0.193568 0.631256 lineto
0.238889 0.626597 lineto
0.298605 0.617838 lineto
0.369167 0.602239 lineto
0.442727 0.581238 lineto
0.511432 0.559465 lineto
0.574151 0.538433 lineto
0.635992 0.516915 lineto
0.702921 0.494243 lineto
0.775750 0.471292 lineto
0.848689 0.450945 lineto
0.912779 0.436603 lineto
0.961296 0.428696 lineto
0.993343 0.423841 lineto
stroke
newpath
0.127406 0.692648 moveto
0.159893 0.687603 lineto
0.209454 0.682076 lineto
0.273036 0.673608 lineto
0.345850 0.660353 lineto
0.419928 0.643051 lineto
0.487454 0.625077 lineto
0.548085 0.607479 lineto
0.608685 0.588425 lineto
0.675578 0.566254 lineto
0.748647 0.541206 lineto
0.822104 0.515915 lineto
0.887839 0.494389 lineto
0.938683 0.479160 lineto
0.972436 0.468764 lineto
stroke
newpath
0.095006 0.757243 moveto
0.130679 0.753610 lineto
0.185471 0.748351 lineto
0.254700 0.739684 lineto
0.331295 0.727099 lineto
0.406526 0.711745 lineto
0.473749 0.696173 lineto
0.533763 0.681015 lineto
0.593732 0.663681 lineto
0.659578 0.640907 lineto
0.730996 0.612100 lineto
0.802759 0.580435 lineto
0.867905 0.551156 lineto
0.919820 0.528652 lineto
0.955293 0.512911 lineto
stroke
newpath
0.064469 0.829545 moveto
0.102724 0.829266 lineto
0.162783 0.825594 lineto
0.238429 0.816510 lineto
0.320568 0.802975 lineto
0.399424 0.787727 lineto
0.469313 0.773600 lineto
0.531541 0.760715 lineto
0.592044 0.745048 lineto
0.655796 0.721394 lineto
0.723405 0.688244 lineto
0.791644 0.649388 lineto
0.854794 0.611584 lineto
0.906634 0.580917 lineto
0.943351 0.558768 lineto
stroke
newpath
0.035745 0.900546 moveto
0.075545 0.905112 lineto
0.139888 0.904646 lineto
0.221701 0.896835 lineto
0.310471 0.883372 lineto
0.395784 0.868239 lineto
0.472053 0.855348 lineto
0.539451 0.844527 lineto
0.601750 0.829877 lineto
0.663220 0.804630 lineto
0.726135 0.767182 lineto
0.789964 0.721840 lineto
0.850340 0.676178 lineto
0.900945 0.637022 lineto
0.938022 0.606996 lineto
stroke
newpath
0.012570 0.957292 moveto
0.053126 0.966477 lineto
0.120133 0.969869 lineto
0.206941 0.965492 lineto
0.301662 0.954727 lineto
0.394137 0.941484 lineto
0.478419 0.930141 lineto
0.552116 0.920370 lineto
0.616850 0.905149 lineto
0.676897 0.877436 lineto
0.735982 0.836334 lineto
0.795498 0.786425 lineto
0.852694 0.735197 lineto
0.901479 0.689801 lineto
0.937825 0.652552 lineto
stroke
newpath
0.000000 0.993382 moveto
0.040593 1.005018 lineto
0.108677 1.011675 lineto
0.197731 1.010954 lineto
0.295727 1.003894 lineto
0.393156 0.993617 lineto
0.483514 0.983604 lineto
0.562054 0.973218 lineto
0.628975 0.955993 lineto
0.688758 0.926061 lineto
0.745641 0.883217 lineto
0.801628 0.831726 lineto
0.855375 0.778138 lineto
0.902205 0.729379 lineto
0.937075 0.688048 lineto
stroke
newpath
0.355713 0.192672 moveto
0.350720 0.235779 lineto
0.344752 0.295528 lineto
0.331345 0.360907 lineto
0.309855 0.422716 lineto
0.280870 0.478136 lineto
0.244730 0.529834 lineto
0.204126 0.581970 lineto
0.163848 0.635776 lineto
0.127406 0.692648 lineto
0.095006 0.757243 lineto
0.064469 0.829545 lineto
0.035745 0.900546 lineto
0.012570 0.957292 lineto
0.000000 0.993382 lineto
stroke
newpath
0.389411 0.188257 moveto
0.385453 0.232712 lineto
0.379481 0.293452 lineto
0.364917 0.360472 lineto
0.341069 0.424207 lineto
0.309654 0.480306 lineto
0.272364 0.530558 lineto
0.232166 0.579813 lineto
0.193568 0.631256 lineto
0.159893 0.687603 lineto
0.130679 0.753610 lineto
0.102724 0.829266 lineto
0.075545 0.905112 lineto
0.053126 0.966477 lineto
0.040593 1.005018 lineto
stroke
newpath
0.439164 0.185608 moveto
0.436037 0.229902 lineto
0.429730 0.289087 lineto
0.414174 0.355849 lineto
0.387768 0.421336 lineto
0.353087 0.479249 lineto
0.314116 0.529592 lineto
0.274700 0.577128 lineto
0.238889 0.626597 lineto
0.209454 0.682076 lineto
0.185471 0.748351 lineto
0.162783 0.825594 lineto
0.139888 0.904646 lineto
0.120133 0.969869 lineto
0.108677 1.011675 lineto
stroke
newpath
0.498801 0.176975 moveto
0.496394 0.220379 lineto
0.489983 0.277447 lineto
0.474552 0.342821 lineto
0.447496 0.409179 lineto
0.411182 0.469321 lineto
0.371303 0.521207 lineto
0.332496 0.568760 lineto
0.298605 0.617838 lineto
0.273036 0.673608 lineto
0.254700 0.739684 lineto
0.238429 0.816510 lineto
0.221701 0.896835 lineto
0.206941 0.965492 lineto
0.197731 1.010954 lineto
stroke
newpath
0.564245 0.158336 moveto
0.561839 0.200736 lineto
0.555432 0.256507 lineto
0.540884 0.320404 lineto
0.515041 0.386431 lineto
0.479395 0.447998 lineto
0.439945 0.501757 lineto
0.401840 0.550988 lineto
0.369167 0.602239 lineto
0.345850 0.660353 lineto
0.331295 0.727099 lineto
0.320568 0.802975 lineto
0.310471 0.883372 lineto
0.301662 0.954727 lineto
0.295727 1.003894 lineto
stroke
newpath
0.632657 0.130953 moveto
0.629493 0.172821 lineto
0.622937 0.228299 lineto
0.609177 0.290955 lineto
0.584845 0.355802 lineto
0.550578 0.417993 lineto
0.511933 0.473880 lineto
0.474588 0.526115 lineto
0.442727 0.581238 lineto
0.419928 0.643051 lineto
0.406526 0.711745 lineto
0.399424 0.787727 lineto
0.395784 0.868239 lineto
0.394137 0.941484 lineto
0.393156 0.993617 lineto
stroke
newpath
0.702058 0.099445 moveto
0.697753 0.141336 lineto
0.690555 0.197177 lineto
0.676719 0.258913 lineto
0.653190 0.322189 lineto
0.619984 0.384494 lineto
0.581709 0.442988 lineto
0.544084 0.499550 lineto
0.511432 0.559465 lineto
0.487454 0.625077 lineto
0.473749 0.696173 lineto
0.469313 0.773600 lineto
0.472053 0.855348 lineto
0.478419 0.930141 lineto
0.483514 0.983604 lineto
stroke
newpath
0.773673 0.067047 moveto
0.767935 0.109438 lineto
0.758802 0.166481 lineto
0.743058 0.228401 lineto
0.718919 0.290457 lineto
0.686170 0.352192 lineto
0.647880 0.412752 lineto
0.608985 0.473753 lineto
0.574151 0.538433 lineto
0.548085 0.607479 lineto
0.533763 0.681015 lineto
0.531541 0.760715 lineto
0.539451 0.844527 lineto
0.552116 0.920370 lineto
0.562054 0.973218 lineto
stroke
newpath
0.848935 0.036234 moveto
0.841666 0.079155 lineto
0.829425 0.137924 lineto
0.810078 0.201213 lineto
0.783706 0.262852 lineto
0.750493 0.323447 lineto
0.712036 0.384680 lineto
0.672208 0.448711 lineto
0.635992 0.516915 lineto
0.608685 0.588425 lineto
0.593732 0.663681 lineto
0.592044 0.745048 lineto
0.601750 0.829877 lineto
0.616850 0.905149 lineto
0.628975 0.955993 lineto
stroke
newpath
0.926027 0.011989 moveto
0.917043 0.054617 lineto
0.901718 0.114042 lineto
0.878834 0.178217 lineto
0.849972 0.239473 lineto
0.816217 0.298502 lineto
0.778321 0.359052 lineto
0.738906 0.424307 lineto
0.702921 0.494243 lineto
0.675578 0.566254 lineto
0.659578 0.640907 lineto
0.655796 0.721394 lineto
0.663220 0.804630 lineto
0.676897 0.877436 lineto
0.688758 0.926061 lineto
stroke
newpath
1.002498 0.000000 moveto
0.990653 0.040817 lineto
0.972085 0.098468 lineto
0.946463 0.161598 lineto
0.916182 0.221755 lineto
0.883060 0.278916 lineto
0.847399 0.337619 lineto
0.810289 0.401995 lineto
0.775750 0.471292 lineto
0.748647 0.541206 lineto
0.730996 0.612100 lineto
0.723405 0.688244 lineto
0.726135 0.767182 lineto
0.735982 0.836334 lineto
0.745641 0.883217 lineto
stroke
newpath
1.079769 0.003361 moveto
1.063377 0.040184 lineto
1.039506 0.093080 lineto
1.010069 0.153165 lineto
0.978217 0.211880 lineto
0.946002 0.267627 lineto
0.913486 0.324096 lineto
0.880385 0.385456 lineto
0.848689 0.450945 lineto
0.822104 0.515915 lineto
0.802759 0.580435 lineto
0.791644 0.649388 lineto
0.789964 0.721840 lineto
0.795498 0.786425 lineto
0.801628 0.831726 lineto
stroke
newpath
1.158030 0.020166 moveto
1.137040 0.050864 lineto
1.105471 0.096514 lineto
1.069451 0.152113 lineto
1.033839 0.209601 lineto
1.000720 0.265173 lineto
0.970012 0.320164 lineto
0.940727 0.377464 lineto
0.912779 0.436603 lineto
0.887839 0.494389 lineto
0.867905 0.551156 lineto
0.854794 0.611584 lineto
0.850340 0.676178 lineto
0.852694 0.735197 lineto
0.855375 0.778138 lineto
stroke
newpath
1.226816 0.043661 moveto
1.203575 0.067719 lineto
1.165697 0.105488 lineto
1.122862 0.155911 lineto
1.082209 0.212238 lineto
1.046086 0.268530 lineto
1.014456 0.322887 lineto
0.986527 0.376274 lineto
0.961296 0.428696 lineto
0.938683 0.479160 lineto
0.919820 0.528652 lineto
0.906634 0.580917 lineto
0.900945 0.637022 lineto
0.901479 0.689801 lineto
0.902205 0.729379 lineto
stroke
newpath
1.271168 0.064598 moveto
1.248770 0.084302 lineto
1.210152 0.116332 lineto
1.164854 0.161832 lineto
1.120816 0.216175 lineto
1.081167 0.272541 lineto
1.046768 0.326292 lineto
1.017783 0.376576 lineto
0.993343 0.423841 lineto
0.972436 0.468764 lineto
0.955293 0.512911 lineto
0.943351 0.558768 lineto
0.938022 0.606996 lineto
0.937825 0.652552 lineto
0.937075 0.688048 lineto
stroke
showpage
