%!PS-Adobe-2.0 EPSF-2.0
%%Title: undefined
%%Creator: sammon
%%Pages: 1
%%EndComments
40 40 translate
/gscale 810.743103 def
gscale dup scale
/Helvetica findfont 12 gscale div scalefont setfont
/radius 0.002467 def
/LN
{newpath
radius 0 360 arc fill
} def
/LP
{dup stringwidth pop
-2 div 0 rmoveto show} def
0.000247 setlinewidth
0 setgray
0.000000 0.000000 LN
0.120177 0.132364 LN
0.313411 0.409379 LN
0.341236 0.753070 LN
0.332824 0.937412 LN
newpath
0.000000 0.000000 moveto
0.120177 0.132364 lineto
0.313411 0.409379 lineto
0.341236 0.753070 lineto
0.332824 0.937412 lineto
stroke
newpath
0.000000 0.000000 moveto
newpath
0.120177 0.132364 moveto
newpath
0.313411 0.409379 moveto
newpath
0.341236 0.753070 moveto
newpath
0.332824 0.937412 moveto
showpage
