%!PS-Adobe-2.0 EPSF-2.0
%%Title: undefined
%%Creator: sammon
%%Pages: 1
%%EndComments
40 40 translate
/gscale 312.633331 def
gscale dup scale
/Helvetica findfont 12 gscale div scalefont setfont
/radius 0.006397 def
/LN
{newpath
radius 0 360 arc fill
} def
/LP
{dup stringwidth pop
-2 div 0 rmoveto show} def
0.000640 setlinewidth
0 setgray
0.416185 0.459313 LN
0.416185 0.459313 moveto
(multinube) LP
0.155182 0.331732 LN
0.155182 0.331732 moveto
(nube) LP
1.027342 0.425080 LN
1.027342 0.425080 moveto
(nube) LP
1.306028 0.942948 LN
1.306028 0.942948 moveto
(nube) LP
0.063677 0.105822 LN
0.063677 0.105822 moveto
(multinube) LP
0.897141 1.025442 LN
0.897141 1.025442 moveto
(nube) LP
1.416168 0.947539 LN
1.416168 0.947539 moveto
(nube) LP
1.168491 1.030523 LN
1.168491 1.030523 moveto
(nube) LP
0.704164 0.505021 LN
0.704164 0.505021 moveto
(nube) LP
1.296155 1.244061 LN
1.296155 1.244061 moveto
(nube) LP
1.631304 0.666207 LN
1.631304 0.666207 moveto
(multinube) LP
1.416455 1.054837 LN
1.416455 1.054837 moveto
(nube) LP
0.492046 1.045397 LN
0.492046 1.045397 moveto
(nube) LP
0.950111 1.830691 LN
0.950111 1.830691 moveto
(cieloDespejado) LP
1.042859 0.000000 LN
1.042859 0.000000 moveto
(multinube) LP
1.194355 0.475214 LN
1.194355 0.475214 moveto
(multinube) LP
1.268595 1.526228 LN
1.268595 1.526228 moveto
(cieloDespejado) LP
1.393705 0.473466 LN
1.393705 0.473466 moveto
(multinube) LP
0.500843 0.203318 LN
0.500843 0.203318 moveto
(multinube) LP
1.436261 1.515062 LN
1.436261 1.515062 moveto
(cieloDespejado) LP
1.483801 1.425278 LN
1.483801 1.425278 moveto
(cieloDespejado) LP
0.793974 0.125628 LN
0.793974 0.125628 moveto
(multinube) LP
1.046606 1.336827 LN
1.046606 1.336827 moveto
(multinube) LP
1.548255 1.508820 LN
1.548255 1.508820 moveto
(cieloDespejado) LP
1.539654 1.445562 LN
1.539654 1.445562 moveto
(cieloDespejado) LP
0.621077 0.814168 LN
0.621077 0.814168 moveto
(multinube) LP
1.265134 1.693409 LN
1.265134 1.693409 moveto
(cieloDespejado) LP
1.055207 1.828784 LN
1.055207 1.828784 moveto
(cieloDespejado) LP
1.420467 1.615921 LN
1.420467 1.615921 moveto
(cieloDespejado) LP
0.000000 0.529913 LN
0.000000 0.529913 moveto
(nube) LP
showpage
