%!PS-Adobe-2.0 EPSF-2.0
%%Title: undefined
%%Creator: sammon
%%Pages: 1
%%EndComments
40 40 translate
/gscale 280.612610 def
gscale dup scale
/Helvetica findfont 12 gscale div scalefont setfont
/radius 0.007127 def
/LN
{newpath
radius 0 360 arc fill
} def
/LP
{dup stringwidth pop
-2 div 0 rmoveto show} def
0.000713 setlinewidth
0 setgray
0.933602 0.050686 LN
0.933602 0.050686 moveto
(multinube) LP
1.007531 0.429666 LN
1.007531 0.429666 moveto
(nube) LP
1.294505 1.060900 LN
1.294505 1.060900 moveto
(nube) LP
0.762102 1.299665 LN
0.762102 1.299665 moveto
(nube) LP
1.817452 0.000000 LN
1.817452 0.000000 moveto
(multinube) LP
1.384369 1.893961 LN
1.384369 1.893961 moveto
(multinube) LP
0.177911 1.487252 LN
0.177911 1.487252 moveto
(cieloDespejado) LP
0.000000 1.763060 LN
0.000000 1.763060 moveto
(cieloDespejado) LP
1.396715 0.461408 LN
1.396715 0.461408 moveto
(multinube) LP
1.280002 0.093689 LN
1.280002 0.093689 moveto
(nube) LP
showpage
