%!PS-Adobe-2.0 EPSF-2.0
%%Title: undefined
%%Creator: sammon
%%Pages: 1
%%EndComments
40 40 translate
/gscale 413.860931 def
gscale dup scale
/Helvetica findfont 12 gscale div scalefont setfont
/radius 0.004833 def
/LN
{newpath
radius 0 360 arc fill
} def
/LP
{dup stringwidth pop
-2 div 0 rmoveto show} def
0.000483 setlinewidth
0 setgray
0.000000 0.163811 LN
0.067146 0.123902 LN
0.156786 0.082833 LN
0.239810 0.052682 LN
0.325875 0.023578 LN
0.433629 0.002943 LN
0.558921 0.000000 LN
0.709431 0.056928 LN
0.812338 0.137589 LN
0.932976 0.277302 LN
0.989798 0.419792 LN
0.987505 0.490220 LN
0.909080 0.544208 LN
0.784774 0.559856 LN
0.696857 0.523223 LN
0.624790 0.457994 LN
0.553397 0.394642 LN
0.487495 0.349021 LN
0.425211 0.336839 LN
0.367355 0.379594 LN
0.330792 0.454680 LN
0.311044 0.548882 LN
0.320052 0.623579 LN
0.335687 0.717411 LN
0.332424 0.870877 LN
0.348987 0.985352 LN
0.442480 1.054809 LN
0.565406 1.050332 LN
0.664493 0.990120 LN
0.713534 0.920619 LN
0.766251 0.844514 LN
0.831192 0.795858 LN
0.909808 0.791089 LN
0.968149 0.804635 LN
1.019727 0.862611 LN
1.086162 0.929043 LN
1.105867 1.031073 LN
1.157498 1.105389 LN
1.212257 1.183698 LN
1.232298 1.277509 LN
1.172282 1.356594 LN
1.085180 1.423125 LN
0.989626 1.436577 LN
0.875141 1.440154 LN
0.768880 1.451327 LN
0.683512 1.454362 LN
newpath
0.000000 0.163811 moveto
0.067146 0.123902 lineto
0.156786 0.082833 lineto
0.239810 0.052682 lineto
0.325875 0.023578 lineto
0.433629 0.002943 lineto
0.558921 0.000000 lineto
0.709431 0.056928 lineto
0.812338 0.137589 lineto
0.932976 0.277302 lineto
0.989798 0.419792 lineto
0.987505 0.490220 lineto
0.909080 0.544208 lineto
0.784774 0.559856 lineto
0.696857 0.523223 lineto
0.624790 0.457994 lineto
0.553397 0.394642 lineto
0.487495 0.349021 lineto
0.425211 0.336839 lineto
0.367355 0.379594 lineto
0.330792 0.454680 lineto
0.311044 0.548882 lineto
0.320052 0.623579 lineto
0.335687 0.717411 lineto
0.332424 0.870877 lineto
0.348987 0.985352 lineto
0.442480 1.054809 lineto
0.565406 1.050332 lineto
0.664493 0.990120 lineto
0.713534 0.920619 lineto
0.766251 0.844514 lineto
0.831192 0.795858 lineto
0.909808 0.791089 lineto
0.968149 0.804635 lineto
1.019727 0.862611 lineto
1.086162 0.929043 lineto
1.105867 1.031073 lineto
1.157498 1.105389 lineto
1.212257 1.183698 lineto
1.232298 1.277509 lineto
1.172282 1.356594 lineto
1.085180 1.423125 lineto
0.989626 1.436577 lineto
0.875141 1.440154 lineto
0.768880 1.451327 lineto
0.683512 1.454362 lineto
stroke
newpath
0.000000 0.163811 moveto
newpath
0.067146 0.123902 moveto
newpath
0.156786 0.082833 moveto
newpath
0.239810 0.052682 moveto
newpath
0.325875 0.023578 moveto
newpath
0.433629 0.002943 moveto
newpath
0.558921 0.000000 moveto
newpath
0.709431 0.056928 moveto
newpath
0.812338 0.137589 moveto
newpath
0.932976 0.277302 moveto
newpath
0.989798 0.419792 moveto
newpath
0.987505 0.490220 moveto
newpath
0.909080 0.544208 moveto
newpath
0.784774 0.559856 moveto
newpath
0.696857 0.523223 moveto
newpath
0.624790 0.457994 moveto
newpath
0.553397 0.394642 moveto
newpath
0.487495 0.349021 moveto
newpath
0.425211 0.336839 moveto
newpath
0.367355 0.379594 moveto
newpath
0.330792 0.454680 moveto
newpath
0.311044 0.548882 moveto
newpath
0.320052 0.623579 moveto
newpath
0.335687 0.717411 moveto
newpath
0.332424 0.870877 moveto
newpath
0.348987 0.985352 moveto
newpath
0.442480 1.054809 moveto
newpath
0.565406 1.050332 moveto
newpath
0.664493 0.990120 moveto
newpath
0.713534 0.920619 moveto
newpath
0.766251 0.844514 moveto
newpath
0.831192 0.795858 moveto
newpath
0.909808 0.791089 moveto
newpath
0.968149 0.804635 moveto
newpath
1.019727 0.862611 moveto
newpath
1.086162 0.929043 moveto
newpath
1.105867 1.031073 moveto
newpath
1.157498 1.105389 moveto
newpath
1.212257 1.183698 moveto
newpath
1.232298 1.277509 moveto
newpath
1.172282 1.356594 moveto
newpath
1.085180 1.423125 moveto
newpath
0.989626 1.436577 moveto
newpath
0.875141 1.440154 moveto
newpath
0.768880 1.451327 moveto
newpath
0.683512 1.454362 moveto
showpage
