%!PS-Adobe-3.0 EPSF-3.0
%%BoundingBox: 0 0 1000 838
%%Title: MapaCalibrado.cod
%%Creator: umat V1.0
%%CreationDate: Thu Dec 15 16:07:16 2016
%%Pages: 0
%%DocumentFonts: Helvetica
%%DocumentNeededFonts: Helvetica
%%EndComments
%
% PS header for umat - SOM to PS converter
% Version 1.0 Tue Feb 28 1995
% Author: Jussi Hynninen <hynde@nucleus.hut.fi>
100 dict begin

% predefine variables
/yoff 0 def /xoff 0 def /xstep 0 def /ystep 0 def /y 0 def /radius 0 def
/doborder false def
% default font
/fontname /Helvetica def
% font size relative to radius
/fontsize 1.0 def

% default black and white tresholds
/bt 0.0 def /wt 1.0 def

% labelpallon sade suhteessa hexan sateeseen
/ballrad 0.2 def

% newline function. Moves the y coordinate to the next line
/NL 
{ /yoff yoff ystep sub def % next row
  /y y 1 add def % add y by one
  } bind def

% start of line (for hexagonal lattice) - moves the current position in 
% x direction to the correct place of the line
/XSH
{ xoff 
  y 4 mod
  dup 3 eq {pop 1} if
  xstep 2 div mul
  add
  yoff moveto % move to start of line
} bind def

% start of line (for rectangular lattice) - moves the current position in 
% x direction to the correct place of the line
/XSR { xoff yoff moveto } bind def

% set label color. If block is light -> label is black and same for dark block
/sbc { .5 gt {0} {1} ifelse setgray } bind def

% set gray level
/G { 
  100 div dup bt le {pop 0}
  { dup wt ge {pop 1} {bt sub wt bt sub div} ifelse
  } ifelse
} bind def

% unlabelled node
/LN { 
  gsave
  G sbc
  currentpoint radius ballrad mul 0 360 arc fill 
  grestore
  xstep 2 mul 0 rmoveto
} bind def

%select font
/selfont {
  fontname findfont radius fontsize mul scalefont setfont
} bind def

% print single label

/LAB { 
  gsave
  G sbc
  dup %duplicate string  
  stringwidth
  pop fontsize radius mul -0.25 mul exch
  -2 div exch
  rmoveto
  show
  grestore
  xstep 2 mul 0 rmoveto
} bind def

% print multiple labels on one unit
/ML {
  gsave
  G sbc
  /numlabs exch def %number of labels
  numlabs
  2 div 
  0.25 sub
  radius fontsize mul mul neg
  0 exch rmoveto
  1 1 numlabs {
    pop
    gsave
    dup %duplicate string  
    stringwidth
    pop 
    -2 div 0
    rmoveto
    show
    grestore
    0 fontsize radius mul rmoveto
  } for 
  grestore
  xstep 2 mul 0 rmoveto
} bind def

% print hexagon
/H { 
  gsave
  G dup setgray %duplicate gray level
  currentpoint translate
  newpath 0 radius moveto
  5 {60 rotate 0 radius lineto} repeat
  closepath
  doborder { gsave fill grestore sbc stroke}
           { fill pop } ifelse
  grestore  
  xstep 0 rmoveto
} bind def

% print rectangle
/R {
  gsave
  G dup setgray %duplicate gray level
  currentpoint translate
  newpath
  xstep 0.5 mul dup moveto
  xstep neg 0 rlineto
  0 xstep neg rlineto
  xstep 0 rlineto
  closepath
  doborder { gsave fill grestore sbc stroke}
           { fill pop } ifelse
  grestore  
  xstep 0 rmoveto
} bind def

1 setlinewidth

% End of umat PS header
% Start image


/radius 28.867514 def
/xstep 50.000000 def
/ystep 43.301270 def
%%IncludeFont: Helvetica
/fontname /Helvetica def
selfont
/doborder false def
/wt 1.000000 def /bt 0.000000 def
/y 0 def
/xoff 25.000000 def
/yoff 808.290384 def
XSH 89 H 91 H 89 H 71 H 78 H 76 H 80 H 80 H 78 H 76 H 78 H 73 H 75 H 63 H 77 H 78 H 82 H 85 H 92 H NL
XSH 87 H 87 H 90 H 80 H 87 H 81 H 89 H 73 H 83 H 81 H 84 H 81 H 77 H 76 H 79 H 89 H 79 H 95 H 92 H NL
XSH 84 H 84 H 75 H 65 H 80 H 87 H 78 H 72 H 75 H 72 H 74 H 66 H 70 H 64 H 75 H 78 H 82 H 100 H 92 H NL
XSH 76 H 82 H 70 H 70 H 72 H 79 H 78 H 79 H 78 H 72 H 75 H 67 H 72 H 68 H 67 H 72 H 78 H 86 H 88 H NL
XSH 76 H 81 H 72 H 62 H 71 H 73 H 78 H 76 H 75 H 71 H 72 H 68 H 68 H 68 H 68 H 69 H 71 H 87 H 86 H NL
XSH 65 H 60 H 73 H 61 H 80 H 81 H 86 H 71 H 74 H 77 H 59 H 70 H 54 H 66 H 65 H 67 H 70 H 71 H 72 H NL
XSH 65 H 66 H 64 H 54 H 70 H 82 H 69 H 64 H 62 H 59 H 63 H 63 H 69 H 71 H 73 H 74 H 78 H 94 H 90 H NL
XSH 54 H 76 H 45 H 80 H 55 H 60 H 66 H 50 H 57 H 53 H 65 H 64 H 80 H 76 H 80 H 76 H 82 H 87 H 90 H NL
XSH 75 H 75 H 63 H 42 H 48 H 41 H 63 H 72 H 64 H 62 H 63 H 56 H 64 H 66 H 72 H 71 H 78 H 80 H 81 H NL
XSH 78 H 58 H 67 H 35 H 53 H 55 H 71 H 75 H 66 H 64 H 64 H 64 H 65 H 73 H 71 H 81 H 70 H 81 H 74 H NL
XSH 59 H 59 H 57 H 28 H 54 H 51 H 65 H 62 H 63 H 54 H 64 H 50 H 63 H 63 H 67 H 67 H 77 H 85 H 82 H NL
XSH 59 H 78 H 58 H 57 H 61 H 61 H 68 H 59 H 71 H 60 H 65 H 64 H 61 H 62 H 67 H 64 H 82 H 73 H 82 H NL
XSH 64 H 72 H 53 H 20 H 30 H 35 H 51 H 57 H 58 H 57 H 59 H 53 H 57 H 44 H 59 H 56 H 64 H 73 H 73 H NL
XSH 64 H 49 H 44 H 10 H 24 H 20 H 46 H 43 H 63 H 65 H 49 H 67 H 43 H 66 H 49 H 65 H 49 H 74 H 58 H NL
XSH 64 H 64 H 27 H 0 H 29 H 36 H 44 H 49 H 50 H 36 H 48 H 46 H 46 H 45 H 50 H 49 H 74 H 83 H 83 H NL
XSH 74 H 45 H 59 H 10 H 35 H 62 H 26 H 68 H 41 H 51 H 59 H 37 H 68 H 45 H 70 H 51 H 75 H 73 H 87 H NL
XSH 69 H 69 H 57 H 20 H 39 H 43 H 44 H 32 H 36 H 26 H 45 H 22 H 60 H 53 H 55 H 41 H 73 H 71 H 87 H NL
XSH 61 H 91 H 55 H 64 H 78 H 46 H 72 H 30 H 58 H 42 H 47 H 67 H 76 H 78 H 56 H 82 H 82 H 90 H 89 H NL
XSH 61 H 58 H 57 H 44 H 45 H 41 H 35 H 13 H 28 H 13 H 47 H 47 H 62 H 34 H 61 H 65 H 80 H 77 H 83 H NL
/y 0 def
/xoff 25.000000 def
/yoff 808.290384 def
XSH (nube) 89 LAB (multinube) 89 LAB (nube) 78 LAB (multinube) 80 LAB (nube) 78 LAB (nube) 78 LAB (multinube) 75 LAB (multinube) 77 LAB (nube) 82 LAB (nube) 92 LAB NL NL
XSH (multinube) 84 LAB (nube) 75 LAB (multinube) 80 LAB (nube) 78 LAB (multinube) 75 LAB (nube) 74 LAB (multinube) 70 LAB (nube) 75 LAB (nube) 82 LAB (nube) 92 LAB NL NL
XSH (multinube) 76 LAB (multinube) 72 LAB (nube) 71 LAB (nube) 78 LAB (nube) 75 LAB (nube) 72 LAB (nube) 68 LAB (nube) 68 LAB (nube) 71 LAB (nube) 86 LAB NL NL
XSH (nube) 65 LAB (nube) 64 LAB (nube) 70 LAB (nube) 69 LAB (nube) 62 LAB (multinube) 63 LAB (nube) 69 LAB (nube) 73 LAB (nube) 78 LAB (nube) 90 LAB NL NL
XSH (nube) 75 LAB (nube) 63 LAB (nube) 48 LAB (multinube) 63 LAB (multinube) 64 LAB (nube) 63 LAB (multinube) 64 LAB (nube) 72 LAB (nube) 78 LAB (nube) 81 LAB NL NL
XSH (nube) 59 LAB (nube) 57 LAB (nube) 54 LAB (nube) 65 LAB (nube) 63 LAB (multinube) 64 LAB (nube) 63 LAB (nube) 67 LAB (nube) 77 LAB (nube) 82 LAB NL NL
XSH (nube) 64 LAB (multinube) 53 LAB (multinube) 30 LAB (nube) 51 LAB (nube) 58 LAB (nube) 59 LAB (nube) 57 LAB (nube) 59 LAB (nube) 64 LAB (nube) 73 LAB NL NL
XSH (nube) 64 LAB (nube) 27 LAB (nube) 29 LAB (nube) 44 LAB (nube) 50 LAB (nube) 48 LAB (nube) 46 LAB (nube) 50 LAB (nube) 74 LAB (nube) 83 LAB NL NL
XSH (nube) 69 LAB (nube) 57 LAB (nube) 39 LAB (nube) 44 LAB (multinube) 36 LAB (nube) 45 LAB (multinube) 60 LAB (nube) 55 LAB (nube) 73 LAB (cieloDespejado) 87 LAB NL NL
XSH (nube) 61 LAB (nube) 57 LAB (nube) 45 LAB (nube) 35 LAB (nube) 28 LAB (nube) 47 LAB (cieloDespejado) 62 LAB (cieloDespejado) 61 LAB (cieloDespejado) 80 LAB (cieloDespejado) 83 LAB NL NL
end
% end of EPS object
