%!PS-Adobe-2.0 EPSF-2.0
%%Title: undefined
%%Creator: sammon
%%Pages: 1
%%EndComments
40 40 translate
/gscale 340.990814 def
gscale dup scale
/Helvetica findfont 12 gscale div scalefont setfont
/radius 0.005865 def
/LN
{newpath
radius 0 360 arc fill
} def
/LP
{dup stringwidth pop
-2 div 0 rmoveto show} def
0.000587 setlinewidth
0 setgray
0.560107 0.000000 LN
0.601234 0.034874 LN
0.680071 0.107008 LN
0.756536 0.158263 LN
0.821176 0.197586 LN
0.903482 0.242236 LN
0.998968 0.281256 LN
1.107636 0.343453 LN
1.177760 0.389106 LN
1.232048 0.429740 LN
0.540464 0.035083 LN
0.599434 0.083434 LN
0.688078 0.166194 LN
0.740168 0.208162 LN
0.834060 0.255808 LN
0.930421 0.304574 LN
1.038554 0.362571 LN
1.137311 0.426907 LN
1.220212 0.464773 LN
1.250958 0.473609 LN
0.447110 0.019564 LN
0.496058 0.078823 LN
0.601170 0.168232 LN
0.682491 0.239721 LN
0.769972 0.285781 LN
0.868146 0.344356 LN
0.969405 0.410617 LN
1.069269 0.475683 LN
1.176496 0.513331 LN
1.236902 0.524503 LN
0.369045 0.078944 LN
0.469844 0.162205 LN
0.608395 0.250035 LN
0.679316 0.300372 LN
0.795566 0.375489 LN
0.912228 0.472181 LN
1.023430 0.557922 LN
1.127401 0.588348 LN
1.229415 0.607007 LN
1.279862 0.604865 LN
0.221173 0.069659 LN
0.300004 0.126665 LN
0.462562 0.237187 LN
0.617207 0.383560 LN
0.704337 0.460797 LN
0.823858 0.531248 LN
0.960083 0.597199 LN
1.077906 0.640931 LN
1.188094 0.661420 LN
1.270666 0.656916 LN
0.165589 0.128633 LN
0.278538 0.239520 LN
0.475649 0.390742 LN
0.621524 0.488139 LN
0.727370 0.585573 LN
0.865811 0.660402 LN
1.021533 0.715291 LN
1.150543 0.725546 LN
1.272586 0.733462 LN
1.342151 0.722594 LN
0.051024 0.180086 LN
0.149756 0.213222 LN
0.357214 0.382205 LN
0.534720 0.525193 LN
0.652338 0.635482 LN
0.777901 0.728934 LN
0.920310 0.783282 LN
1.095046 0.820912 LN
1.241812 0.804673 LN
1.343317 0.802234 LN
0.045132 0.300282 LN
0.157786 0.375060 LN
0.411216 0.561557 LN
0.571619 0.674741 LN
0.702907 0.751510 LN
0.870946 0.869314 LN
1.035607 0.918962 LN
1.207069 0.925502 LN
1.367820 0.898851 LN
1.443234 0.894869 LN
0.000000 0.380609 LN
0.076479 0.467245 LN
0.268413 0.620037 LN
0.440615 0.671475 LN
0.621984 0.757542 LN
0.791981 0.889706 LN
1.002194 1.006651 LN
1.156590 1.028244 LN
1.339576 1.001458 LN
1.438678 0.964529 LN
0.038670 0.508351 LN
0.149293 0.594585 LN
0.293756 0.705816 LN
0.473241 0.771988 LN
0.698503 0.879989 LN
0.909224 1.009306 LN
1.075118 1.061266 LN
1.289509 1.067320 LN
1.410324 1.021310 LN
1.495641 0.980029 LN
newpath
0.560107 0.000000 moveto
0.601234 0.034874 lineto
0.680071 0.107008 lineto
0.756536 0.158263 lineto
0.821176 0.197586 lineto
0.903482 0.242236 lineto
0.998968 0.281256 lineto
1.107636 0.343453 lineto
1.177760 0.389106 lineto
1.232048 0.429740 lineto
stroke
newpath
0.540464 0.035083 moveto
0.599434 0.083434 lineto
0.688078 0.166194 lineto
0.740168 0.208162 lineto
0.834060 0.255808 lineto
0.930421 0.304574 lineto
1.038554 0.362571 lineto
1.137311 0.426907 lineto
1.220212 0.464773 lineto
1.250958 0.473609 lineto
stroke
newpath
0.447110 0.019564 moveto
0.496058 0.078823 lineto
0.601170 0.168232 lineto
0.682491 0.239721 lineto
0.769972 0.285781 lineto
0.868146 0.344356 lineto
0.969405 0.410617 lineto
1.069269 0.475683 lineto
1.176496 0.513331 lineto
1.236902 0.524503 lineto
stroke
newpath
0.369045 0.078944 moveto
0.469844 0.162205 lineto
0.608395 0.250035 lineto
0.679316 0.300372 lineto
0.795566 0.375489 lineto
0.912228 0.472181 lineto
1.023430 0.557922 lineto
1.127401 0.588348 lineto
1.229415 0.607007 lineto
1.279862 0.604865 lineto
stroke
newpath
0.221173 0.069659 moveto
0.300004 0.126665 lineto
0.462562 0.237187 lineto
0.617207 0.383560 lineto
0.704337 0.460797 lineto
0.823858 0.531248 lineto
0.960083 0.597199 lineto
1.077906 0.640931 lineto
1.188094 0.661420 lineto
1.270666 0.656916 lineto
stroke
newpath
0.165589 0.128633 moveto
0.278538 0.239520 lineto
0.475649 0.390742 lineto
0.621524 0.488139 lineto
0.727370 0.585573 lineto
0.865811 0.660402 lineto
1.021533 0.715291 lineto
1.150543 0.725546 lineto
1.272586 0.733462 lineto
1.342151 0.722594 lineto
stroke
newpath
0.051024 0.180086 moveto
0.149756 0.213222 lineto
0.357214 0.382205 lineto
0.534720 0.525193 lineto
0.652338 0.635482 lineto
0.777901 0.728934 lineto
0.920310 0.783282 lineto
1.095046 0.820912 lineto
1.241812 0.804673 lineto
1.343317 0.802234 lineto
stroke
newpath
0.045132 0.300282 moveto
0.157786 0.375060 lineto
0.411216 0.561557 lineto
0.571619 0.674741 lineto
0.702907 0.751510 lineto
0.870946 0.869314 lineto
1.035607 0.918962 lineto
1.207069 0.925502 lineto
1.367820 0.898851 lineto
1.443234 0.894869 lineto
stroke
newpath
0.000000 0.380609 moveto
0.076479 0.467245 lineto
0.268413 0.620037 lineto
0.440615 0.671475 lineto
0.621984 0.757542 lineto
0.791981 0.889706 lineto
1.002194 1.006651 lineto
1.156590 1.028244 lineto
1.339576 1.001458 lineto
1.438678 0.964529 lineto
stroke
newpath
0.038670 0.508351 moveto
0.149293 0.594585 lineto
0.293756 0.705816 lineto
0.473241 0.771988 lineto
0.698503 0.879989 lineto
0.909224 1.009306 lineto
1.075118 1.061266 lineto
1.289509 1.067320 lineto
1.410324 1.021310 lineto
1.495641 0.980029 lineto
stroke
newpath
0.560107 0.000000 moveto
0.540464 0.035083 lineto
0.447110 0.019564 lineto
0.369045 0.078944 lineto
0.221173 0.069659 lineto
0.165589 0.128633 lineto
0.051024 0.180086 lineto
0.045132 0.300282 lineto
0.000000 0.380609 lineto
0.038670 0.508351 lineto
stroke
newpath
0.601234 0.034874 moveto
0.599434 0.083434 lineto
0.496058 0.078823 lineto
0.469844 0.162205 lineto
0.300004 0.126665 lineto
0.278538 0.239520 lineto
0.149756 0.213222 lineto
0.157786 0.375060 lineto
0.076479 0.467245 lineto
0.149293 0.594585 lineto
stroke
newpath
0.680071 0.107008 moveto
0.688078 0.166194 lineto
0.601170 0.168232 lineto
0.608395 0.250035 lineto
0.462562 0.237187 lineto
0.475649 0.390742 lineto
0.357214 0.382205 lineto
0.411216 0.561557 lineto
0.268413 0.620037 lineto
0.293756 0.705816 lineto
stroke
newpath
0.756536 0.158263 moveto
0.740168 0.208162 lineto
0.682491 0.239721 lineto
0.679316 0.300372 lineto
0.617207 0.383560 lineto
0.621524 0.488139 lineto
0.534720 0.525193 lineto
0.571619 0.674741 lineto
0.440615 0.671475 lineto
0.473241 0.771988 lineto
stroke
newpath
0.821176 0.197586 moveto
0.834060 0.255808 lineto
0.769972 0.285781 lineto
0.795566 0.375489 lineto
0.704337 0.460797 lineto
0.727370 0.585573 lineto
0.652338 0.635482 lineto
0.702907 0.751510 lineto
0.621984 0.757542 lineto
0.698503 0.879989 lineto
stroke
newpath
0.903482 0.242236 moveto
0.930421 0.304574 lineto
0.868146 0.344356 lineto
0.912228 0.472181 lineto
0.823858 0.531248 lineto
0.865811 0.660402 lineto
0.777901 0.728934 lineto
0.870946 0.869314 lineto
0.791981 0.889706 lineto
0.909224 1.009306 lineto
stroke
newpath
0.998968 0.281256 moveto
1.038554 0.362571 lineto
0.969405 0.410617 lineto
1.023430 0.557922 lineto
0.960083 0.597199 lineto
1.021533 0.715291 lineto
0.920310 0.783282 lineto
1.035607 0.918962 lineto
1.002194 1.006651 lineto
1.075118 1.061266 lineto
stroke
newpath
1.107636 0.343453 moveto
1.137311 0.426907 lineto
1.069269 0.475683 lineto
1.127401 0.588348 lineto
1.077906 0.640931 lineto
1.150543 0.725546 lineto
1.095046 0.820912 lineto
1.207069 0.925502 lineto
1.156590 1.028244 lineto
1.289509 1.067320 lineto
stroke
newpath
1.177760 0.389106 moveto
1.220212 0.464773 lineto
1.176496 0.513331 lineto
1.229415 0.607007 lineto
1.188094 0.661420 lineto
1.272586 0.733462 lineto
1.241812 0.804673 lineto
1.367820 0.898851 lineto
1.339576 1.001458 lineto
1.410324 1.021310 lineto
stroke
newpath
1.232048 0.429740 moveto
1.250958 0.473609 lineto
1.236902 0.524503 lineto
1.279862 0.604865 lineto
1.270666 0.656916 lineto
1.342151 0.722594 lineto
1.343317 0.802234 lineto
1.443234 0.894869 lineto
1.438678 0.964529 lineto
1.495641 0.980029 lineto
stroke
showpage
