%!PS-Adobe-3.0 EPSF-3.0
%%BoundingBox: 0 0 1000 1285
%%Title: MapaCalibrado.cod
%%Creator: umat V1.0
%%CreationDate: Thu Dec 15 16:07:52 2016
%%Pages: 0
%%DocumentFonts: Helvetica
%%DocumentNeededFonts: Helvetica
%%EndComments
%
% PS header for umat - SOM to PS converter
% Version 1.0 Tue Feb 28 1995
% Author: Jussi Hynninen <hynde@nucleus.hut.fi>
100 dict begin

% predefine variables
/yoff 0 def /xoff 0 def /xstep 0 def /ystep 0 def /y 0 def /radius 0 def
/doborder false def
% default font
/fontname /Helvetica def
% font size relative to radius
/fontsize 1.0 def

% default black and white tresholds
/bt 0.0 def /wt 1.0 def

% labelpallon sade suhteessa hexan sateeseen
/ballrad 0.2 def

% newline function. Moves the y coordinate to the next line
/NL 
{ /yoff yoff ystep sub def % next row
  /y y 1 add def % add y by one
  } bind def

% start of line (for hexagonal lattice) - moves the current position in 
% x direction to the correct place of the line
/XSH
{ xoff 
  y 4 mod
  dup 3 eq {pop 1} if
  xstep 2 div mul
  add
  yoff moveto % move to start of line
} bind def

% start of line (for rectangular lattice) - moves the current position in 
% x direction to the correct place of the line
/XSR { xoff yoff moveto } bind def

% set label color. If block is light -> label is black and same for dark block
/sbc { .5 gt {0} {1} ifelse setgray } bind def

% set gray level
/G { 
  100 div dup bt le {pop 0}
  { dup wt ge {pop 1} {bt sub wt bt sub div} ifelse
  } ifelse
} bind def

% unlabelled node
/LN { 
  gsave
  G sbc
  currentpoint radius ballrad mul 0 360 arc fill 
  grestore
  xstep 2 mul 0 rmoveto
} bind def

%select font
/selfont {
  fontname findfont radius fontsize mul scalefont setfont
} bind def

% print single label

/LAB { 
  gsave
  G sbc
  dup %duplicate string  
  stringwidth
  pop fontsize radius mul -0.25 mul exch
  -2 div exch
  rmoveto
  show
  grestore
  xstep 2 mul 0 rmoveto
} bind def

% print multiple labels on one unit
/ML {
  gsave
  G sbc
  /numlabs exch def %number of labels
  numlabs
  2 div 
  0.25 sub
  radius fontsize mul mul neg
  0 exch rmoveto
  1 1 numlabs {
    pop
    gsave
    dup %duplicate string  
    stringwidth
    pop 
    -2 div 0
    rmoveto
    show
    grestore
    0 fontsize radius mul rmoveto
  } for 
  grestore
  xstep 2 mul 0 rmoveto
} bind def

% print hexagon
/H { 
  gsave
  G dup setgray %duplicate gray level
  currentpoint translate
  newpath 0 radius moveto
  5 {60 rotate 0 radius lineto} repeat
  closepath
  doborder { gsave fill grestore sbc stroke}
           { fill pop } ifelse
  grestore  
  xstep 0 rmoveto
} bind def

% print rectangle
/R {
  gsave
  G dup setgray %duplicate gray level
  currentpoint translate
  newpath
  xstep 0.5 mul dup moveto
  xstep neg 0 rlineto
  0 xstep neg rlineto
  xstep 0 rlineto
  closepath
  doborder { gsave fill grestore sbc stroke}
           { fill pop } ifelse
  grestore  
  xstep 0 rmoveto
} bind def

1 setlinewidth

% End of umat PS header
% Start image


/radius 14.433757 def
/xstep 25.000000 def
/ystep 21.650635 def
%%IncludeFont: Helvetica
/fontname /Helvetica def
selfont
/doborder false def
/wt 1.000000 def /bt 0.000000 def
/y 0 def
/xoff 12.500000 def
/yoff 1270.170613 def
XSH 61 H 59 H 67 H 62 H 68 H 67 H 69 H 74 H 74 H 76 H 77 H 77 H 87 H 89 H 90 H 87 H 87 H 82 H 84 H 84 H 87 H 85 H 88 H 86 H 86 H 87 H 89 H 82 H 90 H 94 H 94 H 85 H 88 H 86 H 88 H 88 H 89 H 85 H 87 H NL
XSH 62 H 76 H 73 H 69 H 79 H 71 H 67 H 73 H 69 H 77 H 82 H 87 H 87 H 92 H 91 H 92 H 86 H 84 H 90 H 90 H 93 H 90 H 92 H 85 H 91 H 92 H 96 H 87 H 96 H 93 H 95 H 90 H 91 H 89 H 87 H 93 H 90 H 88 H 87 H NL
XSH 67 H 70 H 69 H 62 H 76 H 76 H 75 H 74 H 79 H 82 H 87 H 90 H 90 H 88 H 88 H 82 H 85 H 85 H 89 H 87 H 90 H 91 H 91 H 84 H 90 H 89 H 91 H 85 H 93 H 95 H 91 H 85 H 89 H 86 H 90 H 90 H 89 H 84 H 87 H NL
XSH 55 H 67 H 65 H 69 H 76 H 83 H 77 H 76 H 93 H 87 H 90 H 87 H 91 H 90 H 85 H 88 H 85 H 91 H 84 H 91 H 88 H 93 H 94 H 93 H 90 H 93 H 92 H 93 H 87 H 92 H 92 H 89 H 90 H 91 H 89 H 93 H 87 H 90 H 87 H NL
XSH 66 H 70 H 71 H 79 H 79 H 78 H 82 H 85 H 87 H 88 H 89 H 90 H 90 H 94 H 91 H 89 H 89 H 88 H 89 H 88 H 88 H 85 H 92 H 88 H 89 H 86 H 92 H 91 H 90 H 85 H 92 H 91 H 90 H 91 H 92 H 92 H 90 H 88 H 87 H NL
XSH 66 H 71 H 78 H 80 H 89 H 81 H 87 H 93 H 86 H 86 H 91 H 90 H 91 H 93 H 92 H 89 H 92 H 89 H 94 H 89 H 93 H 90 H 95 H 88 H 96 H 89 H 94 H 89 H 94 H 90 H 92 H 88 H 89 H 93 H 92 H 92 H 89 H 87 H 86 H NL
XSH 71 H 83 H 83 H 84 H 83 H 79 H 89 H 89 H 89 H 89 H 90 H 91 H 91 H 89 H 90 H 91 H 91 H 88 H 89 H 85 H 90 H 91 H 90 H 86 H 90 H 92 H 91 H 87 H 89 H 91 H 90 H 86 H 91 H 94 H 92 H 88 H 89 H 89 H 88 H NL
XSH 70 H 80 H 83 H 87 H 83 H 89 H 88 H 92 H 93 H 90 H 87 H 89 H 88 H 91 H 88 H 95 H 90 H 92 H 90 H 93 H 87 H 94 H 89 H 95 H 87 H 95 H 90 H 91 H 86 H 89 H 90 H 90 H 88 H 93 H 96 H 87 H 92 H 91 H 88 H NL
XSH 70 H 74 H 79 H 85 H 85 H 85 H 88 H 89 H 90 H 88 H 88 H 92 H 90 H 89 H 90 H 93 H 91 H 89 H 89 H 87 H 89 H 90 H 90 H 88 H 88 H 89 H 90 H 88 H 89 H 92 H 90 H 89 H 89 H 89 H 89 H 90 H 89 H 95 H 88 H NL
XSH 69 H 75 H 78 H 80 H 87 H 85 H 89 H 84 H 91 H 88 H 89 H 90 H 94 H 89 H 96 H 90 H 94 H 89 H 95 H 86 H 96 H 89 H 95 H 88 H 92 H 88 H 91 H 87 H 95 H 91 H 89 H 87 H 88 H 83 H 86 H 89 H 88 H 86 H 86 H NL
XSH 75 H 73 H 82 H 88 H 87 H 88 H 88 H 91 H 91 H 93 H 89 H 88 H 91 H 93 H 91 H 89 H 92 H 92 H 91 H 86 H 89 H 88 H 88 H 87 H 89 H 91 H 90 H 89 H 90 H 91 H 89 H 91 H 89 H 90 H 90 H 93 H 90 H 90 H 86 H NL
XSH 84 H 78 H 83 H 88 H 90 H 87 H 86 H 93 H 89 H 94 H 88 H 92 H 90 H 93 H 89 H 95 H 91 H 96 H 89 H 94 H 89 H 93 H 88 H 93 H 84 H 94 H 89 H 91 H 86 H 90 H 89 H 88 H 88 H 91 H 92 H 89 H 91 H 91 H 86 H NL
XSH 84 H 86 H 86 H 89 H 89 H 88 H 88 H 92 H 92 H 94 H 93 H 89 H 91 H 93 H 92 H 91 H 91 H 91 H 91 H 89 H 89 H 89 H 91 H 93 H 92 H 87 H 89 H 89 H 90 H 92 H 90 H 90 H 90 H 91 H 90 H 88 H 89 H 96 H 90 H NL
XSH 83 H 85 H 91 H 85 H 92 H 89 H 92 H 88 H 95 H 91 H 94 H 90 H 96 H 91 H 96 H 89 H 95 H 91 H 98 H 87 H 93 H 89 H 95 H 91 H 94 H 89 H 91 H 89 H 94 H 89 H 90 H 92 H 95 H 88 H 85 H 86 H 89 H 90 H 80 H NL
XSH 89 H 89 H 90 H 90 H 91 H 94 H 91 H 90 H 91 H 91 H 92 H 93 H 93 H 93 H 91 H 89 H 92 H 93 H 91 H 86 H 90 H 91 H 91 H 88 H 90 H 90 H 90 H 91 H 90 H 90 H 90 H 93 H 88 H 88 H 89 H 91 H 89 H 90 H 82 H NL
XSH 91 H 90 H 85 H 92 H 85 H 92 H 86 H 91 H 88 H 96 H 90 H 97 H 91 H 95 H 89 H 96 H 88 H 96 H 91 H 91 H 86 H 96 H 86 H 92 H 85 H 90 H 87 H 95 H 89 H 90 H 87 H 89 H 86 H 86 H 90 H 90 H 88 H 82 H 82 H NL
XSH 91 H 91 H 89 H 92 H 91 H 89 H 91 H 92 H 91 H 91 H 92 H 94 H 94 H 93 H 93 H 92 H 90 H 89 H 91 H 92 H 91 H 91 H 90 H 88 H 89 H 89 H 90 H 90 H 88 H 88 H 89 H 91 H 89 H 89 H 90 H 94 H 89 H 91 H 82 H NL
XSH 87 H 88 H 86 H 85 H 92 H 88 H 92 H 88 H 93 H 83 H 94 H 89 H 96 H 88 H 95 H 86 H 93 H 88 H 92 H 88 H 95 H 89 H 91 H 88 H 94 H 89 H 94 H 85 H 88 H 87 H 93 H 92 H 89 H 87 H 92 H 87 H 85 H 84 H 81 H NL
XSH 89 H 94 H 90 H 89 H 90 H 92 H 92 H 96 H 92 H 89 H 92 H 95 H 92 H 92 H 90 H 88 H 90 H 92 H 92 H 92 H 90 H 88 H 89 H 90 H 90 H 91 H 90 H 88 H 88 H 88 H 90 H 92 H 89 H 93 H 88 H 87 H 87 H 89 H 87 H NL
XSH 89 H 89 H 91 H 95 H 87 H 91 H 89 H 95 H 91 H 97 H 87 H 95 H 88 H 93 H 89 H 96 H 87 H 93 H 87 H 94 H 88 H 96 H 88 H 94 H 85 H 92 H 90 H 93 H 87 H 92 H 86 H 88 H 90 H 88 H 89 H 86 H 87 H 91 H 87 H NL
XSH 89 H 93 H 91 H 92 H 92 H 94 H 91 H 92 H 92 H 93 H 93 H 93 H 93 H 94 H 92 H 91 H 91 H 92 H 91 H 90 H 90 H 91 H 91 H 91 H 91 H 89 H 91 H 92 H 90 H 87 H 88 H 88 H 87 H 85 H 88 H 92 H 87 H 88 H 87 H NL
XSH 87 H 87 H 92 H 90 H 93 H 87 H 95 H 87 H 96 H 89 H 95 H 88 H 95 H 88 H 95 H 89 H 92 H 86 H 95 H 87 H 95 H 87 H 94 H 91 H 95 H 88 H 94 H 90 H 89 H 85 H 89 H 85 H 86 H 82 H 89 H 88 H 86 H 86 H 86 H NL
XSH 89 H 92 H 92 H 96 H 93 H 92 H 92 H 92 H 93 H 95 H 94 H 94 H 91 H 89 H 91 H 93 H 92 H 92 H 90 H 88 H 89 H 90 H 91 H 90 H 89 H 88 H 91 H 91 H 89 H 89 H 89 H 88 H 88 H 89 H 88 H 87 H 86 H 92 H 86 H NL
XSH 89 H 93 H 87 H 93 H 89 H 94 H 86 H 96 H 87 H 95 H 88 H 94 H 88 H 95 H 86 H 94 H 89 H 97 H 88 H 92 H 87 H 94 H 85 H 91 H 87 H 92 H 86 H 91 H 87 H 94 H 86 H 94 H 88 H 91 H 83 H 87 H 84 H 83 H 82 H NL
XSH 92 H 95 H 93 H 96 H 93 H 95 H 93 H 92 H 93 H 94 H 93 H 93 H 93 H 93 H 92 H 91 H 91 H 91 H 91 H 90 H 91 H 92 H 90 H 89 H 89 H 89 H 90 H 91 H 91 H 91 H 90 H 90 H 89 H 90 H 88 H 88 H 87 H 91 H 83 H NL
XSH 92 H 88 H 93 H 89 H 93 H 89 H 94 H 87 H 94 H 86 H 93 H 87 H 94 H 87 H 93 H 87 H 94 H 87 H 91 H 85 H 95 H 89 H 93 H 86 H 91 H 84 H 92 H 87 H 91 H 88 H 90 H 87 H 84 H 83 H 89 H 87 H 79 H 88 H 79 H NL
XSH 91 H 96 H 93 H 94 H 93 H 95 H 94 H 95 H 93 H 94 H 92 H 91 H 92 H 93 H 92 H 91 H 91 H 94 H 89 H 87 H 89 H 89 H 91 H 93 H 89 H 88 H 90 H 93 H 89 H 90 H 89 H 91 H 87 H 82 H 84 H 86 H 81 H 74 H 77 H NL
XSH 89 H 91 H 89 H 93 H 89 H 93 H 87 H 93 H 87 H 92 H 85 H 94 H 86 H 93 H 87 H 94 H 87 H 90 H 86 H 93 H 83 H 89 H 82 H 92 H 87 H 90 H 87 H 93 H 88 H 84 H 79 H 89 H 90 H 93 H 81 H 83 H 82 H 81 H 77 H NL
XSH 93 H 99 H 92 H 97 H 93 H 97 H 93 H 94 H 93 H 95 H 92 H 91 H 92 H 92 H 92 H 93 H 92 H 93 H 90 H 90 H 90 H 90 H 89 H 91 H 90 H 90 H 90 H 91 H 88 H 87 H 86 H 87 H 88 H 94 H 86 H 82 H 82 H 82 H 77 H NL
XSH 93 H 91 H 92 H 88 H 93 H 88 H 93 H 87 H 94 H 89 H 95 H 85 H 93 H 84 H 93 H 85 H 91 H 86 H 94 H 86 H 91 H 86 H 94 H 84 H 90 H 85 H 90 H 84 H 89 H 85 H 89 H 81 H 86 H 87 H 85 H 80 H 83 H 77 H 74 H NL
XSH 92 H 98 H 93 H 96 H 93 H 96 H 93 H 93 H 93 H 94 H 93 H 93 H 92 H 92 H 92 H 93 H 90 H 90 H 90 H 91 H 89 H 89 H 89 H 89 H 87 H 89 H 88 H 90 H 89 H 90 H 88 H 81 H 86 H 88 H 83 H 86 H 80 H 78 H 74 H NL
XSH 90 H 92 H 90 H 94 H 91 H 94 H 89 H 93 H 85 H 93 H 85 H 93 H 87 H 92 H 83 H 93 H 86 H 93 H 85 H 93 H 86 H 90 H 82 H 91 H 82 H 85 H 80 H 87 H 82 H 89 H 87 H 89 H 81 H 85 H 81 H 80 H 82 H 72 H 71 H NL
XSH 94 H 98 H 93 H 96 H 94 H 98 H 94 H 96 H 93 H 94 H 92 H 91 H 91 H 97 H 91 H 90 H 90 H 89 H 89 H 93 H 90 H 89 H 90 H 91 H 90 H 89 H 87 H 88 H 86 H 86 H 87 H 87 H 83 H 83 H 82 H 87 H 83 H 84 H 72 H NL
XSH 94 H 93 H 94 H 90 H 93 H 89 H 94 H 90 H 94 H 86 H 95 H 86 H 91 H 87 H 92 H 84 H 90 H 83 H 89 H 81 H 90 H 83 H 94 H 86 H 92 H 86 H 91 H 83 H 86 H 81 H 87 H 82 H 83 H 73 H 80 H 84 H 79 H 80 H 72 H NL
XSH 94 H 97 H 95 H 98 H 94 H 96 H 92 H 96 H 93 H 92 H 92 H 95 H 90 H 90 H 91 H 93 H 91 H 94 H 89 H 90 H 88 H 86 H 88 H 91 H 87 H 87 H 85 H 90 H 85 H 83 H 84 H 91 H 84 H 77 H 77 H 73 H 75 H 75 H 72 H NL
XSH 93 H 94 H 93 H 96 H 93 H 95 H 90 H 91 H 89 H 96 H 87 H 91 H 88 H 93 H 84 H 92 H 85 H 92 H 86 H 92 H 84 H 91 H 81 H 90 H 82 H 87 H 80 H 84 H 81 H 89 H 80 H 86 H 84 H 88 H 77 H 76 H 75 H 70 H 65 H NL
XSH 93 H 99 H 93 H 99 H 94 H 98 H 94 H 96 H 93 H 94 H 92 H 93 H 92 H 95 H 92 H 92 H 91 H 91 H 91 H 92 H 91 H 90 H 87 H 87 H 86 H 85 H 86 H 91 H 86 H 88 H 84 H 83 H 84 H 84 H 80 H 81 H 77 H 78 H 70 H NL
XSH 92 H 90 H 93 H 91 H 92 H 90 H 93 H 92 H 95 H 88 H 91 H 86 H 93 H 88 H 94 H 85 H 92 H 84 H 93 H 86 H 91 H 84 H 87 H 82 H 88 H 77 H 87 H 82 H 93 H 84 H 84 H 75 H 87 H 79 H 74 H 78 H 74 H 77 H 57 H NL
XSH 93 H 97 H 93 H 99 H 93 H 95 H 93 H 98 H 93 H 94 H 92 H 93 H 92 H 96 H 94 H 93 H 90 H 89 H 89 H 89 H 89 H 89 H 88 H 90 H 87 H 87 H 86 H 82 H 84 H 85 H 82 H 83 H 79 H 78 H 75 H 74 H 71 H 50 H 57 H NL
XSH 93 H 93 H 90 H 93 H 93 H 93 H 89 H 92 H 90 H 92 H 90 H 94 H 88 H 91 H 86 H 94 H 90 H 90 H 84 H 90 H 86 H 91 H 84 H 92 H 87 H 90 H 84 H 88 H 79 H 85 H 81 H 82 H 78 H 79 H 74 H 76 H 67 H 55 H 65 H NL
XSH 93 H 99 H 93 H 98 H 93 H 97 H 93 H 96 H 92 H 95 H 93 H 94 H 93 H 96 H 91 H 90 H 91 H 91 H 90 H 87 H 89 H 96 H 89 H 86 H 88 H 90 H 89 H 88 H 85 H 85 H 84 H 83 H 80 H 78 H 73 H 69 H 69 H 73 H 65 H NL
XSH 92 H 91 H 92 H 89 H 92 H 92 H 92 H 90 H 92 H 90 H 94 H 89 H 91 H 89 H 95 H 88 H 92 H 89 H 96 H 87 H 91 H 88 H 92 H 83 H 89 H 83 H 90 H 81 H 84 H 84 H 79 H 78 H 84 H 71 H 71 H 68 H 64 H 64 H 68 H NL
XSH 92 H 100 H 92 H 98 H 92 H 98 H 92 H 95 H 93 H 93 H 93 H 96 H 92 H 93 H 92 H 92 H 91 H 90 H 91 H 95 H 90 H 88 H 88 H 88 H 89 H 83 H 83 H 82 H 83 H 83 H 78 H 81 H 75 H 75 H 71 H 71 H 65 H 51 H 52 H NL
XSH 91 H 92 H 93 H 91 H 88 H 89 H 89 H 92 H 91 H 93 H 88 H 93 H 89 H 96 H 89 H 93 H 88 H 93 H 87 H 93 H 90 H 93 H 86 H 91 H 91 H 89 H 78 H 89 H 83 H 79 H 76 H 78 H 72 H 74 H 68 H 79 H 82 H 66 H 52 H NL
XSH 91 H 98 H 92 H 99 H 91 H 97 H 91 H 95 H 92 H 96 H 94 H 95 H 93 H 92 H 91 H 93 H 91 H 90 H 90 H 91 H 90 H 88 H 87 H 84 H 88 H 94 H 84 H 82 H 84 H 85 H 80 H 82 H 78 H 78 H 76 H 79 H 78 H 70 H 58 H NL
XSH 90 H 89 H 89 H 90 H 91 H 90 H 92 H 88 H 91 H 90 H 95 H 93 H 93 H 89 H 90 H 89 H 92 H 88 H 94 H 88 H 94 H 87 H 93 H 83 H 86 H 82 H 86 H 81 H 89 H 84 H 78 H 84 H 69 H 67 H 79 H 78 H 69 H 58 H 52 H NL
XSH 90 H 99 H 90 H 98 H 92 H 95 H 93 H 95 H 92 H 94 H 93 H 93 H 93 H 93 H 91 H 90 H 91 H 92 H 90 H 91 H 90 H 89 H 90 H 91 H 86 H 80 H 83 H 85 H 82 H 74 H 78 H 72 H 73 H 78 H 78 H 70 H 61 H 60 H 52 H NL
XSH 87 H 90 H 89 H 90 H 90 H 93 H 90 H 94 H 91 H 93 H 88 H 92 H 90 H 93 H 91 H 94 H 87 H 93 H 88 H 90 H 88 H 95 H 87 H 91 H 87 H 85 H 79 H 86 H 79 H 79 H 82 H 79 H 74 H 75 H 85 H 73 H 61 H 62 H 46 H NL
XSH 94 H 98 H 90 H 95 H 91 H 98 H 92 H 93 H 92 H 95 H 93 H 92 H 92 H 93 H 92 H 92 H 92 H 92 H 91 H 87 H 88 H 89 H 88 H 85 H 86 H 81 H 84 H 86 H 84 H 78 H 79 H 87 H 75 H 74 H 74 H 76 H 59 H 53 H 53 H NL
XSH 94 H 91 H 89 H 89 H 91 H 89 H 92 H 88 H 92 H 90 H 95 H 92 H 93 H 92 H 92 H 90 H 94 H 92 H 90 H 87 H 93 H 87 H 89 H 87 H 86 H 84 H 85 H 89 H 83 H 76 H 79 H 77 H 65 H 68 H 69 H 58 H 44 H 54 H 45 H NL
XSH 91 H 96 H 91 H 97 H 92 H 94 H 92 H 92 H 91 H 91 H 92 H 91 H 92 H 92 H 92 H 88 H 92 H 93 H 92 H 88 H 90 H 85 H 86 H 84 H 86 H 85 H 85 H 82 H 78 H 76 H 78 H 79 H 69 H 71 H 65 H 66 H 51 H 48 H 45 H NL
XSH 90 H 88 H 87 H 93 H 91 H 93 H 90 H 94 H 90 H 95 H 88 H 93 H 90 H 94 H 92 H 92 H 89 H 94 H 93 H 98 H 92 H 91 H 86 H 90 H 86 H 86 H 78 H 85 H 78 H 78 H 64 H 81 H 75 H 62 H 56 H 63 H 65 H 46 H 23 H NL
XSH 94 H 98 H 94 H 93 H 93 H 94 H 93 H 93 H 93 H 92 H 93 H 92 H 92 H 87 H 92 H 93 H 92 H 91 H 91 H 89 H 90 H 87 H 88 H 89 H 88 H 85 H 83 H 73 H 79 H 80 H 76 H 63 H 70 H 68 H 61 H 49 H 56 H 38 H 46 H NL
XSH 94 H 94 H 95 H 92 H 95 H 92 H 96 H 92 H 94 H 94 H 94 H 94 H 94 H 91 H 91 H 91 H 95 H 90 H 91 H 90 H 89 H 87 H 91 H 88 H 87 H 86 H 82 H 74 H 87 H 76 H 75 H 70 H 70 H 72 H 59 H 75 H 47 H 58 H 48 H NL
XSH 95 H 95 H 95 H 93 H 94 H 92 H 94 H 90 H 94 H 92 H 93 H 91 H 91 H 88 H 91 H 91 H 91 H 85 H 90 H 90 H 87 H 83 H 85 H 83 H 82 H 81 H 77 H 79 H 72 H 68 H 69 H 65 H 66 H 64 H 56 H 53 H 47 H 47 H 47 H NL
XSH 95 H 96 H 94 H 97 H 95 H 96 H 95 H 95 H 94 H 94 H 94 H 93 H 91 H 94 H 92 H 93 H 91 H 91 H 90 H 92 H 87 H 86 H 85 H 85 H 79 H 78 H 69 H 69 H 68 H 65 H 73 H 54 H 50 H 66 H 51 H 49 H 40 H 41 H 47 H NL
XSH 96 H 96 H 96 H 92 H 95 H 91 H 95 H 90 H 94 H 89 H 93 H 92 H 91 H 87 H 92 H 88 H 90 H 82 H 89 H 85 H 86 H 83 H 84 H 80 H 81 H 76 H 73 H 79 H 68 H 58 H 62 H 55 H 50 H 49 H 50 H 44 H 34 H 13 H 26 H NL
XSH 96 H 98 H 96 H 97 H 95 H 97 H 95 H 94 H 97 H 93 H 94 H 96 H 90 H 91 H 93 H 90 H 89 H 88 H 89 H 89 H 81 H 87 H 82 H 87 H 81 H 70 H 66 H 62 H 72 H 73 H 58 H 44 H 45 H 50 H 20 H 26 H 28 H 12 H 26 H NL
XSH 96 H 95 H 95 H 91 H 93 H 91 H 93 H 90 H 92 H 87 H 92 H 89 H 90 H 89 H 89 H 86 H 89 H 89 H 89 H 80 H 81 H 81 H 84 H 86 H 84 H 87 H 64 H 50 H 69 H 66 H 51 H 37 H 41 H 14 H 17 H 0 H 15 H 17 H 22 H NL
/y 0 def
/xoff 12.500000 def
/yoff 1270.170613 def
XSH 61 LN (nube) 67 LAB (nube) 68 LAB 69 LN (nube) 74 LAB (multinube) 77 LAB 87 LN (multinube) 90 LAB (nube) 87 LAB (nube) 84 LAB (nube) 87 LAB (multinube) 88 LAB (multinube) 86 LAB 89 LN (nube) 90 LAB (nube) 94 LAB (nube) 88 LAB (multinube) 88 LAB (nube) 89 LAB (nube) 87 LAB NL NL
XSH 67 LN (nube) 69 LAB 76 LN 75 LN 79 LN 87 LN 90 LN 88 LN (multinube) 85 LAB (nube) 89 LAB (multinube) 90 LAB 91 LN (nube) 90 LAB (nube) 91 LAB (nube) 93 LAB 91 LN (multinube) 89 LAB 90 LN (nube) 89 LAB (nube) 87 LAB NL NL
XSH (nube) 66 LAB 71 LN 79 LN (multinube) 82 LAB (nube) 87 LAB 89 LN 90 LN 91 LN 89 LN 89 LN 88 LN (multinube) 92 LAB 89 LN (nube) 92 LAB 90 LN 92 LN 90 LN 92 LN 90 LN 87 LN NL NL
XSH 71 LN 83 LN 83 LN 89 LN 89 LN 90 LN 91 LN 90 LN 91 LN (multinube) 89 LAB (multinube) 90 LAB (multinube) 90 LAB 90 LN 91 LN (multinube) 89 LAB 90 LN 91 LN 92 LN 89 LN (multinube) 88 LAB NL NL
XSH 70 LN (nube) 79 LAB (multinube) 85 LAB 88 LN 90 LN (multinube) 88 LAB 90 LN 90 LN 91 LN (nube) 89 LAB (nube) 89 LAB 90 LN 88 LN 90 LN 89 LN 90 LN 89 LN 89 LN (nube) 89 LAB 88 LN NL NL
XSH 75 LN 82 LN 87 LN 88 LN 91 LN (multinube) 89 LAB (nube) 91 LAB (nube) 91 LAB 92 LN 91 LN 89 LN 88 LN 89 LN 90 LN 90 LN (nube) 89 LAB 89 LN 90 LN 90 LN 86 LN NL NL
XSH (nube) 84 LAB (multinube) 86 LAB 89 LN 88 LN 92 LN 93 LN (nube) 91 LAB (nube) 92 LAB (nube) 91 LAB 91 LN 89 LN 91 LN 92 LN 89 LN 90 LN 90 LN 90 LN 90 LN (multinube) 89 LAB 90 LN NL NL
XSH 89 LN 90 LN (multinube) 91 LAB (nube) 91 LAB (nube) 91 LAB 92 LN (multinube) 93 LAB 91 LN 92 LN (nube) 91 LAB 90 LN (multinube) 91 LAB (multinube) 90 LAB 90 LN (multinube) 90 LAB 90 LN (multinube) 88 LAB 89 LN 89 LN (nube) 82 LAB NL NL
XSH (multinube) 91 LAB 89 LN 91 LN (multinube) 91 LAB 91 LN 92 LN (nube) 94 LAB 93 LN 90 LN 91 LN 91 LN 90 LN 89 LN 90 LN (nube) 88 LAB 89 LN 89 LN 90 LN 89 LN (nube) 82 LAB NL NL
XSH (multinube) 89 LAB 90 LN 90 LN (nube) 92 LAB (nube) 92 LAB 92 LN (nube) 92 LAB 90 LN 90 LN (nube) 92 LAB (nube) 90 LAB (nube) 89 LAB (nube) 90 LAB 90 LN 88 LN 90 LN 89 LN 88 LN 87 LN (nube) 87 LAB NL NL
XSH (nube) 89 LAB (multinube) 91 LAB 92 LN (nube) 91 LAB (nube) 92 LAB 93 LN (nube) 93 LAB 92 LN 91 LN 91 LN 90 LN (multinube) 91 LAB 91 LN 91 LN 90 LN (multinube) 88 LAB 87 LN 88 LN (nube) 87 LAB 87 LN NL NL
XSH (nube) 89 LAB 92 LN (multinube) 93 LAB (multinube) 92 LAB (nube) 93 LAB 94 LN 91 LN (nube) 91 LAB 92 LN (multinube) 90 LAB 89 LN 91 LN 89 LN (multinube) 91 LAB (nube) 89 LAB 89 LN 88 LN (nube) 88 LAB (nube) 86 LAB 86 LN NL NL
XSH 92 LN (nube) 93 LAB 93 LN (nube) 93 LAB 93 LN 93 LN 93 LN (nube) 92 LAB (nube) 91 LAB 91 LN (multinube) 91 LAB 90 LN (nube) 89 LAB (nube) 90 LAB 91 LN 90 LN 89 LN 88 LN 87 LN (multinube) 83 LAB NL NL
XSH (nube) 91 LAB (nube) 93 LAB (multinube) 93 LAB 94 LN 93 LN 92 LN (multinube) 92 LAB (multinube) 92 LAB 91 LN 89 LN 89 LN 91 LN 89 LN 90 LN 89 LN 89 LN (nube) 87 LAB 84 LN (nube) 81 LAB 77 LN NL NL
XSH (nube) 93 LAB (nube) 92 LAB (nube) 93 LAB 93 LN 93 LN 92 LN 92 LN (multinube) 92 LAB 92 LN 90 LN 90 LN 89 LN 90 LN 90 LN 88 LN (nube) 86 LAB 88 LN 86 LN (nube) 82 LAB (nube) 77 LAB NL NL
XSH (nube) 92 LAB (nube) 93 LAB 93 LN 93 LN 93 LN 93 LN 92 LN 92 LN 90 LN 90 LN 89 LN 89 LN 87 LN 88 LN 89 LN 88 LN (nube) 86 LAB 83 LN (nube) 80 LAB 74 LN NL NL
XSH (nube) 94 LAB 93 LN (nube) 94 LAB 94 LN 93 LN 92 LN 91 LN 91 LN (nube) 90 LAB 89 LN 90 LN 90 LN 90 LN 87 LN (nube) 86 LAB (multinube) 87 LAB 83 LN 82 LN 83 LN 72 LN NL NL
XSH (nube) 94 LAB (nube) 95 LAB (nube) 94 LAB 92 LN (nube) 93 LAB 92 LN 90 LN 91 LN 91 LN 89 LN 88 LN 88 LN 87 LN 85 LN 85 LN 84 LN 84 LN (nube) 77 LAB 75 LN 72 LN NL NL
XSH (nube) 93 LAB (nube) 93 LAB (nube) 94 LAB (multinube) 94 LAB 93 LN 92 LN 92 LN 92 LN 91 LN 91 LN 91 LN 87 LN 86 LN 86 LN 86 LN 84 LN 84 LN 80 LN 77 LN 70 LN NL NL
XSH (nube) 93 LAB 93 LN 93 LN 93 LN 93 LN 92 LN 92 LN 94 LN 90 LN 89 LN 89 LN 88 LN 87 LN 86 LN 84 LN 82 LN 79 LN 75 LN (nube) 71 LAB 57 LN NL NL
XSH (nube) 93 LAB (nube) 93 LAB 93 LN (nube) 93 LAB 92 LN 93 LN 93 LN 91 LN 91 LN (nube) 90 LAB 89 LN 89 LN 88 LN 89 LN 85 LN 84 LN (nube) 80 LAB 73 LN 69 LN 65 LN NL NL
XSH (nube) 92 LAB 92 LN 92 LN (nube) 92 LAB 93 LN 93 LN 92 LN 92 LN 91 LN 91 LN 90 LN 88 LN 89 LN 83 LN 83 LN 78 LN 75 LN 71 LN (nube) 65 LAB 52 LN NL NL
XSH (nube) 91 LAB (nube) 92 LAB (nube) 91 LAB 91 LN 92 LN (nube) 94 LAB 93 LN (nube) 91 LAB 91 LN 90 LN (multinube) 90 LAB 87 LN 88 LN 84 LN 84 LN (nube) 80 LAB 78 LN 76 LN 78 LN 58 LN NL NL
XSH 90 LN 90 LN 92 LN 93 LN 92 LN (nube) 93 LAB 93 LN 91 LN 91 LN 90 LN 90 LN 90 LN 86 LN 83 LN 82 LN 78 LN (nube) 73 LAB 78 LN 61 LN 52 LN NL NL
XSH (nube) 94 LAB 90 LN (nube) 91 LAB 92 LN (nube) 92 LAB (nube) 93 LAB 92 LN 92 LN 92 LN 91 LN 88 LN 88 LN 86 LN (nube) 84 LAB 84 LN 79 LN (nube) 75 LAB 74 LN (nube) 59 LAB 53 LN NL NL
XSH (nube) 91 LAB 91 LN 92 LN 92 LN (nube) 91 LAB 92 LN 92 LN 92 LN 92 LN 92 LN 90 LN 86 LN (nube) 86 LAB 85 LN 78 LN 78 LN 69 LN 65 LN (nube) 51 LAB (nube) 45 LAB NL NL
XSH (nube) 94 LAB (nube) 94 LAB 93 LN 93 LN (nube) 93 LAB 93 LN 92 LN 92 LN 92 LN (nube) 91 LAB 90 LN 88 LN 88 LN 83 LN 79 LN 76 LN 70 LN 61 LN 56 LN (nube) 46 LAB NL NL
XSH 95 LN 95 LN 94 LN (nube) 94 LAB (nube) 94 LAB 93 LN 91 LN 91 LN 91 LN 90 LN (nube) 87 LAB 85 LN (nube) 82 LAB (nube) 77 LAB 72 LN (nube) 69 LAB 66 LN 56 LN 47 LN 47 LN NL NL
XSH (cieloDespejado) 96 LAB (nube) 96 LAB 95 LN (nube) 95 LAB (nube) 94 LAB (nube) 93 LAB (nube) 91 LAB 92 LN (nube) 90 LAB 89 LN (nube) 86 LAB (nube) 84 LAB 81 LN (nube) 73 LAB (nube) 68 LAB 62 LN (nube) 50 LAB 50 LN (nube) 34 LAB (nube) 26 LAB NL NL
XSH 96 LN (nube) 95 LAB (cieloDespejado) 93 LAB 93 LN (nube) 92 LAB (cieloDespejado) 92 LAB 90 LN 89 LN 89 LN 89 LN (nube) 81 LAB 84 LN 84 LN 64 LN 69 LN 51 LN (nube) 41 LAB 17 LN 15 LN 22 LN NL NL
end
% end of EPS object
