%!PS-Adobe-2.0 EPSF-2.0
%%Title: undefined
%%Creator: sammon
%%Pages: 1
%%EndComments
40 40 translate
/gscale 589.507935 def
gscale dup scale
/Helvetica findfont 12 gscale div scalefont setfont
/radius 0.003393 def
/LN
{newpath
radius 0 360 arc fill
} def
/LP
{dup stringwidth pop
-2 div 0 rmoveto show} def
0.000339 setlinewidth
0 setgray
0.190526 0.595271 LN
0.194330 0.485165 LN
0.039300 0.467918 LN
0.018515 0.380963 LN
0.021086 0.389551 LN
0.033748 0.352570 LN
0.104990 0.326335 LN
0.078082 0.308555 LN
0.100140 0.279766 LN
0.120509 0.239949 LN
0.144399 0.196881 LN
0.173416 0.155748 LN
0.199304 0.122910 LN
0.221212 0.093307 LN
0.244048 0.031975 LN
0.258709 0.010785 LN
0.310561 0.007065 LN
0.349063 0.000000 LN
0.375336 0.009729 LN
0.428245 0.024325 LN
0.186812 0.492998 LN
0.130299 0.481503 LN
0.068643 0.433234 LN
0.055293 0.466208 LN
0.089442 0.400635 LN
0.077425 0.344157 LN
0.075292 0.326219 LN
0.090155 0.294219 LN
0.109747 0.258149 LN
0.124728 0.217335 LN
0.164297 0.196666 LN
0.189422 0.173065 LN
0.208632 0.116867 LN
0.220472 0.076952 LN
0.263324 0.036424 LN
0.279253 0.025324 LN
0.331733 0.022956 LN
0.384684 0.024842 LN
0.403796 0.006575 LN
0.441818 0.040112 LN
0.000000 0.494529 LN
0.028685 0.454417 LN
0.025686 0.461114 LN
0.077173 0.452196 LN
0.073544 0.409189 LN
0.063922 0.373424 LN
0.076162 0.348695 LN
0.099244 0.342584 LN
0.118159 0.307011 LN
0.134225 0.269508 LN
0.141166 0.226811 LN
0.172307 0.183737 LN
0.203382 0.151601 LN
0.220970 0.102083 LN
0.245617 0.080148 LN
0.290502 0.054583 LN
0.318093 0.037850 LN
0.356209 0.038115 LN
0.384209 0.045362 LN
0.423634 0.035249 LN
0.097445 0.476608 LN
0.092024 0.491556 LN
0.034522 0.494013 LN
0.085386 0.435105 LN
0.065072 0.422092 LN
0.091125 0.384245 LN
0.080072 0.359150 LN
0.096698 0.332501 LN
0.106389 0.300622 LN
0.126918 0.262296 LN
0.162849 0.219629 LN
0.182081 0.188782 LN
0.212022 0.147229 LN
0.237513 0.124994 LN
0.267542 0.084650 LN
0.299982 0.078066 LN
0.349171 0.064864 LN
0.367450 0.061450 LN
0.407509 0.069361 LN
0.429520 0.078928 LN
0.101251 0.561060 LN
0.046746 0.531826 LN
0.042700 0.513768 LN
0.069012 0.476152 LN
0.059913 0.441006 LN
0.055280 0.416936 LN
0.080055 0.401965 LN
0.097387 0.365334 LN
0.111945 0.338708 LN
0.126633 0.299588 LN
0.152037 0.264977 LN
0.174150 0.231964 LN
0.201804 0.199594 LN
0.226830 0.162257 LN
0.269153 0.137246 LN
0.292277 0.119021 LN
0.328993 0.099417 LN
0.368880 0.081412 LN
0.401843 0.095099 LN
0.387810 0.095331 LN
0.109737 0.597116 LN
0.050720 0.553426 LN
0.061446 0.525454 LN
0.053874 0.493122 LN
0.064019 0.461296 LN
0.075821 0.434463 LN
0.074790 0.400143 LN
0.094910 0.373204 LN
0.128999 0.345807 LN
0.136304 0.315865 LN
0.164747 0.275144 LN
0.194436 0.241317 LN
0.231634 0.208879 LN
0.254562 0.185148 LN
0.284237 0.152844 LN
0.318959 0.142038 LN
0.349522 0.138859 LN
0.383283 0.129239 LN
0.406834 0.129845 LN
0.423479 0.122893 LN
0.085512 0.604995 LN
0.048743 0.580721 LN
0.068059 0.557556 LN
0.065272 0.531023 LN
0.064300 0.497799 LN
0.063510 0.479415 LN
0.078214 0.440906 LN
0.099560 0.415116 LN
0.111007 0.379009 LN
0.138188 0.356492 LN
0.160535 0.318625 LN
0.190543 0.288457 LN
0.208126 0.266231 LN
0.243358 0.227254 LN
0.282974 0.208058 LN
0.307503 0.185257 LN
0.345317 0.177767 LN
0.374264 0.157189 LN
0.412200 0.153356 LN
0.417209 0.152804 LN
0.038420 0.620491 LN
0.038803 0.590063 LN
0.048747 0.560697 LN
0.049613 0.540197 LN
0.063456 0.511915 LN
0.086404 0.482456 LN
0.093994 0.453440 LN
0.106926 0.423239 LN
0.133045 0.390149 LN
0.144714 0.365857 LN
0.186498 0.332261 LN
0.204307 0.303816 LN
0.235126 0.269037 LN
0.272598 0.249884 LN
0.300350 0.225692 LN
0.336010 0.207994 LN
0.359313 0.194453 LN
0.401004 0.196357 LN
0.424282 0.182887 LN
0.436513 0.203070 LN
0.071599 0.635381 LN
0.080634 0.631104 LN
0.059358 0.613174 LN
0.051980 0.585500 LN
0.062194 0.559629 LN
0.075939 0.521614 LN
0.082055 0.496947 LN
0.106735 0.469419 LN
0.120264 0.436680 LN
0.146782 0.402744 LN
0.172302 0.383581 LN
0.190620 0.354151 LN
0.223148 0.324295 LN
0.258790 0.299742 LN
0.282537 0.266443 LN
0.323107 0.254247 LN
0.351453 0.239781 LN
0.391845 0.231700 LN
0.415676 0.222674 LN
0.441866 0.238157 LN
0.056659 0.665907 LN
0.047114 0.664376 LN
0.046493 0.626409 LN
0.048532 0.604219 LN
0.066742 0.586640 LN
0.081075 0.542170 LN
0.088521 0.517534 LN
0.116864 0.493330 LN
0.143703 0.451432 LN
0.166970 0.428500 LN
0.184001 0.399261 LN
0.221044 0.370780 LN
0.243303 0.338374 LN
0.271339 0.324071 LN
0.311624 0.302666 LN
0.340826 0.269248 LN
0.372554 0.274287 LN
0.393939 0.260131 LN
0.442539 0.262796 LN
0.463029 0.278381 LN
0.055834 0.700203 LN
0.047588 0.698044 LN
0.047016 0.671335 LN
0.037075 0.647593 LN
0.049471 0.618528 LN
0.069209 0.594199 LN
0.086819 0.564563 LN
0.107374 0.539101 LN
0.130285 0.505141 LN
0.153876 0.476308 LN
0.182125 0.446737 LN
0.197731 0.412793 LN
0.230079 0.395271 LN
0.262008 0.364399 LN
0.287525 0.346894 LN
0.327608 0.321767 LN
0.361247 0.302684 LN
0.410165 0.293419 LN
0.417892 0.298078 LN
0.443322 0.289549 LN
0.036366 0.735004 LN
0.043807 0.707515 LN
0.040596 0.696788 LN
0.051355 0.669105 LN
0.062592 0.637816 LN
0.073437 0.613441 LN
0.090540 0.587472 LN
0.124832 0.552152 LN
0.147532 0.531705 LN
0.160588 0.497685 LN
0.197185 0.463591 LN
0.216398 0.428277 LN
0.244620 0.407995 LN
0.280646 0.380686 LN
0.309604 0.371693 LN
0.348628 0.355986 LN
0.378843 0.345324 LN
0.405706 0.326270 LN
0.437524 0.336897 LN
0.433430 0.335011 LN
0.049012 0.766579 LN
0.034569 0.753881 LN
0.042991 0.737055 LN
0.045122 0.717277 LN
0.062383 0.687201 LN
0.064973 0.661437 LN
0.085434 0.637793 LN
0.102105 0.608002 LN
0.130895 0.576443 LN
0.148679 0.545073 LN
0.179312 0.517391 LN
0.201145 0.488462 LN
0.233439 0.456414 LN
0.262864 0.429827 LN
0.284398 0.410725 LN
0.309983 0.392280 LN
0.345807 0.372144 LN
0.376088 0.375710 LN
0.413977 0.360670 LN
0.416101 0.381894 LN
0.030016 0.791038 LN
0.033216 0.778632 LN
0.045739 0.759191 LN
0.054851 0.738511 LN
0.060819 0.714987 LN
0.076235 0.687572 LN
0.100221 0.656216 LN
0.120346 0.629015 LN
0.140396 0.597372 LN
0.161748 0.575800 LN
0.192333 0.532878 LN
0.216587 0.504002 LN
0.237174 0.481998 LN
0.274379 0.458510 LN
0.296759 0.436881 LN
0.328660 0.414708 LN
0.357043 0.426597 LN
0.403680 0.398782 LN
0.426341 0.408976 LN
0.392853 0.375129 LN
0.025784 0.828215 LN
0.028619 0.818515 LN
0.033698 0.803080 LN
0.042208 0.787701 LN
0.059705 0.765266 LN
0.071069 0.744295 LN
0.089988 0.710336 LN
0.110036 0.680682 LN
0.129051 0.651467 LN
0.154660 0.631961 LN
0.177106 0.596636 LN
0.209333 0.570903 LN
0.223391 0.531167 LN
0.256957 0.508247 LN
0.281448 0.483058 LN
0.325302 0.479809 LN
0.340549 0.446994 LN
0.348181 0.440038 LN
0.397423 0.441508 LN
0.438454 0.424091 LN
0.018842 0.850924 LN
0.021050 0.846169 LN
0.033704 0.834434 LN
0.047131 0.815988 LN
0.066378 0.790725 LN
0.078910 0.765578 LN
0.095511 0.739766 LN
0.115334 0.708993 LN
0.135717 0.685653 LN
0.160452 0.650457 LN
0.189159 0.625941 LN
0.219121 0.591031 LN
0.234631 0.559022 LN
0.272109 0.539228 LN
0.292727 0.514173 LN
0.310604 0.506067 LN
0.359813 0.476172 LN
0.386973 0.472494 LN
0.375396 0.461251 LN
0.401042 0.444168 LN
0.007025 0.888481 LN
0.012251 0.885438 LN
0.024136 0.871649 LN
0.034150 0.860027 LN
0.051595 0.848454 LN
0.065698 0.822475 LN
0.091206 0.790887 LN
0.099266 0.773972 LN
0.122247 0.737721 LN
0.151329 0.708342 LN
0.167967 0.679772 LN
0.200624 0.655651 LN
0.213256 0.623673 LN
0.244907 0.605297 LN
0.267732 0.569442 LN
0.296827 0.546712 LN
0.331769 0.524750 LN
0.356860 0.508424 LN
0.374498 0.514358 LN
0.398156 0.519963 LN
0.005416 0.915469 LN
0.018497 0.911271 LN
0.026462 0.903118 LN
0.036840 0.887380 LN
0.057605 0.875940 LN
0.076681 0.843955 LN
0.094915 0.827392 LN
0.121264 0.795237 LN
0.138327 0.771485 LN
0.153486 0.748745 LN
0.176042 0.714283 LN
0.205546 0.675763 LN
0.226430 0.647882 LN
0.253597 0.613151 LN
0.278145 0.601891 LN
0.305618 0.578470 LN
0.306711 0.572877 LN
0.374135 0.535295 LN
0.357554 0.523146 LN
0.376314 0.541002 LN
0.003496 0.948502 LN
0.011611 0.942359 LN
0.018600 0.934259 LN
0.032360 0.928063 LN
0.053800 0.919284 LN
0.067779 0.895804 LN
0.091406 0.876685 LN
0.106001 0.856217 LN
0.125576 0.827927 LN
0.148796 0.800197 LN
0.171888 0.772649 LN
0.191017 0.741835 LN
0.210903 0.707878 LN
0.250853 0.679058 LN
0.260810 0.660727 LN
0.275819 0.627427 LN
0.305427 0.599068 LN
0.333440 0.572057 LN
0.354350 0.571255 LN
0.410787 0.564125 LN
0.006548 0.982583 LN
0.017694 0.971850 LN
0.028809 0.968432 LN
0.048697 0.954192 LN
0.062009 0.945296 LN
0.082455 0.930647 LN
0.102618 0.903855 LN
0.112941 0.884360 LN
0.133559 0.861938 LN
0.160341 0.827003 LN
0.184235 0.801891 LN
0.209606 0.773726 LN
0.212333 0.747100 LN
0.244483 0.712114 LN
0.277654 0.675349 LN
0.298271 0.655906 LN
0.309735 0.623333 LN
0.359749 0.622039 LN
0.417027 0.602473 LN
0.370463 0.632228 LN
0.016843 1.012304 LN
0.015367 1.009601 LN
0.026982 1.000711 LN
0.039372 0.997828 LN
0.058973 0.987851 LN
0.080294 0.974825 LN
0.098512 0.952016 LN
0.113628 0.939213 LN
0.131332 0.904622 LN
0.159185 0.886439 LN
0.180991 0.846147 LN
0.190894 0.831264 LN
0.221067 0.791565 LN
0.234427 0.763718 LN
0.255264 0.739565 LN
0.292462 0.707432 LN
0.307914 0.682015 LN
0.333722 0.668560 LN
0.375006 0.621113 LN
0.355031 0.686366 LN
0.024157 1.046386 LN
0.031478 1.043757 LN
0.041621 1.033015 LN
0.053653 1.030061 LN
0.072701 1.017313 LN
0.096822 0.996836 LN
0.114383 0.984122 LN
0.129594 0.955036 LN
0.152184 0.930445 LN
0.174845 0.896521 LN
0.185972 0.879321 LN
0.213286 0.844266 LN
0.233744 0.817298 LN
0.239179 0.773506 LN
0.271223 0.735304 LN
0.284332 0.732917 LN
0.295012 0.699438 LN
0.334952 0.708822 LN
0.337556 0.699266 LN
0.442703 0.684303 LN
0.025540 1.082551 LN
0.035812 1.076517 LN
0.042404 1.080842 LN
0.058497 1.074757 LN
0.075008 1.055864 LN
0.090369 1.044155 LN
0.107139 1.028647 LN
0.122578 0.999589 LN
0.146656 0.980676 LN
0.173323 0.949464 LN
0.182127 0.917232 LN
0.206459 0.886166 LN
0.242704 0.844829 LN
0.250103 0.838096 LN
0.267394 0.781940 LN
0.288714 0.781665 LN
0.295866 0.778690 LN
0.322093 0.750390 LN
0.352628 0.703555 LN
0.397051 0.707700 LN
0.039537 1.121193 LN
0.046598 1.121209 LN
0.060067 1.113446 LN
0.080121 1.102759 LN
0.096021 1.085527 LN
0.107110 1.062164 LN
0.132144 1.043027 LN
0.153526 1.025444 LN
0.171272 0.991519 LN
0.185669 0.964296 LN
0.200814 0.929298 LN
0.220433 0.899901 LN
0.239021 0.885706 LN
0.265582 0.836594 LN
0.275677 0.805113 LN
0.326102 0.787097 LN
0.341899 0.738729 LN
0.340728 0.749147 LN
0.415743 0.747613 LN
0.474413 0.673995 LN
0.045092 1.174570 LN
0.045849 1.164065 LN
0.065267 1.156120 LN
0.075318 1.144925 LN
0.097674 1.124161 LN
0.115378 1.110450 LN
0.136526 1.084219 LN
0.154453 1.060942 LN
0.176980 1.040073 LN
0.185736 1.009618 LN
0.212726 0.974519 LN
0.214006 0.943630 LN
0.237148 0.919706 LN
0.268022 0.891690 LN
0.265406 0.865823 LN
0.312720 0.822131 LN
0.320372 0.797406 LN
0.367590 0.766732 LN
0.375730 0.768681 LN
0.404427 0.705612 LN
0.051431 1.202712 LN
0.071985 1.198903 LN
0.082600 1.188147 LN
0.100713 1.170717 LN
0.123153 1.150863 LN
0.136245 1.117700 LN
0.164047 1.095712 LN
0.180027 1.072758 LN
0.199083 1.040671 LN
0.222959 1.023621 LN
0.226860 0.983759 LN
0.243472 0.947834 LN
0.258212 0.919064 LN
0.265885 0.884405 LN
0.306003 0.867862 LN
0.323690 0.808863 LN
0.374483 0.823034 LN
0.444117 0.810086 LN
0.464551 0.813124 LN
0.519971 0.716163 LN
0.054611 1.242310 LN
0.068032 1.247778 LN
0.087592 1.228081 LN
0.105376 1.209644 LN
0.122380 1.188883 LN
0.143838 1.163453 LN
0.163669 1.137555 LN
0.185681 1.100956 LN
0.205288 1.082185 LN
0.215271 1.046669 LN
0.230815 1.011267 LN
0.260724 0.984680 LN
0.246046 0.947379 LN
0.279075 0.942023 LN
0.291903 0.883531 LN
0.286608 0.884234 LN
0.336680 0.835312 LN
0.373958 0.844813 LN
0.468220 0.804042 LN
0.350043 0.793011 LN
0.066468 1.267488 LN
0.088370 1.262800 LN
0.106101 1.245088 LN
0.124451 1.219913 LN
0.149889 1.187865 LN
0.167867 1.165080 LN
0.187331 1.138006 LN
0.219342 1.113506 LN
0.222325 1.081362 LN
0.253321 1.042672 LN
0.254606 1.015566 LN
0.241656 0.967291 LN
0.286179 0.951729 LN
0.296270 0.922509 LN
0.298366 0.906615 LN
0.358771 0.871595 LN
0.418817 0.825183 LN
0.395650 0.845480 LN
0.394231 0.755821 LN
0.443970 0.755959 LN
0.060777 1.289211 LN
0.076906 1.281224 LN
0.106195 1.267697 LN
0.126837 1.243679 LN
0.148103 1.216585 LN
0.176504 1.191617 LN
0.187103 1.169383 LN
0.209361 1.131486 LN
0.241424 1.112554 LN
0.236744 1.059668 LN
0.273859 1.045339 LN
0.228725 1.001002 LN
0.260145 0.970284 LN
0.248757 0.920045 LN
0.314687 0.914195 LN
0.357913 0.841201 LN
0.374548 0.932806 LN
0.405490 0.850992 LN
0.494340 0.781356 LN
0.381993 0.775084 LN
0.081794 1.282704 LN
0.096381 1.276129 LN
0.125577 1.259730 LN
0.141271 1.229943 LN
0.165687 1.211678 LN
0.192492 1.179267 LN
0.206449 1.145913 LN
0.211013 1.115048 LN
0.254986 1.091358 LN
0.251691 1.066658 LN
0.264142 1.029770 LN
0.251192 0.980259 LN
0.289378 0.994732 LN
0.292046 1.003985 LN
0.325526 0.850935 LN
0.316836 0.865214 LN
0.382397 0.897369 LN
0.423712 0.912700 LN
0.585646 0.779526 LN
0.526019 0.775792 LN
newpath
0.190526 0.595271 moveto
0.194330 0.485165 lineto
0.039300 0.467918 lineto
0.018515 0.380963 lineto
0.021086 0.389551 lineto
0.033748 0.352570 lineto
0.104990 0.326335 lineto
0.078082 0.308555 lineto
0.100140 0.279766 lineto
0.120509 0.239949 lineto
0.144399 0.196881 lineto
0.173416 0.155748 lineto
0.199304 0.122910 lineto
0.221212 0.093307 lineto
0.244048 0.031975 lineto
0.258709 0.010785 lineto
0.310561 0.007065 lineto
0.349063 0.000000 lineto
0.375336 0.009729 lineto
0.428245 0.024325 lineto
stroke
newpath
0.186812 0.492998 moveto
0.130299 0.481503 lineto
0.068643 0.433234 lineto
0.055293 0.466208 lineto
0.089442 0.400635 lineto
0.077425 0.344157 lineto
0.075292 0.326219 lineto
0.090155 0.294219 lineto
0.109747 0.258149 lineto
0.124728 0.217335 lineto
0.164297 0.196666 lineto
0.189422 0.173065 lineto
0.208632 0.116867 lineto
0.220472 0.076952 lineto
0.263324 0.036424 lineto
0.279253 0.025324 lineto
0.331733 0.022956 lineto
0.384684 0.024842 lineto
0.403796 0.006575 lineto
0.441818 0.040112 lineto
stroke
newpath
0.000000 0.494529 moveto
0.028685 0.454417 lineto
0.025686 0.461114 lineto
0.077173 0.452196 lineto
0.073544 0.409189 lineto
0.063922 0.373424 lineto
0.076162 0.348695 lineto
0.099244 0.342584 lineto
0.118159 0.307011 lineto
0.134225 0.269508 lineto
0.141166 0.226811 lineto
0.172307 0.183737 lineto
0.203382 0.151601 lineto
0.220970 0.102083 lineto
0.245617 0.080148 lineto
0.290502 0.054583 lineto
0.318093 0.037850 lineto
0.356209 0.038115 lineto
0.384209 0.045362 lineto
0.423634 0.035249 lineto
stroke
newpath
0.097445 0.476608 moveto
0.092024 0.491556 lineto
0.034522 0.494013 lineto
0.085386 0.435105 lineto
0.065072 0.422092 lineto
0.091125 0.384245 lineto
0.080072 0.359150 lineto
0.096698 0.332501 lineto
0.106389 0.300622 lineto
0.126918 0.262296 lineto
0.162849 0.219629 lineto
0.182081 0.188782 lineto
0.212022 0.147229 lineto
0.237513 0.124994 lineto
0.267542 0.084650 lineto
0.299982 0.078066 lineto
0.349171 0.064864 lineto
0.367450 0.061450 lineto
0.407509 0.069361 lineto
0.429520 0.078928 lineto
stroke
newpath
0.101251 0.561060 moveto
0.046746 0.531826 lineto
0.042700 0.513768 lineto
0.069012 0.476152 lineto
0.059913 0.441006 lineto
0.055280 0.416936 lineto
0.080055 0.401965 lineto
0.097387 0.365334 lineto
0.111945 0.338708 lineto
0.126633 0.299588 lineto
0.152037 0.264977 lineto
0.174150 0.231964 lineto
0.201804 0.199594 lineto
0.226830 0.162257 lineto
0.269153 0.137246 lineto
0.292277 0.119021 lineto
0.328993 0.099417 lineto
0.368880 0.081412 lineto
0.401843 0.095099 lineto
0.387810 0.095331 lineto
stroke
newpath
0.109737 0.597116 moveto
0.050720 0.553426 lineto
0.061446 0.525454 lineto
0.053874 0.493122 lineto
0.064019 0.461296 lineto
0.075821 0.434463 lineto
0.074790 0.400143 lineto
0.094910 0.373204 lineto
0.128999 0.345807 lineto
0.136304 0.315865 lineto
0.164747 0.275144 lineto
0.194436 0.241317 lineto
0.231634 0.208879 lineto
0.254562 0.185148 lineto
0.284237 0.152844 lineto
0.318959 0.142038 lineto
0.349522 0.138859 lineto
0.383283 0.129239 lineto
0.406834 0.129845 lineto
0.423479 0.122893 lineto
stroke
newpath
0.085512 0.604995 moveto
0.048743 0.580721 lineto
0.068059 0.557556 lineto
0.065272 0.531023 lineto
0.064300 0.497799 lineto
0.063510 0.479415 lineto
0.078214 0.440906 lineto
0.099560 0.415116 lineto
0.111007 0.379009 lineto
0.138188 0.356492 lineto
0.160535 0.318625 lineto
0.190543 0.288457 lineto
0.208126 0.266231 lineto
0.243358 0.227254 lineto
0.282974 0.208058 lineto
0.307503 0.185257 lineto
0.345317 0.177767 lineto
0.374264 0.157189 lineto
0.412200 0.153356 lineto
0.417209 0.152804 lineto
stroke
newpath
0.038420 0.620491 moveto
0.038803 0.590063 lineto
0.048747 0.560697 lineto
0.049613 0.540197 lineto
0.063456 0.511915 lineto
0.086404 0.482456 lineto
0.093994 0.453440 lineto
0.106926 0.423239 lineto
0.133045 0.390149 lineto
0.144714 0.365857 lineto
0.186498 0.332261 lineto
0.204307 0.303816 lineto
0.235126 0.269037 lineto
0.272598 0.249884 lineto
0.300350 0.225692 lineto
0.336010 0.207994 lineto
0.359313 0.194453 lineto
0.401004 0.196357 lineto
0.424282 0.182887 lineto
0.436513 0.203070 lineto
stroke
newpath
0.071599 0.635381 moveto
0.080634 0.631104 lineto
0.059358 0.613174 lineto
0.051980 0.585500 lineto
0.062194 0.559629 lineto
0.075939 0.521614 lineto
0.082055 0.496947 lineto
0.106735 0.469419 lineto
0.120264 0.436680 lineto
0.146782 0.402744 lineto
0.172302 0.383581 lineto
0.190620 0.354151 lineto
0.223148 0.324295 lineto
0.258790 0.299742 lineto
0.282537 0.266443 lineto
0.323107 0.254247 lineto
0.351453 0.239781 lineto
0.391845 0.231700 lineto
0.415676 0.222674 lineto
0.441866 0.238157 lineto
stroke
newpath
0.056659 0.665907 moveto
0.047114 0.664376 lineto
0.046493 0.626409 lineto
0.048532 0.604219 lineto
0.066742 0.586640 lineto
0.081075 0.542170 lineto
0.088521 0.517534 lineto
0.116864 0.493330 lineto
0.143703 0.451432 lineto
0.166970 0.428500 lineto
0.184001 0.399261 lineto
0.221044 0.370780 lineto
0.243303 0.338374 lineto
0.271339 0.324071 lineto
0.311624 0.302666 lineto
0.340826 0.269248 lineto
0.372554 0.274287 lineto
0.393939 0.260131 lineto
0.442539 0.262796 lineto
0.463029 0.278381 lineto
stroke
newpath
0.055834 0.700203 moveto
0.047588 0.698044 lineto
0.047016 0.671335 lineto
0.037075 0.647593 lineto
0.049471 0.618528 lineto
0.069209 0.594199 lineto
0.086819 0.564563 lineto
0.107374 0.539101 lineto
0.130285 0.505141 lineto
0.153876 0.476308 lineto
0.182125 0.446737 lineto
0.197731 0.412793 lineto
0.230079 0.395271 lineto
0.262008 0.364399 lineto
0.287525 0.346894 lineto
0.327608 0.321767 lineto
0.361247 0.302684 lineto
0.410165 0.293419 lineto
0.417892 0.298078 lineto
0.443322 0.289549 lineto
stroke
newpath
0.036366 0.735004 moveto
0.043807 0.707515 lineto
0.040596 0.696788 lineto
0.051355 0.669105 lineto
0.062592 0.637816 lineto
0.073437 0.613441 lineto
0.090540 0.587472 lineto
0.124832 0.552152 lineto
0.147532 0.531705 lineto
0.160588 0.497685 lineto
0.197185 0.463591 lineto
0.216398 0.428277 lineto
0.244620 0.407995 lineto
0.280646 0.380686 lineto
0.309604 0.371693 lineto
0.348628 0.355986 lineto
0.378843 0.345324 lineto
0.405706 0.326270 lineto
0.437524 0.336897 lineto
0.433430 0.335011 lineto
stroke
newpath
0.049012 0.766579 moveto
0.034569 0.753881 lineto
0.042991 0.737055 lineto
0.045122 0.717277 lineto
0.062383 0.687201 lineto
0.064973 0.661437 lineto
0.085434 0.637793 lineto
0.102105 0.608002 lineto
0.130895 0.576443 lineto
0.148679 0.545073 lineto
0.179312 0.517391 lineto
0.201145 0.488462 lineto
0.233439 0.456414 lineto
0.262864 0.429827 lineto
0.284398 0.410725 lineto
0.309983 0.392280 lineto
0.345807 0.372144 lineto
0.376088 0.375710 lineto
0.413977 0.360670 lineto
0.416101 0.381894 lineto
stroke
newpath
0.030016 0.791038 moveto
0.033216 0.778632 lineto
0.045739 0.759191 lineto
0.054851 0.738511 lineto
0.060819 0.714987 lineto
0.076235 0.687572 lineto
0.100221 0.656216 lineto
0.120346 0.629015 lineto
0.140396 0.597372 lineto
0.161748 0.575800 lineto
0.192333 0.532878 lineto
0.216587 0.504002 lineto
0.237174 0.481998 lineto
0.274379 0.458510 lineto
0.296759 0.436881 lineto
0.328660 0.414708 lineto
0.357043 0.426597 lineto
0.403680 0.398782 lineto
0.426341 0.408976 lineto
0.392853 0.375129 lineto
stroke
newpath
0.025784 0.828215 moveto
0.028619 0.818515 lineto
0.033698 0.803080 lineto
0.042208 0.787701 lineto
0.059705 0.765266 lineto
0.071069 0.744295 lineto
0.089988 0.710336 lineto
0.110036 0.680682 lineto
0.129051 0.651467 lineto
0.154660 0.631961 lineto
0.177106 0.596636 lineto
0.209333 0.570903 lineto
0.223391 0.531167 lineto
0.256957 0.508247 lineto
0.281448 0.483058 lineto
0.325302 0.479809 lineto
0.340549 0.446994 lineto
0.348181 0.440038 lineto
0.397423 0.441508 lineto
0.438454 0.424091 lineto
stroke
newpath
0.018842 0.850924 moveto
0.021050 0.846169 lineto
0.033704 0.834434 lineto
0.047131 0.815988 lineto
0.066378 0.790725 lineto
0.078910 0.765578 lineto
0.095511 0.739766 lineto
0.115334 0.708993 lineto
0.135717 0.685653 lineto
0.160452 0.650457 lineto
0.189159 0.625941 lineto
0.219121 0.591031 lineto
0.234631 0.559022 lineto
0.272109 0.539228 lineto
0.292727 0.514173 lineto
0.310604 0.506067 lineto
0.359813 0.476172 lineto
0.386973 0.472494 lineto
0.375396 0.461251 lineto
0.401042 0.444168 lineto
stroke
newpath
0.007025 0.888481 moveto
0.012251 0.885438 lineto
0.024136 0.871649 lineto
0.034150 0.860027 lineto
0.051595 0.848454 lineto
0.065698 0.822475 lineto
0.091206 0.790887 lineto
0.099266 0.773972 lineto
0.122247 0.737721 lineto
0.151329 0.708342 lineto
0.167967 0.679772 lineto
0.200624 0.655651 lineto
0.213256 0.623673 lineto
0.244907 0.605297 lineto
0.267732 0.569442 lineto
0.296827 0.546712 lineto
0.331769 0.524750 lineto
0.356860 0.508424 lineto
0.374498 0.514358 lineto
0.398156 0.519963 lineto
stroke
newpath
0.005416 0.915469 moveto
0.018497 0.911271 lineto
0.026462 0.903118 lineto
0.036840 0.887380 lineto
0.057605 0.875940 lineto
0.076681 0.843955 lineto
0.094915 0.827392 lineto
0.121264 0.795237 lineto
0.138327 0.771485 lineto
0.153486 0.748745 lineto
0.176042 0.714283 lineto
0.205546 0.675763 lineto
0.226430 0.647882 lineto
0.253597 0.613151 lineto
0.278145 0.601891 lineto
0.305618 0.578470 lineto
0.306711 0.572877 lineto
0.374135 0.535295 lineto
0.357554 0.523146 lineto
0.376314 0.541002 lineto
stroke
newpath
0.003496 0.948502 moveto
0.011611 0.942359 lineto
0.018600 0.934259 lineto
0.032360 0.928063 lineto
0.053800 0.919284 lineto
0.067779 0.895804 lineto
0.091406 0.876685 lineto
0.106001 0.856217 lineto
0.125576 0.827927 lineto
0.148796 0.800197 lineto
0.171888 0.772649 lineto
0.191017 0.741835 lineto
0.210903 0.707878 lineto
0.250853 0.679058 lineto
0.260810 0.660727 lineto
0.275819 0.627427 lineto
0.305427 0.599068 lineto
0.333440 0.572057 lineto
0.354350 0.571255 lineto
0.410787 0.564125 lineto
stroke
newpath
0.006548 0.982583 moveto
0.017694 0.971850 lineto
0.028809 0.968432 lineto
0.048697 0.954192 lineto
0.062009 0.945296 lineto
0.082455 0.930647 lineto
0.102618 0.903855 lineto
0.112941 0.884360 lineto
0.133559 0.861938 lineto
0.160341 0.827003 lineto
0.184235 0.801891 lineto
0.209606 0.773726 lineto
0.212333 0.747100 lineto
0.244483 0.712114 lineto
0.277654 0.675349 lineto
0.298271 0.655906 lineto
0.309735 0.623333 lineto
0.359749 0.622039 lineto
0.417027 0.602473 lineto
0.370463 0.632228 lineto
stroke
newpath
0.016843 1.012304 moveto
0.015367 1.009601 lineto
0.026982 1.000711 lineto
0.039372 0.997828 lineto
0.058973 0.987851 lineto
0.080294 0.974825 lineto
0.098512 0.952016 lineto
0.113628 0.939213 lineto
0.131332 0.904622 lineto
0.159185 0.886439 lineto
0.180991 0.846147 lineto
0.190894 0.831264 lineto
0.221067 0.791565 lineto
0.234427 0.763718 lineto
0.255264 0.739565 lineto
0.292462 0.707432 lineto
0.307914 0.682015 lineto
0.333722 0.668560 lineto
0.375006 0.621113 lineto
0.355031 0.686366 lineto
stroke
newpath
0.024157 1.046386 moveto
0.031478 1.043757 lineto
0.041621 1.033015 lineto
0.053653 1.030061 lineto
0.072701 1.017313 lineto
0.096822 0.996836 lineto
0.114383 0.984122 lineto
0.129594 0.955036 lineto
0.152184 0.930445 lineto
0.174845 0.896521 lineto
0.185972 0.879321 lineto
0.213286 0.844266 lineto
0.233744 0.817298 lineto
0.239179 0.773506 lineto
0.271223 0.735304 lineto
0.284332 0.732917 lineto
0.295012 0.699438 lineto
0.334952 0.708822 lineto
0.337556 0.699266 lineto
0.442703 0.684303 lineto
stroke
newpath
0.025540 1.082551 moveto
0.035812 1.076517 lineto
0.042404 1.080842 lineto
0.058497 1.074757 lineto
0.075008 1.055864 lineto
0.090369 1.044155 lineto
0.107139 1.028647 lineto
0.122578 0.999589 lineto
0.146656 0.980676 lineto
0.173323 0.949464 lineto
0.182127 0.917232 lineto
0.206459 0.886166 lineto
0.242704 0.844829 lineto
0.250103 0.838096 lineto
0.267394 0.781940 lineto
0.288714 0.781665 lineto
0.295866 0.778690 lineto
0.322093 0.750390 lineto
0.352628 0.703555 lineto
0.397051 0.707700 lineto
stroke
newpath
0.039537 1.121193 moveto
0.046598 1.121209 lineto
0.060067 1.113446 lineto
0.080121 1.102759 lineto
0.096021 1.085527 lineto
0.107110 1.062164 lineto
0.132144 1.043027 lineto
0.153526 1.025444 lineto
0.171272 0.991519 lineto
0.185669 0.964296 lineto
0.200814 0.929298 lineto
0.220433 0.899901 lineto
0.239021 0.885706 lineto
0.265582 0.836594 lineto
0.275677 0.805113 lineto
0.326102 0.787097 lineto
0.341899 0.738729 lineto
0.340728 0.749147 lineto
0.415743 0.747613 lineto
0.474413 0.673995 lineto
stroke
newpath
0.045092 1.174570 moveto
0.045849 1.164065 lineto
0.065267 1.156120 lineto
0.075318 1.144925 lineto
0.097674 1.124161 lineto
0.115378 1.110450 lineto
0.136526 1.084219 lineto
0.154453 1.060942 lineto
0.176980 1.040073 lineto
0.185736 1.009618 lineto
0.212726 0.974519 lineto
0.214006 0.943630 lineto
0.237148 0.919706 lineto
0.268022 0.891690 lineto
0.265406 0.865823 lineto
0.312720 0.822131 lineto
0.320372 0.797406 lineto
0.367590 0.766732 lineto
0.375730 0.768681 lineto
0.404427 0.705612 lineto
stroke
newpath
0.051431 1.202712 moveto
0.071985 1.198903 lineto
0.082600 1.188147 lineto
0.100713 1.170717 lineto
0.123153 1.150863 lineto
0.136245 1.117700 lineto
0.164047 1.095712 lineto
0.180027 1.072758 lineto
0.199083 1.040671 lineto
0.222959 1.023621 lineto
0.226860 0.983759 lineto
0.243472 0.947834 lineto
0.258212 0.919064 lineto
0.265885 0.884405 lineto
0.306003 0.867862 lineto
0.323690 0.808863 lineto
0.374483 0.823034 lineto
0.444117 0.810086 lineto
0.464551 0.813124 lineto
0.519971 0.716163 lineto
stroke
newpath
0.054611 1.242310 moveto
0.068032 1.247778 lineto
0.087592 1.228081 lineto
0.105376 1.209644 lineto
0.122380 1.188883 lineto
0.143838 1.163453 lineto
0.163669 1.137555 lineto
0.185681 1.100956 lineto
0.205288 1.082185 lineto
0.215271 1.046669 lineto
0.230815 1.011267 lineto
0.260724 0.984680 lineto
0.246046 0.947379 lineto
0.279075 0.942023 lineto
0.291903 0.883531 lineto
0.286608 0.884234 lineto
0.336680 0.835312 lineto
0.373958 0.844813 lineto
0.468220 0.804042 lineto
0.350043 0.793011 lineto
stroke
newpath
0.066468 1.267488 moveto
0.088370 1.262800 lineto
0.106101 1.245088 lineto
0.124451 1.219913 lineto
0.149889 1.187865 lineto
0.167867 1.165080 lineto
0.187331 1.138006 lineto
0.219342 1.113506 lineto
0.222325 1.081362 lineto
0.253321 1.042672 lineto
0.254606 1.015566 lineto
0.241656 0.967291 lineto
0.286179 0.951729 lineto
0.296270 0.922509 lineto
0.298366 0.906615 lineto
0.358771 0.871595 lineto
0.418817 0.825183 lineto
0.395650 0.845480 lineto
0.394231 0.755821 lineto
0.443970 0.755959 lineto
stroke
newpath
0.060777 1.289211 moveto
0.076906 1.281224 lineto
0.106195 1.267697 lineto
0.126837 1.243679 lineto
0.148103 1.216585 lineto
0.176504 1.191617 lineto
0.187103 1.169383 lineto
0.209361 1.131486 lineto
0.241424 1.112554 lineto
0.236744 1.059668 lineto
0.273859 1.045339 lineto
0.228725 1.001002 lineto
0.260145 0.970284 lineto
0.248757 0.920045 lineto
0.314687 0.914195 lineto
0.357913 0.841201 lineto
0.374548 0.932806 lineto
0.405490 0.850992 lineto
0.494340 0.781356 lineto
0.381993 0.775084 lineto
stroke
newpath
0.081794 1.282704 moveto
0.096381 1.276129 lineto
0.125577 1.259730 lineto
0.141271 1.229943 lineto
0.165687 1.211678 lineto
0.192492 1.179267 lineto
0.206449 1.145913 lineto
0.211013 1.115048 lineto
0.254986 1.091358 lineto
0.251691 1.066658 lineto
0.264142 1.029770 lineto
0.251192 0.980259 lineto
0.289378 0.994732 lineto
0.292046 1.003985 lineto
0.325526 0.850935 lineto
0.316836 0.865214 lineto
0.382397 0.897369 lineto
0.423712 0.912700 lineto
0.585646 0.779526 lineto
0.526019 0.775792 lineto
stroke
newpath
0.190526 0.595271 moveto
0.186812 0.492998 lineto
0.000000 0.494529 lineto
0.097445 0.476608 lineto
0.101251 0.561060 lineto
0.109737 0.597116 lineto
0.085512 0.604995 lineto
0.038420 0.620491 lineto
0.071599 0.635381 lineto
0.056659 0.665907 lineto
0.055834 0.700203 lineto
0.036366 0.735004 lineto
0.049012 0.766579 lineto
0.030016 0.791038 lineto
0.025784 0.828215 lineto
0.018842 0.850924 lineto
0.007025 0.888481 lineto
0.005416 0.915469 lineto
0.003496 0.948502 lineto
0.006548 0.982583 lineto
0.016843 1.012304 lineto
0.024157 1.046386 lineto
0.025540 1.082551 lineto
0.039537 1.121193 lineto
0.045092 1.174570 lineto
0.051431 1.202712 lineto
0.054611 1.242310 lineto
0.066468 1.267488 lineto
0.060777 1.289211 lineto
0.081794 1.282704 lineto
stroke
newpath
0.194330 0.485165 moveto
0.130299 0.481503 lineto
0.028685 0.454417 lineto
0.092024 0.491556 lineto
0.046746 0.531826 lineto
0.050720 0.553426 lineto
0.048743 0.580721 lineto
0.038803 0.590063 lineto
0.080634 0.631104 lineto
0.047114 0.664376 lineto
0.047588 0.698044 lineto
0.043807 0.707515 lineto
0.034569 0.753881 lineto
0.033216 0.778632 lineto
0.028619 0.818515 lineto
0.021050 0.846169 lineto
0.012251 0.885438 lineto
0.018497 0.911271 lineto
0.011611 0.942359 lineto
0.017694 0.971850 lineto
0.015367 1.009601 lineto
0.031478 1.043757 lineto
0.035812 1.076517 lineto
0.046598 1.121209 lineto
0.045849 1.164065 lineto
0.071985 1.198903 lineto
0.068032 1.247778 lineto
0.088370 1.262800 lineto
0.076906 1.281224 lineto
0.096381 1.276129 lineto
stroke
newpath
0.039300 0.467918 moveto
0.068643 0.433234 lineto
0.025686 0.461114 lineto
0.034522 0.494013 lineto
0.042700 0.513768 lineto
0.061446 0.525454 lineto
0.068059 0.557556 lineto
0.048747 0.560697 lineto
0.059358 0.613174 lineto
0.046493 0.626409 lineto
0.047016 0.671335 lineto
0.040596 0.696788 lineto
0.042991 0.737055 lineto
0.045739 0.759191 lineto
0.033698 0.803080 lineto
0.033704 0.834434 lineto
0.024136 0.871649 lineto
0.026462 0.903118 lineto
0.018600 0.934259 lineto
0.028809 0.968432 lineto
0.026982 1.000711 lineto
0.041621 1.033015 lineto
0.042404 1.080842 lineto
0.060067 1.113446 lineto
0.065267 1.156120 lineto
0.082600 1.188147 lineto
0.087592 1.228081 lineto
0.106101 1.245088 lineto
0.106195 1.267697 lineto
0.125577 1.259730 lineto
stroke
newpath
0.018515 0.380963 moveto
0.055293 0.466208 lineto
0.077173 0.452196 lineto
0.085386 0.435105 lineto
0.069012 0.476152 lineto
0.053874 0.493122 lineto
0.065272 0.531023 lineto
0.049613 0.540197 lineto
0.051980 0.585500 lineto
0.048532 0.604219 lineto
0.037075 0.647593 lineto
0.051355 0.669105 lineto
0.045122 0.717277 lineto
0.054851 0.738511 lineto
0.042208 0.787701 lineto
0.047131 0.815988 lineto
0.034150 0.860027 lineto
0.036840 0.887380 lineto
0.032360 0.928063 lineto
0.048697 0.954192 lineto
0.039372 0.997828 lineto
0.053653 1.030061 lineto
0.058497 1.074757 lineto
0.080121 1.102759 lineto
0.075318 1.144925 lineto
0.100713 1.170717 lineto
0.105376 1.209644 lineto
0.124451 1.219913 lineto
0.126837 1.243679 lineto
0.141271 1.229943 lineto
stroke
newpath
0.021086 0.389551 moveto
0.089442 0.400635 lineto
0.073544 0.409189 lineto
0.065072 0.422092 lineto
0.059913 0.441006 lineto
0.064019 0.461296 lineto
0.064300 0.497799 lineto
0.063456 0.511915 lineto
0.062194 0.559629 lineto
0.066742 0.586640 lineto
0.049471 0.618528 lineto
0.062592 0.637816 lineto
0.062383 0.687201 lineto
0.060819 0.714987 lineto
0.059705 0.765266 lineto
0.066378 0.790725 lineto
0.051595 0.848454 lineto
0.057605 0.875940 lineto
0.053800 0.919284 lineto
0.062009 0.945296 lineto
0.058973 0.987851 lineto
0.072701 1.017313 lineto
0.075008 1.055864 lineto
0.096021 1.085527 lineto
0.097674 1.124161 lineto
0.123153 1.150863 lineto
0.122380 1.188883 lineto
0.149889 1.187865 lineto
0.148103 1.216585 lineto
0.165687 1.211678 lineto
stroke
newpath
0.033748 0.352570 moveto
0.077425 0.344157 lineto
0.063922 0.373424 lineto
0.091125 0.384245 lineto
0.055280 0.416936 lineto
0.075821 0.434463 lineto
0.063510 0.479415 lineto
0.086404 0.482456 lineto
0.075939 0.521614 lineto
0.081075 0.542170 lineto
0.069209 0.594199 lineto
0.073437 0.613441 lineto
0.064973 0.661437 lineto
0.076235 0.687572 lineto
0.071069 0.744295 lineto
0.078910 0.765578 lineto
0.065698 0.822475 lineto
0.076681 0.843955 lineto
0.067779 0.895804 lineto
0.082455 0.930647 lineto
0.080294 0.974825 lineto
0.096822 0.996836 lineto
0.090369 1.044155 lineto
0.107110 1.062164 lineto
0.115378 1.110450 lineto
0.136245 1.117700 lineto
0.143838 1.163453 lineto
0.167867 1.165080 lineto
0.176504 1.191617 lineto
0.192492 1.179267 lineto
stroke
newpath
0.104990 0.326335 moveto
0.075292 0.326219 lineto
0.076162 0.348695 lineto
0.080072 0.359150 lineto
0.080055 0.401965 lineto
0.074790 0.400143 lineto
0.078214 0.440906 lineto
0.093994 0.453440 lineto
0.082055 0.496947 lineto
0.088521 0.517534 lineto
0.086819 0.564563 lineto
0.090540 0.587472 lineto
0.085434 0.637793 lineto
0.100221 0.656216 lineto
0.089988 0.710336 lineto
0.095511 0.739766 lineto
0.091206 0.790887 lineto
0.094915 0.827392 lineto
0.091406 0.876685 lineto
0.102618 0.903855 lineto
0.098512 0.952016 lineto
0.114383 0.984122 lineto
0.107139 1.028647 lineto
0.132144 1.043027 lineto
0.136526 1.084219 lineto
0.164047 1.095712 lineto
0.163669 1.137555 lineto
0.187331 1.138006 lineto
0.187103 1.169383 lineto
0.206449 1.145913 lineto
stroke
newpath
0.078082 0.308555 moveto
0.090155 0.294219 lineto
0.099244 0.342584 lineto
0.096698 0.332501 lineto
0.097387 0.365334 lineto
0.094910 0.373204 lineto
0.099560 0.415116 lineto
0.106926 0.423239 lineto
0.106735 0.469419 lineto
0.116864 0.493330 lineto
0.107374 0.539101 lineto
0.124832 0.552152 lineto
0.102105 0.608002 lineto
0.120346 0.629015 lineto
0.110036 0.680682 lineto
0.115334 0.708993 lineto
0.099266 0.773972 lineto
0.121264 0.795237 lineto
0.106001 0.856217 lineto
0.112941 0.884360 lineto
0.113628 0.939213 lineto
0.129594 0.955036 lineto
0.122578 0.999589 lineto
0.153526 1.025444 lineto
0.154453 1.060942 lineto
0.180027 1.072758 lineto
0.185681 1.100956 lineto
0.219342 1.113506 lineto
0.209361 1.131486 lineto
0.211013 1.115048 lineto
stroke
newpath
0.100140 0.279766 moveto
0.109747 0.258149 lineto
0.118159 0.307011 lineto
0.106389 0.300622 lineto
0.111945 0.338708 lineto
0.128999 0.345807 lineto
0.111007 0.379009 lineto
0.133045 0.390149 lineto
0.120264 0.436680 lineto
0.143703 0.451432 lineto
0.130285 0.505141 lineto
0.147532 0.531705 lineto
0.130895 0.576443 lineto
0.140396 0.597372 lineto
0.129051 0.651467 lineto
0.135717 0.685653 lineto
0.122247 0.737721 lineto
0.138327 0.771485 lineto
0.125576 0.827927 lineto
0.133559 0.861938 lineto
0.131332 0.904622 lineto
0.152184 0.930445 lineto
0.146656 0.980676 lineto
0.171272 0.991519 lineto
0.176980 1.040073 lineto
0.199083 1.040671 lineto
0.205288 1.082185 lineto
0.222325 1.081362 lineto
0.241424 1.112554 lineto
0.254986 1.091358 lineto
stroke
newpath
0.120509 0.239949 moveto
0.124728 0.217335 lineto
0.134225 0.269508 lineto
0.126918 0.262296 lineto
0.126633 0.299588 lineto
0.136304 0.315865 lineto
0.138188 0.356492 lineto
0.144714 0.365857 lineto
0.146782 0.402744 lineto
0.166970 0.428500 lineto
0.153876 0.476308 lineto
0.160588 0.497685 lineto
0.148679 0.545073 lineto
0.161748 0.575800 lineto
0.154660 0.631961 lineto
0.160452 0.650457 lineto
0.151329 0.708342 lineto
0.153486 0.748745 lineto
0.148796 0.800197 lineto
0.160341 0.827003 lineto
0.159185 0.886439 lineto
0.174845 0.896521 lineto
0.173323 0.949464 lineto
0.185669 0.964296 lineto
0.185736 1.009618 lineto
0.222959 1.023621 lineto
0.215271 1.046669 lineto
0.253321 1.042672 lineto
0.236744 1.059668 lineto
0.251691 1.066658 lineto
stroke
newpath
0.144399 0.196881 moveto
0.164297 0.196666 lineto
0.141166 0.226811 lineto
0.162849 0.219629 lineto
0.152037 0.264977 lineto
0.164747 0.275144 lineto
0.160535 0.318625 lineto
0.186498 0.332261 lineto
0.172302 0.383581 lineto
0.184001 0.399261 lineto
0.182125 0.446737 lineto
0.197185 0.463591 lineto
0.179312 0.517391 lineto
0.192333 0.532878 lineto
0.177106 0.596636 lineto
0.189159 0.625941 lineto
0.167967 0.679772 lineto
0.176042 0.714283 lineto
0.171888 0.772649 lineto
0.184235 0.801891 lineto
0.180991 0.846147 lineto
0.185972 0.879321 lineto
0.182127 0.917232 lineto
0.200814 0.929298 lineto
0.212726 0.974519 lineto
0.226860 0.983759 lineto
0.230815 1.011267 lineto
0.254606 1.015566 lineto
0.273859 1.045339 lineto
0.264142 1.029770 lineto
stroke
newpath
0.173416 0.155748 moveto
0.189422 0.173065 lineto
0.172307 0.183737 lineto
0.182081 0.188782 lineto
0.174150 0.231964 lineto
0.194436 0.241317 lineto
0.190543 0.288457 lineto
0.204307 0.303816 lineto
0.190620 0.354151 lineto
0.221044 0.370780 lineto
0.197731 0.412793 lineto
0.216398 0.428277 lineto
0.201145 0.488462 lineto
0.216587 0.504002 lineto
0.209333 0.570903 lineto
0.219121 0.591031 lineto
0.200624 0.655651 lineto
0.205546 0.675763 lineto
0.191017 0.741835 lineto
0.209606 0.773726 lineto
0.190894 0.831264 lineto
0.213286 0.844266 lineto
0.206459 0.886166 lineto
0.220433 0.899901 lineto
0.214006 0.943630 lineto
0.243472 0.947834 lineto
0.260724 0.984680 lineto
0.241656 0.967291 lineto
0.228725 1.001002 lineto
0.251192 0.980259 lineto
stroke
newpath
0.199304 0.122910 moveto
0.208632 0.116867 lineto
0.203382 0.151601 lineto
0.212022 0.147229 lineto
0.201804 0.199594 lineto
0.231634 0.208879 lineto
0.208126 0.266231 lineto
0.235126 0.269037 lineto
0.223148 0.324295 lineto
0.243303 0.338374 lineto
0.230079 0.395271 lineto
0.244620 0.407995 lineto
0.233439 0.456414 lineto
0.237174 0.481998 lineto
0.223391 0.531167 lineto
0.234631 0.559022 lineto
0.213256 0.623673 lineto
0.226430 0.647882 lineto
0.210903 0.707878 lineto
0.212333 0.747100 lineto
0.221067 0.791565 lineto
0.233744 0.817298 lineto
0.242704 0.844829 lineto
0.239021 0.885706 lineto
0.237148 0.919706 lineto
0.258212 0.919064 lineto
0.246046 0.947379 lineto
0.286179 0.951729 lineto
0.260145 0.970284 lineto
0.289378 0.994732 lineto
stroke
newpath
0.221212 0.093307 moveto
0.220472 0.076952 lineto
0.220970 0.102083 lineto
0.237513 0.124994 lineto
0.226830 0.162257 lineto
0.254562 0.185148 lineto
0.243358 0.227254 lineto
0.272598 0.249884 lineto
0.258790 0.299742 lineto
0.271339 0.324071 lineto
0.262008 0.364399 lineto
0.280646 0.380686 lineto
0.262864 0.429827 lineto
0.274379 0.458510 lineto
0.256957 0.508247 lineto
0.272109 0.539228 lineto
0.244907 0.605297 lineto
0.253597 0.613151 lineto
0.250853 0.679058 lineto
0.244483 0.712114 lineto
0.234427 0.763718 lineto
0.239179 0.773506 lineto
0.250103 0.838096 lineto
0.265582 0.836594 lineto
0.268022 0.891690 lineto
0.265885 0.884405 lineto
0.279075 0.942023 lineto
0.296270 0.922509 lineto
0.248757 0.920045 lineto
0.292046 1.003985 lineto
stroke
newpath
0.244048 0.031975 moveto
0.263324 0.036424 lineto
0.245617 0.080148 lineto
0.267542 0.084650 lineto
0.269153 0.137246 lineto
0.284237 0.152844 lineto
0.282974 0.208058 lineto
0.300350 0.225692 lineto
0.282537 0.266443 lineto
0.311624 0.302666 lineto
0.287525 0.346894 lineto
0.309604 0.371693 lineto
0.284398 0.410725 lineto
0.296759 0.436881 lineto
0.281448 0.483058 lineto
0.292727 0.514173 lineto
0.267732 0.569442 lineto
0.278145 0.601891 lineto
0.260810 0.660727 lineto
0.277654 0.675349 lineto
0.255264 0.739565 lineto
0.271223 0.735304 lineto
0.267394 0.781940 lineto
0.275677 0.805113 lineto
0.265406 0.865823 lineto
0.306003 0.867862 lineto
0.291903 0.883531 lineto
0.298366 0.906615 lineto
0.314687 0.914195 lineto
0.325526 0.850935 lineto
stroke
newpath
0.258709 0.010785 moveto
0.279253 0.025324 lineto
0.290502 0.054583 lineto
0.299982 0.078066 lineto
0.292277 0.119021 lineto
0.318959 0.142038 lineto
0.307503 0.185257 lineto
0.336010 0.207994 lineto
0.323107 0.254247 lineto
0.340826 0.269248 lineto
0.327608 0.321767 lineto
0.348628 0.355986 lineto
0.309983 0.392280 lineto
0.328660 0.414708 lineto
0.325302 0.479809 lineto
0.310604 0.506067 lineto
0.296827 0.546712 lineto
0.305618 0.578470 lineto
0.275819 0.627427 lineto
0.298271 0.655906 lineto
0.292462 0.707432 lineto
0.284332 0.732917 lineto
0.288714 0.781665 lineto
0.326102 0.787097 lineto
0.312720 0.822131 lineto
0.323690 0.808863 lineto
0.286608 0.884234 lineto
0.358771 0.871595 lineto
0.357913 0.841201 lineto
0.316836 0.865214 lineto
stroke
newpath
0.310561 0.007065 moveto
0.331733 0.022956 lineto
0.318093 0.037850 lineto
0.349171 0.064864 lineto
0.328993 0.099417 lineto
0.349522 0.138859 lineto
0.345317 0.177767 lineto
0.359313 0.194453 lineto
0.351453 0.239781 lineto
0.372554 0.274287 lineto
0.361247 0.302684 lineto
0.378843 0.345324 lineto
0.345807 0.372144 lineto
0.357043 0.426597 lineto
0.340549 0.446994 lineto
0.359813 0.476172 lineto
0.331769 0.524750 lineto
0.306711 0.572877 lineto
0.305427 0.599068 lineto
0.309735 0.623333 lineto
0.307914 0.682015 lineto
0.295012 0.699438 lineto
0.295866 0.778690 lineto
0.341899 0.738729 lineto
0.320372 0.797406 lineto
0.374483 0.823034 lineto
0.336680 0.835312 lineto
0.418817 0.825183 lineto
0.374548 0.932806 lineto
0.382397 0.897369 lineto
stroke
newpath
0.349063 0.000000 moveto
0.384684 0.024842 lineto
0.356209 0.038115 lineto
0.367450 0.061450 lineto
0.368880 0.081412 lineto
0.383283 0.129239 lineto
0.374264 0.157189 lineto
0.401004 0.196357 lineto
0.391845 0.231700 lineto
0.393939 0.260131 lineto
0.410165 0.293419 lineto
0.405706 0.326270 lineto
0.376088 0.375710 lineto
0.403680 0.398782 lineto
0.348181 0.440038 lineto
0.386973 0.472494 lineto
0.356860 0.508424 lineto
0.374135 0.535295 lineto
0.333440 0.572057 lineto
0.359749 0.622039 lineto
0.333722 0.668560 lineto
0.334952 0.708822 lineto
0.322093 0.750390 lineto
0.340728 0.749147 lineto
0.367590 0.766732 lineto
0.444117 0.810086 lineto
0.373958 0.844813 lineto
0.395650 0.845480 lineto
0.405490 0.850992 lineto
0.423712 0.912700 lineto
stroke
newpath
0.375336 0.009729 moveto
0.403796 0.006575 lineto
0.384209 0.045362 lineto
0.407509 0.069361 lineto
0.401843 0.095099 lineto
0.406834 0.129845 lineto
0.412200 0.153356 lineto
0.424282 0.182887 lineto
0.415676 0.222674 lineto
0.442539 0.262796 lineto
0.417892 0.298078 lineto
0.437524 0.336897 lineto
0.413977 0.360670 lineto
0.426341 0.408976 lineto
0.397423 0.441508 lineto
0.375396 0.461251 lineto
0.374498 0.514358 lineto
0.357554 0.523146 lineto
0.354350 0.571255 lineto
0.417027 0.602473 lineto
0.375006 0.621113 lineto
0.337556 0.699266 lineto
0.352628 0.703555 lineto
0.415743 0.747613 lineto
0.375730 0.768681 lineto
0.464551 0.813124 lineto
0.468220 0.804042 lineto
0.394231 0.755821 lineto
0.494340 0.781356 lineto
0.585646 0.779526 lineto
stroke
newpath
0.428245 0.024325 moveto
0.441818 0.040112 lineto
0.423634 0.035249 lineto
0.429520 0.078928 lineto
0.387810 0.095331 lineto
0.423479 0.122893 lineto
0.417209 0.152804 lineto
0.436513 0.203070 lineto
0.441866 0.238157 lineto
0.463029 0.278381 lineto
0.443322 0.289549 lineto
0.433430 0.335011 lineto
0.416101 0.381894 lineto
0.392853 0.375129 lineto
0.438454 0.424091 lineto
0.401042 0.444168 lineto
0.398156 0.519963 lineto
0.376314 0.541002 lineto
0.410787 0.564125 lineto
0.370463 0.632228 lineto
0.355031 0.686366 lineto
0.442703 0.684303 lineto
0.397051 0.707700 lineto
0.474413 0.673995 lineto
0.404427 0.705612 lineto
0.519971 0.716163 lineto
0.350043 0.793011 lineto
0.443970 0.755959 lineto
0.381993 0.775084 lineto
0.526019 0.775792 lineto
stroke
showpage
