"1" "3"
"2" "3"
"3" "3"
"4" "2"
"5" "3"
"6" "3"
"7" "3"
"8" "3"
"9" "3"
"10" "3"
"11" "3"
"12" "3"
"13" "3"
"14" "3"
"15" "1"
"16" "3"
"17" "3"
"18" "2"
"19" "3"
"20" "3"
"21" "3"
"22" "3"
"23" "3"
"24" "1"
"25" "3"
"26" "2"
"27" "3"
"28" "3"
"29" "2"
"30" "3"
"31" "3"
"32" "3"
"33" "3"
"34" "3"
"35" "3"
"36" "3"
"37" "3"
"38" "3"
"39" "3"
"40" "3"
"41" "3"
"42" "3"
"43" "3"
"44" "3"
"45" "3"
"46" "3"
"47" "3"
"48" "1"
"49" "3"
"50" "3"
"51" "3"
"52" "3"
"53" "3"
"54" "3"
"55" "3"
"56" "2"
"57" "3"
"58" "3"
"59" "3"
"60" "2"
"61" "3"
"62" "3"
"63" "1"
"64" "1"
"65" "3"
"66" "3"
"67" "1"
"68" "3"
"69" "3"
"70" "3"
"71" "3"
"72" "3"
"73" "2"
"74" "3"
"75" "2"
"76" "3"
"77" "3"
"78" "3"
"79" "3"
"80" "3"
"81" "1"
"82" "1"
"83" "2"
"84" "3"
"85" "3"
"86" "2"
"87" "3"
"88" "3"
"89" "3"
"90" "3"
"91" "2"
"92" "3"
"93" "3"
"94" "3"
"95" "3"
"96" "3"
"97" "2"
"98" "3"
"99" "3"
"100" "3"
"101" "2"
"102" "3"
"103" "1"
"104" "3"
"105" "3"
"106" "3"
"107" "3"
"108" "3"
"109" "3"
"110" "3"
"111" "3"
"112" "3"
"113" "1"
"114" "3"
"115" "2"
"116" "3"
"117" "1"
"118" "3"
"119" "3"
"120" "3"
"121" "3"
"122" "3"
"123" "3"
"124" "3"
"125" "3"
"126" "2"
"127" "1"
"128" "3"
"129" "3"
"130" "3"
"131" "3"
"132" "3"
"133" "3"
"134" "2"
"135" "2"
"136" "3"
"137" "1"
"138" "3"
"139" "1"
"140" "1"
"141" "2"
"142" "2"
"143" "3"
"144" "2"
"145" "3"
"146" "3"
"147" "2"
"148" "3"
"149" "3"
"150" "3"
"151" "3"
"152" "3"
"153" "2"
"154" "3"
"155" "2"
"156" "3"
"157" "3"
"158" "3"
"159" "1"
"160" "2"
"161" "3"
"162" "3"
"163" "3"
"164" "3"
"165" "3"
"166" "3"
"167" "3"
"168" "3"
"169" "3"
"170" "3"
"171" "3"
"172" "3"
"173" "3"
"174" "3"
"175" "3"
"176" "1"
"177" "3"
"178" "2"
"179" "3"
"180" "2"
"181" "3"
"182" "3"
"183" "3"
"184" "3"
"185" "1"
"186" "2"
"187" "3"
"188" "3"
"189" "3"
"190" "2"
"191" "3"
"192" "3"
"193" "3"
"194" "3"
"195" "3"
"196" "3"
"197" "3"
"198" "3"
"199" "3"
"200" "3"
"201" "3"
"202" "3"
"203" "3"
"204" "3"
"205" "3"
"206" "3"
"207" "3"
"208" "3"
"209" "2"
"210" "1"
"211" "3"
"212" "2"
"213" "3"
"214" "3"
"215" "3"
"216" "3"
"217" "3"
"218" "3"
"219" "3"
"220" "3"
"221" "3"
"222" "3"
"223" "3"
"224" "2"
"225" "3"
"226" "3"
"227" "3"
"228" "3"
"229" "3"
"230" "3"
"231" "3"
"232" "3"
"233" "3"
"234" "2"
"235" "3"
"236" "2"
"237" "3"
"238" "3"
"239" "3"
"240" "3"
"241" "3"
"242" "3"
"243" "3"
"244" "2"
"245" "2"
"246" "3"
"247" "3"
"248" "3"
"249" "3"
"250" "3"
"251" "3"
"252" "3"
"253" "1"
"254" "2"
"255" "3"
"256" "3"
"257" "3"
"258" "2"
"259" "3"
"260" "3"
"261" "3"
"262" "1"
"263" "3"
"264" "3"
"265" "3"
"266" "3"
"267" "3"
"268" "3"
"269" "3"
"270" "3"
"271" "3"
"272" "3"
"273" "3"
"274" "3"
"275" "3"
"276" "3"
"277" "3"
"278" "3"
"279" "3"
"280" "3"
"281" "3"
"282" "2"
"283" "2"
"284" "1"
"285" "3"
"286" "3"
"287" "3"
"288" "3"
"289" "3"
"290" "3"
"291" "3"
"292" "1"
"293" "3"
"294" "2"
"295" "3"
"296" "3"
"297" "2"
"298" "3"
"299" "3"
"300" "1"
"301" "3"
"302" "3"
"303" "3"
"304" "1"
"305" "2"
"306" "3"
"307" "3"
"308" "3"
"309" "3"
"310" "2"
"311" "3"
"312" "2"
"313" "1"
"314" "3"
"315" "3"
"316" "2"
"317" "3"
"318" "1"
"319" "3"
"320" "3"
"321" "3"
"322" "3"
"323" "3"
"324" "3"
"325" "3"
"326" "3"
"327" "3"
"328" "2"
"329" "2"
"330" "3"
"331" "3"
"332" "3"
"333" "3"
"334" "3"
"335" "3"
"336" "3"
"337" "2"
"338" "3"
"339" "3"
"340" "2"
"341" "2"
"342" "3"
"343" "3"
"344" "2"
"345" "3"
"346" "3"
"347" "3"
"348" "3"
"349" "3"
"350" "2"
"351" "3"
"352" "3"
"353" "1"
"354" "2"
"355" "3"
"356" "3"
"357" "2"
"358" "3"
"359" "3"
"360" "3"
"361" "3"
"362" "3"
"363" "2"
"364" "3"
"365" "3"
"366" "1"
"367" "1"
"368" "1"
"369" "3"
"370" "3"
"371" "2"
"372" "3"
"373" "3"
"374" "2"
"375" "2"
"376" "3"
"377" "3"
"378" "3"
"379" "3"
"380" "3"
"381" "2"
"382" "2"
"383" "3"
"384" "1"
"385" "3"
"386" "3"
"387" "2"
"388" "3"
"389" "3"
"390" "2"
"391" "3"
"392" "3"
"393" "3"
"394" "3"
"395" "3"
"396" "3"
"397" "3"
"398" "3"
"399" "3"
"400" "3"
"401" "3"
"402" "3"
"403" "3"
"404" "3"
"405" "1"
"406" "3"
"407" "3"
"408" "3"
"409" "2"
"410" "3"
"411" "3"
"412" "3"
"413" "2"
"414" "3"
"415" "3"
"416" "3"
"417" "3"
"418" "3"
"419" "3"
"420" "2"
"421" "3"
"422" "3"
"423" "2"
"424" "3"
"425" "3"
"426" "3"
"427" "3"
"428" "3"
"429" "3"
"430" "3"
"431" "1"
"432" "1"
"433" "3"
"434" "3"
"435" "2"
"436" "2"
"437" "3"
"438" "3"
"439" "3"
"440" "3"
"441" "2"
"442" "3"
"443" "3"
"444" "3"
"445" "3"
"446" "3"
"447" "2"
"448" "1"
"449" "3"
"450" "3"
"451" "3"
"452" "3"
"453" "3"
"454" "3"
"455" "3"
"456" "3"
"457" "3"
"458" "1"
"459" "3"
"460" "2"
"461" "2"
"462" "3"
"463" "3"
"464" "3"
"465" "1"
"466" "2"
"467" "2"
"468" "2"
"469" "3"
"470" "3"
"471" "3"
"472" "3"
"473" "3"
"474" "3"
"475" "3"
"476" "2"
"477" "3"
"478" "3"
"479" "3"
"480" "2"
"481" "3"
"482" "3"
"483" "2"
"484" "3"
"485" "3"
"486" "3"
"487" "3"
"488" "3"
"489" "3"
"490" "3"
"491" "3"
"492" "3"
"493" "3"
"494" "3"
"495" "3"
"496" "3"
"497" "2"
"498" "3"
"499" "3"
"500" "2"
