"1" "3"
"2" "3"
"3" "3"
"4" "2"
"5" "3"
"6" "3"
"7" "3"
"8" "3"
"9" "3"
"10" "2"
"11" "3"
"12" "3"
"13" "3"
"14" "1"
"15" "3"
"16" "3"
"17" "2"
"18" "3"
"19" "3"
"20" "3"
"21" "3"
"22" "2"
"23" "3"
"24" "3"
"25" "3"
"26" "2"
"27" "3"
"28" "3"
"29" "1"
"30" "3"
"31" "3"
"32" "3"
"33" "3"
"34" "3"
"35" "3"
"36" "3"
"37" "3"
"38" "3"
"39" "1"
"40" "3"
"41" "3"
"42" "3"
"43" "3"
"44" "3"
"45" "1"
"46" "2"
"47" "3"
"48" "3"
"49" "3"
"50" "3"
"51" "3"
"52" "3"
"53" "3"
"54" "3"
"55" "3"
"56" "2"
"57" "3"
"58" "2"
"59" "3"
"60" "3"
"61" "3"
"62" "3"
"63" "1"
"64" "3"
"65" "3"
"66" "2"
"67" "3"
"68" "2"
"69" "3"
"70" "3"
"71" "3"
"72" "3"
"73" "2"
"74" "2"
"75" "3"
"76" "3"
"77" "3"
"78" "3"
"79" "3"
"80" "3"
"81" "2"
"82" "1"
"83" "3"
"84" "3"
"85" "3"
"86" "3"
"87" "2"
"88" "3"
"89" "3"
"90" "2"
"91" "3"
"92" "3"
"93" "3"
"94" "3"
"95" "3"
"96" "3"
"97" "3"
"98" "2"
"99" "2"
"100" "3"
"101" "1"
"102" "3"
"103" "3"
"104" "3"
"105" "3"
"106" "3"
"107" "3"
"108" "2"
"109" "3"
"110" "3"
"111" "3"
"112" "3"
"113" "2"
"114" "1"
"115" "3"
"116" "3"
"117" "3"
"118" "3"
"119" "3"
"120" "3"
"121" "3"
"122" "3"
"123" "2"
"124" "3"
"125" "3"
"126" "3"
"127" "3"
"128" "3"
"129" "3"
"130" "3"
"131" "3"
"132" "3"
"133" "3"
"134" "3"
"135" "3"
"136" "3"
"137" "3"
"138" "3"
"139" "3"
"140" "3"
"141" "3"
"142" "3"
"143" "3"
"144" "3"
"145" "3"
"146" "3"
"147" "2"
"148" "3"
"149" "3"
"150" "3"
"151" "3"
"152" "3"
"153" "3"
"154" "3"
"155" "3"
"156" "3"
"157" "3"
"158" "3"
"159" "1"
"160" "3"
"161" "3"
"162" "2"
"163" "3"
"164" "2"
"165" "1"
"166" "3"
"167" "3"
"168" "1"
"169" "3"
"170" "3"
"171" "3"
"172" "2"
"173" "3"
"174" "3"
"175" "2"
"176" "3"
"177" "3"
"178" "3"
"179" "3"
"180" "3"
"181" "3"
"182" "3"
"183" "3"
"184" "3"
"185" "2"
"186" "3"
"187" "3"
"188" "3"
"189" "3"
"190" "3"
"191" "3"
"192" "3"
"193" "2"
"194" "3"
"195" "3"
"196" "3"
"197" "3"
"198" "3"
"199" "3"
"200" "2"
"201" "3"
"202" "3"
"203" "2"
"204" "2"
"205" "3"
"206" "2"
"207" "2"
"208" "3"
"209" "3"
"210" "3"
"211" "3"
"212" "3"
"213" "3"
"214" "3"
"215" "3"
