"1" 2.00019357521342e-07 0.0067244409583509 0.996424198150635
"2" 9.87601310953323e-07 0.0867950543761253 0.91637134552002
"3" 2.90466262153899e-10 0.200887277722359 0.803357899188995
"4" 9.09649924829559e-11 0.566458284854889 0.444260537624359
"5" 2.71289553321896e-11 0.483906477689743 0.518042325973511
"6" 3.51505420326248e-08 0.171268299221992 0.817852139472961
"7" 3.05888754326133e-08 0.178920090198517 0.808028399944305
"8" 6.16207398707047e-05 0.014784200116992 0.986717343330383
"9" 1.73324699037636e-09 0.461170971393585 0.539495587348938
"10" 1.28280090543054e-12 0.533718168735504 0.472216963768005
"11" 0.000809747842140496 0.00589440064504743 0.967349767684937
"12" 8.55432517710142e-07 0.0795860514044762 0.949078857898712
"13" 5.23467278981116e-05 0.0245093461126089 0.97702032327652
"14" 0.826365530490875 0.00329457758925855 0.26826274394989
"15" 0.0395526438951492 0.0052031371742487 0.911548912525177
"16" 5.48550133316894e-06 0.0312762707471848 0.966424763202667
"17" 9.95045712492981e-12 0.638552188873291 0.355570316314697
"18" 4.69770229660771e-11 0.261933177709579 0.763049006462097
"19" 2.9357489772508e-09 0.345413118600845 0.655612945556641
"20" 2.42635911362754e-09 0.488402426242828 0.502752304077148
"21" 1.40618628903294e-15 0.148382514715195 0.833714306354523
"22" 1.39706224019931e-11 0.779928803443909 0.220082432031631
"23" 9.91609364064949e-11 0.387824594974518 0.606222212314606
"24" 5.33051158768671e-10 0.444528877735138 0.583186447620392
"25" 3.03600061757336e-10 0.48457145690918 0.492028623819351
"26" 4.66709837443346e-10 0.54835456609726 0.451483577489853
"27" 1.74743576053515e-07 0.0601777359843254 0.944136261940002
"28" 3.66259860129503e-06 0.0401469506323338 0.966333568096161
"29" 0.556260108947754 0.0167806427925825 0.440757870674133
"30" 5.87276592373814e-13 0.288746207952499 0.723239004611969
"31" 0.0120744947344065 0.00558711076155305 0.972821295261383
"32" 1.73768910372019e-07 0.159982174634933 0.878677189350128
"33" 1.6369475490819e-13 0.168937370181084 0.848737478256226
"34" 2.13691911388203e-11 0.222672745585442 0.785348117351532
"35" 2.07431827270455e-09 0.373917639255524 0.613867580890656
"36" 3.87244938337972e-08 0.290722459554672 0.698368430137634
"37" 3.63965991677026e-13 0.347234725952148 0.648673474788666
"38" 8.03871780339499e-13 0.223753422498703 0.786089360713959
"39" 0.73109632730484 0.00258118659257889 0.244923651218414
"40" 1.09365390821205e-13 0.116179868578911 0.880341231822968
"41" 1.67268729113967e-14 0.291291892528534 0.669222295284271
"42" 7.28434396135569e-11 0.436874687671661 0.577108561992645
"43" 1.19358870009911e-10 0.479000777006149 0.521709322929382
"44" 7.87199466302543e-17 0.0355783216655254 0.959818601608276
"45" 0.960850417613983 0.00122796115465462 0.0432560928165913
"46" 3.14053600833364e-12 0.779340207576752 0.204116538167
"47" 5.42242606371701e-09 0.26254677772522 0.733502745628357
"48" 1.67103862621113e-14 0.245095461606979 0.742638111114502
"49" 7.24087595438405e-11 0.307007402181625 0.702543258666992
"50" 1.07041080354975e-06 0.0889529585838318 0.925634801387787
"51" 3.88683985171057e-13 0.200283601880074 0.82079017162323
"52" 1.96921576267606e-11 0.494637012481689 0.496124029159546
"53" 5.17530354508799e-15 0.169290542602539 0.819589614868164
"54" 0.00026079939561896 0.0124446246773005 0.983436405658722
"55" 0.0921118259429932 0.00283738225698471 0.743403136730194
"56" 8.21505190262695e-12 0.568492889404297 0.430144190788269
"57" 4.15880521131839e-08 0.00421759812161326 0.998874485492706
"58" 3.73151216957052e-13 0.654418587684631 0.33318880200386
"59" 2.84011321127764e-08 0.0863658711314201 0.940425336360931
"60" 2.426354740237e-06 0.0310180801898241 0.981813549995422
"61" 1.79989045889783e-09 0.0490357466042042 0.961998105049133
"62" 0.0137631790712476 0.00221277680248022 0.966709315776825
"63" 0.976441383361816 0.00775103969499469 0.0381817668676376
"64" 9.34455329115735e-06 0.0219020545482635 0.96849799156189
"65" 2.19332507711556e-09 0.11575485765934 0.88697624206543
"66" 3.60094121187871e-10 0.559365570545197 0.429605841636658
"67" 5.6292938924651e-14 0.199851304292679 0.812050402164459
"68" 6.03218430067498e-12 0.627653837203979 0.345723688602448
"69" 0.000196493419934995 0.0113786738365889 0.987381756305695
"70" 0.000793447776231915 0.0140594821423292 0.978423953056335
"71" 6.24463859528329e-13 0.406329184770584 0.586301147937775
"72" 2.26828409841898e-14 0.363044291734695 0.630538880825043
"73" 9.09118787195684e-12 0.715127646923065 0.268869876861572
"74" 7.93700608708869e-13 0.52144730091095 0.46174418926239
"75" 8.2828307768068e-07 0.0373247861862183 0.982773244380951
"76" 0.000535115774255246 0.00251719309017062 0.990646541118622
"77" 0.0118658384308219 0.00574507983401418 0.961991548538208
"78" 8.65917445169381e-14 0.147427380084991 0.860760986804962
"79" 7.68315099042294e-12 0.399199217557907 0.607559859752655
"80" 9.51571318384703e-16 0.106967657804489 0.878363490104675
"81" 4.84128416609192e-13 0.729754090309143 0.270149707794189
"82" 0.997520446777344 0.00162621377967298 0.00403239345178008
"83" 3.46658673988642e-10 0.178895458579063 0.864479839801788
"84" 8.92852389244858e-11 0.272220849990845 0.731768131256104
"85" 2.64180872733277e-08 0.419909209012985 0.570092916488647
"86" 1.01057573420604e-09 0.257412672042847 0.783175706863403
"87" 1.60851949706879e-13 0.542035162448883 0.428279787302017
"88" 0.000651992042548954 0.0179299097508192 0.985397756099701
"89" 1.35164407444321e-10 0.0630692541599274 0.958196938037872
"90" 5.22807630520816e-11 0.536456942558289 0.459717184305191
"91" 0.000288941489998251 0.0134764136746526 0.980858445167542
"92" 1.12829290355165e-09 0.464202046394348 0.533437192440033
"93" 4.11787050325074e-06 0.0258026383817196 0.986892998218536
"94" 1.02008823610333e-09 0.192585036158562 0.822807490825653
"95" 2.13349628762349e-13 0.375741422176361 0.642427802085876
"96" 1.69465991461948e-07 0.166931211948395 0.839599549770355
"97" 6.34377383956775e-10 0.00386253069154918 0.996909976005554
"98" 1.1402478353878e-13 0.502499520778656 0.494424641132355
"99" 8.16001563194724e-13 0.581644415855408 0.414585798978806
"100" 1.02291558470163e-12 0.288555592298508 0.72952789068222
"101" 0.74760514497757 0.00199294579215348 0.176018446683884
"102" 0.00370803475379944 0.00541705591604114 0.975620090961456
"103" 0.00461164023727179 0.00134387635625899 0.967790424823761
"104" 0.0193687248975039 0.0029662805609405 0.943672180175781
"105" 6.88319560140371e-05 0.0030813361518085 0.99582052230835
"106" 8.18736484858862e-12 0.363899171352386 0.635815620422363
"107" 9.34791046652839e-12 0.145698502659798 0.857671141624451
"108" 1.35560715430749e-10 0.596137166023254 0.418993353843689
"109" 3.98838073678576e-10 0.273216336965561 0.721047818660736
"110" 3.85673226688255e-09 0.0850922837853432 0.936171412467957
"111" 4.80993994633749e-11 0.323910713195801 0.717695593833923
"112" 3.05525868276799e-13 0.403367698192596 0.581547856330872
"113" 1.61407449905671e-11 0.683534145355225 0.295254290103912
"114" 0.991437315940857 0.00174123561009765 0.00861817132681608
"115" 1.65788362855787e-13 0.291085749864578 0.701619446277618
"116" 1.50184185088165e-08 0.0934120342135429 0.943076252937317
"117" 2.48453303286836e-13 0.254951119422913 0.754748582839966
"118" 4.88892170562132e-14 0.365583896636963 0.639349520206451
"119" 3.13987165156959e-08 0.00480027869343758 0.998218715190887
"120" 2.27349303827395e-08 0.10416454821825 0.94437175989151
"121" 0.0038317465223372 0.00569839170202613 0.967354238033295
"122" 8.38977068355871e-17 0.0131767364218831 0.983933329582214
"123" 2.76298012247267e-11 0.658623516559601 0.350944250822067
"124" 7.02714525024212e-13 0.178466796875 0.833873093128204
"125" 0.000249706325121224 0.0310205593705177 0.970124840736389
"126" 0.00595669075846672 0.0188916809856892 0.972280442714691
"127" 7.70752958487719e-05 0.0555236265063286 0.948357403278351
"128" 2.46184367824753e-06 0.00200291466899216 0.998993217945099
"129" 9.37519040178358e-09 0.13693018257618 0.864762365818024
"130" 0.000136934599140659 0.0111967353150249 0.978472292423248
"131" 1.49133649873789e-09 0.437455415725708 0.589294195175171
"132" 1.7506943160786e-12 0.197383046150208 0.82000321149826
"133" 3.19094793990726e-12 0.404106467962265 0.614944994449615
"134" 3.73462891200323e-14 0.0624097026884556 0.939700841903687
"135" 1.12064730325295e-12 0.471706718206406 0.528956234455109
"136" 2.5279443469084e-11 0.454452633857727 0.55454808473587
"137" 0.000127145074657165 0.0348065681755543 0.980256378650665
"138" 1.61108175689151e-07 0.10876651853323 0.939748764038086
"139" 7.57361476644292e-06 0.075730212032795 0.900280773639679
"140" 6.35367591872438e-11 0.147451683878899 0.859687685966492
"141" 4.30883546074026e-13 0.330552875995636 0.666809499263763
"142" 3.37969513486414e-10 0.251967966556549 0.77654242515564
"143" 1.83330753356081e-10 0.214309200644493 0.815113186836243
"144" 3.66000185714199e-09 0.0176032520830631 0.983858466148376
"145" 2.02804014358925e-14 0.270086497068405 0.720450937747955
"146" 3.35623993874545e-11 0.517254054546356 0.542734920978546
"147" 4.88061631040426e-12 0.512352347373962 0.486118912696838
"148" 1.63142260589666e-07 0.0219704918563366 0.98808878660202
"149" 9.37385793986500e-11 0.199235469102859 0.817855536937714
"150" 1.1312082997747e-13 0.406509608030319 0.607662856578827
"151" 7.19517338438891e-05 0.0154028572142124 0.989130914211273
"152" 3.11615425303835e-13 0.16308006644249 0.850043058395386
"153" 0.102840252220631 0.00141027860809118 0.747998476028442
"154" 2.46512567303458e-11 0.1429503262043 0.866787195205688
"155" 1.40061649744894e-06 0.0405973121523857 0.968603014945984
"156" 4.18195531892707e-06 0.00408824859187007 0.998338878154755
"157" 2.91358056387844e-13 0.298639833927155 0.721021056175232
"158" 0.00488060945644975 0.00315265450626612 0.98115062713623
"159" 0.788673520088196 0.00395154487341642 0.0537110045552254
"160" 7.7050343576658e-15 0.0765002071857452 0.922360002994537
"161" 0.0733616128563881 0.000745223602280021 0.773145735263824
"162" 3.30763476504015e-12 0.609598457813263 0.389458805322647
"163" 4.04302369361176e-09 0.170862480998039 0.828632235527039
"164" 1.16950504835955e-10 0.611215949058533 0.386329174041748
"165" 0.972896099090576 0.00100894563365728 0.0327652879059315
"166" 2.02140199689893e-06 0.0994427725672722 0.89828085899353
"167" 0.000382248370442539 0.00317841861397028 0.993610918521881
"168" 0.809439659118652 0.000794664898421615 0.114697702229023
"169" 4.92369736093679e-07 0.0178796090185642 0.987113535404205
"170" 1.45673119292082e-13 0.361866444349289 0.651253521442413
"171" 5.18203613353307e-09 0.329216122627258 0.660862267017365
"172" 5.65768135465938e-13 0.574078679084778 0.412226617336273
"173" 1.96365583519156e-16 0.0403421632945538 0.953218638896942
"174" 7.49114747122803e-07 0.199917167425156 0.783091723918915
"175" 2.01728356241659e-11 0.706305146217346 0.276994913816452
"176" 9.75811872194754e-06 0.0524256899952888 0.939726769924164
"177" 1.00916941903756e-13 0.165108606219292 0.833784818649292
"178" 0.00074492854764685 0.0250327419489622 0.968662261962891
"179" 1.68237982139247e-13 0.153058171272278 0.86483246088028
"180" 2.75894199386296e-14 0.181561782956123 0.81746107339859
"181" 0.000992193818092346 0.0126411989331245 0.973810136318207
"182" 7.32739200261581e-14 0.489202171564102 0.513660907745361
"183" 7.20787511454546e-06 0.0128606362268329 0.992664515972137
"184" 0.000134153044200502 0.0149729577824473 0.986145734786987
"185" 9.06745815584808e-13 0.523701131343842 0.472632020711899
"186" 2.27273169901843e-14 0.198598936200142 0.765077412128448
"187" 0.00292851915583014 0.0285922959446907 0.950618624687195
"188" 1.65893459993377e-12 0.432943344116211 0.595805108547211
"189" 1.20396214242646e-06 0.0717066153883934 0.934454083442688
"190" 0.00152987008914351 0.00807786639779806 0.979302525520325
"191" 1.61531872322485e-07 0.031330369412899 0.97296154499054
"192" 9.43548711385134e-12 0.29333683848381 0.703210949897766
"193" 3.74154673172741e-13 0.652764618396759 0.339761644601822
"194" 1.13137021973131e-09 0.28979679942131 0.728030204772949
"195" 4.10719003411941e-05 0.0154194263741374 0.992323935031891
"196" 4.40318690380082e-05 0.0191463176161051 0.9744633436203
"197" 0.00750561011955142 0.00472210813313723 0.97168242931366
"198" 2.90051701190217e-13 0.27507746219635 0.746954679489136
"199" 4.69437782157911e-06 0.0929223895072937 0.900570929050446
"200" 9.22402432212976e-11 0.564876437187195 0.436874955892563
"201" 1.12633902205062e-08 0.195178896188736 0.832245945930481
"202" 1.62210425213444e-12 0.292039543390274 0.708674728870392
"203" 1.08393295153355e-13 0.505154132843018 0.494468659162521
"204" 2.47096770128463e-11 0.508987009525299 0.48706778883934
"205" 1.33999701695212e-15 0.137888431549072 0.846189558506012
"206" 7.08866559201438e-13 0.532242834568024 0.484525233507156
"207" 3.94290955441079e-09 0.549274682998657 0.434175103902817
"208" 4.86356293549761e-05 0.00282695121131837 0.997701942920685
"209" 2.4187242649281e-14 0.238895311951637 0.768858671188354
"210" 1.52485441162753e-07 0.239778429269791 0.74662846326828
"211" 4.02068184301996e-10 0.361465096473694 0.697495400905609
"212" 1.04241514975456e-07 0.0257525481283665 0.985228657722473
"213" 1.14116047950715e-15 0.119743101298809 0.86370837688446
"214" 6.1751954461356e-13 0.173776283860207 0.827055037021637
"215" 4.88061095715604e-14 0.330462455749512 0.645849287509918
