%!PS-Adobe-2.0 EPSF-2.0
%%Title: undefined
%%Creator: sammon
%%Pages: 1
%%EndComments
40 40 translate
/gscale 142.818100 def
gscale dup scale
/Helvetica findfont 12 gscale div scalefont setfont
/radius 0.014004 def
/LN
{newpath
radius 0 360 arc fill
} def
/LP
{dup stringwidth pop
-2 div 0 rmoveto show} def
0.001400 setlinewidth
0 setgray
0.000000 0.690670 LN
0.000000 0.690670 moveto
(multinube) LP
2.453894 0.838614 LN
2.453894 0.838614 moveto
(nube) LP
3.570976 2.578220 LN
3.570976 2.578220 moveto
(cieloDespejado) LP
0.684573 0.000000 LN
0.684573 0.000000 moveto
(multinube) LP
3.305493 2.865825 LN
3.305493 2.865825 moveto
(cieloDespejado) LP
showpage
