%!PS-Adobe-3.0 EPSF-3.0
%%BoundingBox: 0 0 1000 1285
%%Title: MapaEntrenado.cod
%%Creator: umat V1.0
%%CreationDate: Thu Dec 15 16:30:06 2016
%%Pages: 0
%%DocumentFonts: Helvetica
%%DocumentNeededFonts: Helvetica
%%EndComments
%
% PS header for umat - SOM to PS converter
% Version 1.0 Tue Feb 28 1995
% Author: Jussi Hynninen <hynde@nucleus.hut.fi>
100 dict begin

% predefine variables
/yoff 0 def /xoff 0 def /xstep 0 def /ystep 0 def /y 0 def /radius 0 def
/doborder false def
% default font
/fontname /Helvetica def
% font size relative to radius
/fontsize 1.0 def

% default black and white tresholds
/bt 0.0 def /wt 1.0 def

% labelpallon sade suhteessa hexan sateeseen
/ballrad 0.2 def

% newline function. Moves the y coordinate to the next line
/NL 
{ /yoff yoff ystep sub def % next row
  /y y 1 add def % add y by one
  } bind def

% start of line (for hexagonal lattice) - moves the current position in 
% x direction to the correct place of the line
/XSH
{ xoff 
  y 4 mod
  dup 3 eq {pop 1} if
  xstep 2 div mul
  add
  yoff moveto % move to start of line
} bind def

% start of line (for rectangular lattice) - moves the current position in 
% x direction to the correct place of the line
/XSR { xoff yoff moveto } bind def

% set label color. If block is light -> label is black and same for dark block
/sbc { .5 gt {0} {1} ifelse setgray } bind def

% set gray level
/G { 
  100 div dup bt le {pop 0}
  { dup wt ge {pop 1} {bt sub wt bt sub div} ifelse
  } ifelse
} bind def

% unlabelled node
/LN { 
  gsave
  G sbc
  currentpoint radius ballrad mul 0 360 arc fill 
  grestore
  xstep 2 mul 0 rmoveto
} bind def

%select font
/selfont {
  fontname findfont radius fontsize mul scalefont setfont
} bind def

% print single label

/LAB { 
  gsave
  G sbc
  dup %duplicate string  
  stringwidth
  pop fontsize radius mul -0.25 mul exch
  -2 div exch
  rmoveto
  show
  grestore
  xstep 2 mul 0 rmoveto
} bind def

% print multiple labels on one unit
/ML {
  gsave
  G sbc
  /numlabs exch def %number of labels
  numlabs
  2 div 
  0.25 sub
  radius fontsize mul mul neg
  0 exch rmoveto
  1 1 numlabs {
    pop
    gsave
    dup %duplicate string  
    stringwidth
    pop 
    -2 div 0
    rmoveto
    show
    grestore
    0 fontsize radius mul rmoveto
  } for 
  grestore
  xstep 2 mul 0 rmoveto
} bind def

% print hexagon
/H { 
  gsave
  G dup setgray %duplicate gray level
  currentpoint translate
  newpath 0 radius moveto
  5 {60 rotate 0 radius lineto} repeat
  closepath
  doborder { gsave fill grestore sbc stroke}
           { fill pop } ifelse
  grestore  
  xstep 0 rmoveto
} bind def

% print rectangle
/R {
  gsave
  G dup setgray %duplicate gray level
  currentpoint translate
  newpath
  xstep 0.5 mul dup moveto
  xstep neg 0 rlineto
  0 xstep neg rlineto
  xstep 0 rlineto
  closepath
  doborder { gsave fill grestore sbc stroke}
           { fill pop } ifelse
  grestore  
  xstep 0 rmoveto
} bind def

1 setlinewidth

% End of umat PS header
% Start image


/radius 14.433757 def
/xstep 25.000000 def
/ystep 21.650635 def
%%IncludeFont: Helvetica
/fontname /Helvetica def
selfont
/doborder false def
/wt 1.000000 def /bt 0.000000 def
/y 0 def
/xoff 12.500000 def
/yoff 1270.170613 def
XSH 92 H 92 H 87 H 84 H 80 H 76 H 82 H 80 H 85 H 86 H 84 H 77 H 86 H 85 H 90 H 89 H 88 H 84 H 88 H 88 H 84 H 75 H 83 H 75 H 82 H 81 H 89 H 85 H 89 H 86 H 89 H 88 H 89 H 85 H 95 H 96 H 95 H 95 H 95 H NL
XSH 92 H 91 H 83 H 86 H 76 H 87 H 84 H 92 H 85 H 90 H 83 H 90 H 88 H 92 H 90 H 94 H 86 H 94 H 88 H 94 H 81 H 94 H 91 H 83 H 89 H 93 H 93 H 92 H 96 H 90 H 95 H 90 H 90 H 96 H 94 H 99 H 90 H 98 H 87 H NL
XSH 85 H 85 H 84 H 78 H 79 H 74 H 82 H 84 H 85 H 78 H 84 H 84 H 87 H 87 H 87 H 83 H 88 H 90 H 89 H 78 H 83 H 85 H 84 H 69 H 87 H 86 H 90 H 88 H 89 H 89 H 89 H 82 H 89 H 91 H 93 H 91 H 92 H 93 H 93 H NL
XSH 84 H 83 H 86 H 81 H 87 H 79 H 80 H 78 H 87 H 78 H 85 H 80 H 86 H 81 H 88 H 83 H 91 H 83 H 92 H 77 H 91 H 80 H 86 H 83 H 74 H 92 H 87 H 92 H 83 H 91 H 87 H 88 H 85 H 88 H 94 H 89 H 99 H 87 H 96 H NL
XSH 84 H 87 H 82 H 79 H 80 H 73 H 78 H 77 H 78 H 78 H 78 H 82 H 81 H 82 H 82 H 87 H 85 H 87 H 86 H 84 H 84 H 84 H 84 H 81 H 80 H 72 H 88 H 89 H 86 H 85 H 85 H 84 H 84 H 84 H 86 H 91 H 90 H 90 H 89 H NL
XSH 77 H 81 H 72 H 80 H 75 H 84 H 71 H 82 H 71 H 78 H 73 H 81 H 78 H 82 H 81 H 83 H 79 H 88 H 70 H 83 H 74 H 85 H 84 H 79 H 88 H 74 H 89 H 84 H 87 H 81 H 82 H 78 H 78 H 76 H 75 H 78 H 76 H 89 H 80 H NL
XSH 81 H 81 H 78 H 75 H 75 H 67 H 79 H 81 H 79 H 77 H 83 H 85 H 83 H 85 H 86 H 88 H 84 H 80 H 86 H 89 H 89 H 91 H 86 H 75 H 81 H 79 H 85 H 86 H 85 H 84 H 83 H 85 H 85 H 87 H 82 H 88 H 86 H 93 H 88 H NL
XSH 92 H 85 H 90 H 76 H 87 H 67 H 89 H 76 H 92 H 79 H 87 H 86 H 88 H 82 H 88 H 87 H 88 H 75 H 93 H 88 H 95 H 89 H 96 H 88 H 84 H 89 H 80 H 86 H 81 H 85 H 91 H 82 H 86 H 86 H 86 H 79 H 84 H 80 H 88 H NL
XSH 88 H 88 H 84 H 74 H 75 H 64 H 79 H 78 H 82 H 84 H 85 H 85 H 86 H 81 H 85 H 89 H 87 H 76 H 89 H 93 H 91 H 90 H 91 H 87 H 87 H 78 H 86 H 83 H 84 H 76 H 83 H 84 H 85 H 90 H 85 H 80 H 85 H 89 H 89 H NL
XSH 80 H 83 H 71 H 86 H 68 H 82 H 79 H 87 H 81 H 89 H 77 H 86 H 77 H 88 H 83 H 88 H 77 H 90 H 89 H 91 H 91 H 95 H 92 H 94 H 87 H 88 H 93 H 84 H 88 H 77 H 82 H 86 H 80 H 85 H 80 H 90 H 87 H 91 H 89 H NL
XSH 81 H 81 H 76 H 72 H 75 H 78 H 78 H 81 H 80 H 80 H 82 H 88 H 87 H 87 H 85 H 82 H 90 H 91 H 92 H 94 H 92 H 89 H 90 H 82 H 88 H 86 H 85 H 80 H 81 H 78 H 82 H 81 H 83 H 87 H 86 H 85 H 87 H 94 H 89 H NL
XSH 84 H 77 H 81 H 66 H 78 H 68 H 75 H 69 H 80 H 76 H 84 H 79 H 86 H 87 H 90 H 84 H 91 H 90 H 94 H 92 H 93 H 88 H 96 H 84 H 94 H 90 H 90 H 85 H 91 H 82 H 86 H 82 H 90 H 82 H 88 H 79 H 88 H 82 H 87 H NL
XSH 84 H 88 H 79 H 73 H 75 H 74 H 77 H 79 H 82 H 88 H 83 H 82 H 86 H 92 H 86 H 83 H 85 H 88 H 89 H 95 H 92 H 88 H 88 H 85 H 87 H 87 H 89 H 80 H 82 H 80 H 84 H 81 H 82 H 81 H 84 H 86 H 87 H 91 H 91 H NL
XSH 81 H 87 H 74 H 85 H 77 H 84 H 85 H 85 H 83 H 85 H 79 H 87 H 87 H 85 H 80 H 86 H 83 H 87 H 89 H 91 H 82 H 89 H 83 H 93 H 87 H 92 H 80 H 83 H 81 H 87 H 86 H 88 H 79 H 90 H 80 H 89 H 84 H 91 H 91 H NL
XSH 81 H 83 H 77 H 76 H 79 H 80 H 81 H 82 H 83 H 82 H 84 H 91 H 86 H 87 H 84 H 84 H 85 H 94 H 87 H 86 H 87 H 89 H 88 H 88 H 86 H 82 H 83 H 82 H 84 H 82 H 84 H 75 H 83 H 83 H 89 H 92 H 92 H 100 H 94 H NL
XSH 77 H 70 H 79 H 72 H 85 H 76 H 79 H 74 H 85 H 79 H 85 H 83 H 84 H 80 H 83 H 82 H 84 H 86 H 84 H 77 H 87 H 83 H 88 H 79 H 86 H 82 H 93 H 87 H 89 H 86 H 85 H 81 H 88 H 83 H 92 H 89 H 97 H 93 H 94 H NL
XSH 85 H 89 H 80 H 76 H 79 H 81 H 79 H 79 H 83 H 86 H 86 H 90 H 86 H 90 H 86 H 87 H 86 H 91 H 86 H 87 H 87 H 92 H 86 H 85 H 85 H 90 H 86 H 85 H 86 H 84 H 85 H 76 H 80 H 80 H 85 H 87 H 90 H 97 H 93 H NL
XSH 85 H 88 H 81 H 81 H 75 H 86 H 78 H 83 H 83 H 87 H 83 H 89 H 84 H 90 H 86 H 86 H 86 H 86 H 82 H 89 H 86 H 91 H 82 H 92 H 83 H 87 H 81 H 86 H 86 H 90 H 76 H 85 H 79 H 86 H 83 H 90 H 87 H 91 H 88 H NL
XSH 84 H 84 H 80 H 73 H 83 H 84 H 84 H 86 H 86 H 86 H 87 H 92 H 90 H 92 H 87 H 88 H 87 H 87 H 85 H 90 H 87 H 88 H 87 H 87 H 87 H 92 H 87 H 87 H 86 H 74 H 83 H 82 H 82 H 81 H 88 H 95 H 92 H 97 H 97 H NL
XSH 76 H 70 H 79 H 75 H 83 H 85 H 87 H 85 H 87 H 85 H 87 H 87 H 90 H 86 H 92 H 86 H 88 H 77 H 82 H 81 H 86 H 80 H 88 H 80 H 89 H 84 H 89 H 81 H 85 H 75 H 87 H 84 H 87 H 82 H 89 H 88 H 90 H 92 H 97 H NL
XSH 76 H 82 H 81 H 85 H 78 H 80 H 81 H 82 H 83 H 89 H 87 H 89 H 88 H 89 H 89 H 92 H 86 H 82 H 82 H 89 H 85 H 91 H 88 H 88 H 88 H 91 H 87 H 88 H 84 H 83 H 84 H 83 H 84 H 78 H 86 H 93 H 93 H 94 H 94 H NL
XSH 74 H 83 H 69 H 75 H 71 H 78 H 74 H 77 H 80 H 81 H 86 H 87 H 85 H 89 H 80 H 85 H 78 H 89 H 81 H 82 H 83 H 88 H 78 H 88 H 79 H 87 H 79 H 86 H 81 H 85 H 84 H 84 H 86 H 82 H 92 H 93 H 93 H 90 H 96 H NL
XSH 83 H 83 H 81 H 86 H 83 H 89 H 83 H 89 H 81 H 88 H 86 H 89 H 85 H 85 H 87 H 92 H 87 H 84 H 86 H 92 H 87 H 85 H 87 H 89 H 89 H 90 H 88 H 90 H 85 H 85 H 84 H 82 H 84 H 81 H 92 H 95 H 94 H 96 H 96 H NL
XSH 93 H 79 H 94 H 80 H 83 H 83 H 84 H 82 H 81 H 80 H 73 H 77 H 81 H 77 H 88 H 88 H 93 H 84 H 94 H 87 H 88 H 76 H 88 H 82 H 90 H 89 H 94 H 86 H 90 H 85 H 87 H 85 H 85 H 88 H 86 H 93 H 92 H 96 H 92 H NL
XSH 81 H 81 H 84 H 84 H 85 H 92 H 84 H 88 H 85 H 90 H 85 H 83 H 82 H 87 H 88 H 94 H 88 H 85 H 86 H 88 H 87 H 84 H 88 H 91 H 92 H 93 H 91 H 86 H 89 H 89 H 87 H 85 H 85 H 80 H 87 H 91 H 92 H 93 H 92 H NL
XSH 78 H 89 H 83 H 92 H 86 H 84 H 81 H 83 H 87 H 88 H 90 H 82 H 88 H 89 H 87 H 89 H 78 H 87 H 79 H 89 H 82 H 91 H 88 H 95 H 93 H 94 H 83 H 95 H 89 H 95 H 87 H 91 H 92 H 83 H 94 H 87 H 93 H 89 H 92 H NL
XSH 85 H 85 H 84 H 89 H 89 H 88 H 89 H 92 H 88 H 89 H 85 H 81 H 87 H 86 H 87 H 87 H 86 H 85 H 85 H 89 H 89 H 88 H 91 H 95 H 93 H 82 H 87 H 92 H 90 H 88 H 89 H 88 H 90 H 85 H 90 H 91 H 91 H 95 H 92 H NL
XSH 85 H 77 H 82 H 82 H 92 H 89 H 92 H 89 H 86 H 89 H 88 H 82 H 87 H 77 H 84 H 78 H 87 H 79 H 84 H 83 H 89 H 89 H 91 H 90 H 93 H 83 H 89 H 86 H 90 H 86 H 92 H 92 H 91 H 92 H 88 H 93 H 90 H 92 H 92 H NL
XSH 85 H 87 H 86 H 86 H 88 H 94 H 91 H 91 H 90 H 91 H 87 H 76 H 81 H 81 H 85 H 91 H 86 H 86 H 85 H 88 H 88 H 90 H 89 H 90 H 89 H 89 H 87 H 87 H 89 H 92 H 90 H 90 H 89 H 88 H 89 H 89 H 91 H 91 H 92 H NL
XSH 85 H 89 H 92 H 88 H 88 H 91 H 82 H 89 H 91 H 87 H 76 H 79 H 80 H 85 H 86 H 93 H 84 H 93 H 85 H 88 H 82 H 83 H 82 H 85 H 78 H 87 H 84 H 89 H 88 H 90 H 89 H 87 H 89 H 89 H 91 H 91 H 94 H 94 H 96 H NL
XSH 90 H 90 H 88 H 87 H 88 H 90 H 89 H 96 H 86 H 80 H 81 H 82 H 80 H 81 H 83 H 89 H 86 H 87 H 87 H 87 H 88 H 91 H 85 H 85 H 86 H 91 H 88 H 91 H 90 H 94 H 89 H 88 H 89 H 89 H 90 H 91 H 92 H 96 H 96 H NL
XSH 93 H 90 H 85 H 82 H 85 H 80 H 89 H 87 H 84 H 74 H 85 H 83 H 80 H 79 H 81 H 81 H 86 H 82 H 89 H 86 H 90 H 89 H 91 H 84 H 90 H 86 H 87 H 86 H 88 H 92 H 90 H 89 H 87 H 88 H 86 H 82 H 80 H 80 H 82 H NL
XSH 93 H 95 H 87 H 85 H 85 H 91 H 90 H 98 H 86 H 84 H 85 H 87 H 83 H 76 H 81 H 86 H 87 H 89 H 89 H 88 H 88 H 89 H 89 H 87 H 87 H 88 H 88 H 92 H 89 H 94 H 91 H 92 H 89 H 89 H 87 H 87 H 83 H 88 H 80 H NL
XSH 90 H 93 H 85 H 82 H 84 H 87 H 90 H 92 H 85 H 90 H 85 H 88 H 84 H 81 H 85 H 92 H 90 H 91 H 89 H 92 H 86 H 90 H 86 H 93 H 84 H 92 H 89 H 91 H 87 H 85 H 85 H 91 H 80 H 84 H 75 H 83 H 79 H 79 H 72 H NL
XSH 89 H 89 H 84 H 89 H 87 H 95 H 89 H 88 H 86 H 82 H 85 H 85 H 83 H 74 H 81 H 93 H 88 H 86 H 87 H 87 H 88 H 88 H 87 H 84 H 88 H 92 H 90 H 93 H 88 H 90 H 86 H 88 H 85 H 86 H 85 H 91 H 84 H 93 H 90 H NL
XSH 65 H 77 H 77 H 83 H 77 H 87 H 85 H 86 H 88 H 83 H 91 H 84 H 86 H 80 H 71 H 76 H 75 H 82 H 85 H 84 H 90 H 82 H 88 H 81 H 91 H 85 H 88 H 83 H 89 H 83 H 84 H 75 H 87 H 81 H 89 H 84 H 87 H 82 H 90 H NL
XSH 69 H 85 H 78 H 87 H 80 H 78 H 82 H 92 H 84 H 83 H 83 H 85 H 84 H 84 H 82 H 85 H 80 H 81 H 82 H 87 H 84 H 85 H 86 H 85 H 87 H 90 H 89 H 92 H 87 H 92 H 84 H 84 H 86 H 92 H 90 H 92 H 90 H 92 H 90 H NL
XSH 69 H 57 H 79 H 71 H 82 H 63 H 80 H 76 H 71 H 72 H 72 H 79 H 77 H 83 H 78 H 80 H 83 H 78 H 81 H 82 H 78 H 86 H 86 H 89 H 84 H 91 H 79 H 86 H 82 H 88 H 78 H 89 H 85 H 90 H 87 H 94 H 88 H 93 H 86 H NL
XSH 69 H 77 H 78 H 83 H 78 H 74 H 78 H 81 H 78 H 80 H 82 H 86 H 84 H 86 H 84 H 85 H 84 H 85 H 84 H 83 H 85 H 87 H 86 H 86 H 85 H 86 H 86 H 94 H 88 H 88 H 88 H 91 H 88 H 92 H 90 H 94 H 90 H 91 H 91 H NL
XSH 58 H 85 H 64 H 81 H 67 H 89 H 66 H 81 H 76 H 85 H 85 H 84 H 83 H 86 H 84 H 85 H 80 H 89 H 86 H 85 H 87 H 82 H 81 H 76 H 83 H 78 H 87 H 86 H 90 H 78 H 88 H 81 H 86 H 84 H 88 H 83 H 89 H 85 H 91 H NL
XSH 70 H 70 H 75 H 81 H 78 H 76 H 74 H 66 H 75 H 74 H 82 H 86 H 84 H 88 H 83 H 82 H 83 H 84 H 84 H 83 H 83 H 83 H 82 H 84 H 85 H 91 H 88 H 91 H 86 H 87 H 88 H 91 H 89 H 93 H 88 H 92 H 90 H 95 H 92 H NL
XSH 86 H 67 H 80 H 60 H 85 H 73 H 79 H 65 H 85 H 76 H 80 H 83 H 81 H 80 H 77 H 76 H 90 H 77 H 73 H 74 H 72 H 81 H 82 H 86 H 85 H 89 H 82 H 83 H 80 H 91 H 86 H 93 H 87 H 88 H 86 H 90 H 88 H 92 H 93 H NL
XSH 67 H 88 H 70 H 60 H 75 H 78 H 78 H 62 H 74 H 72 H 81 H 88 H 87 H 89 H 82 H 85 H 78 H 79 H 78 H 77 H 82 H 85 H 85 H 89 H 88 H 89 H 86 H 91 H 88 H 90 H 88 H 93 H 90 H 90 H 90 H 92 H 92 H 96 H 93 H NL
XSH 41 H 60 H 48 H 84 H 53 H 84 H 82 H 90 H 73 H 89 H 72 H 82 H 88 H 86 H 90 H 80 H 73 H 68 H 78 H 80 H 82 H 84 H 84 H 83 H 87 H 81 H 89 H 82 H 86 H 80 H 84 H 84 H 91 H 90 H 93 H 89 H 96 H 91 H 92 H NL
XSH 83 H 83 H 63 H 55 H 54 H 48 H 78 H 74 H 74 H 70 H 76 H 61 H 85 H 91 H 89 H 83 H 83 H 84 H 82 H 81 H 82 H 80 H 84 H 85 H 85 H 89 H 89 H 89 H 88 H 93 H 92 H 92 H 92 H 93 H 91 H 87 H 90 H 92 H 92 H NL
XSH 83 H 66 H 87 H 51 H 90 H 48 H 93 H 70 H 85 H 80 H 85 H 76 H 91 H 93 H 88 H 88 H 83 H 88 H 86 H 83 H 85 H 82 H 84 H 84 H 85 H 90 H 87 H 92 H 88 H 94 H 93 H 92 H 93 H 93 H 86 H 93 H 86 H 92 H 81 H NL
XSH 75 H 75 H 70 H 51 H 51 H 50 H 67 H 64 H 78 H 66 H 77 H 68 H 91 H 92 H 88 H 79 H 87 H 86 H 86 H 84 H 84 H 80 H 86 H 87 H 89 H 88 H 91 H 90 H 95 H 97 H 94 H 90 H 91 H 87 H 86 H 86 H 86 H 86 H 86 H NL
XSH 67 H 85 H 64 H 86 H 47 H 88 H 50 H 84 H 76 H 88 H 79 H 82 H 86 H 91 H 93 H 85 H 94 H 88 H 93 H 90 H 87 H 87 H 88 H 91 H 91 H 91 H 96 H 93 H 96 H 96 H 98 H 95 H 94 H 82 H 95 H 85 H 97 H 84 H 93 H NL
XSH 74 H 76 H 74 H 73 H 73 H 46 H 56 H 40 H 69 H 63 H 74 H 59 H 80 H 78 H 88 H 83 H 86 H 82 H 90 H 90 H 88 H 80 H 88 H 84 H 91 H 85 H 91 H 92 H 94 H 92 H 96 H 96 H 95 H 79 H 86 H 89 H 87 H 84 H 86 H NL
XSH 74 H 70 H 87 H 74 H 78 H 61 H 80 H 52 H 89 H 70 H 94 H 63 H 84 H 86 H 89 H 90 H 86 H 96 H 91 H 97 H 86 H 94 H 94 H 91 H 98 H 89 H 97 H 96 H 95 H 98 H 96 H 97 H 85 H 93 H 78 H 89 H 76 H 90 H 86 H NL
XSH 70 H 68 H 71 H 59 H 64 H 46 H 66 H 46 H 67 H 65 H 64 H 61 H 83 H 82 H 87 H 80 H 87 H 87 H 89 H 86 H 90 H 87 H 92 H 88 H 90 H 84 H 92 H 90 H 95 H 94 H 95 H 86 H 86 H 72 H 87 H 87 H 89 H 88 H 86 H NL
XSH 78 H 70 H 76 H 60 H 82 H 66 H 80 H 93 H 49 H 83 H 53 H 80 H 64 H 87 H 84 H 89 H 88 H 87 H 89 H 88 H 97 H 95 H 94 H 97 H 91 H 90 H 91 H 94 H 90 H 95 H 95 H 82 H 93 H 74 H 93 H 87 H 91 H 90 H 86 H NL
XSH 73 H 73 H 72 H 59 H 64 H 60 H 72 H 75 H 74 H 52 H 59 H 53 H 67 H 62 H 83 H 82 H 84 H 85 H 87 H 83 H 90 H 91 H 93 H 91 H 90 H 83 H 90 H 90 H 90 H 89 H 89 H 82 H 82 H 78 H 86 H 86 H 88 H 89 H 86 H NL
XSH 58 H 72 H 72 H 68 H 76 H 69 H 91 H 77 H 73 H 64 H 71 H 71 H 77 H 55 H 84 H 84 H 84 H 87 H 93 H 87 H 95 H 96 H 88 H 89 H 83 H 85 H 89 H 93 H 89 H 89 H 80 H 90 H 78 H 93 H 86 H 95 H 78 H 82 H 79 H NL
XSH 66 H 77 H 63 H 56 H 65 H 67 H 66 H 63 H 63 H 37 H 65 H 66 H 61 H 54 H 79 H 78 H 85 H 87 H 86 H 85 H 86 H 87 H 88 H 85 H 84 H 82 H 85 H 88 H 85 H 81 H 81 H 76 H 85 H 83 H 82 H 81 H 80 H 71 H 71 H NL
XSH 66 H 60 H 58 H 53 H 59 H 63 H 65 H 62 H 74 H 61 H 46 H 63 H 56 H 68 H 40 H 80 H 77 H 87 H 78 H 76 H 68 H 80 H 86 H 88 H 87 H 81 H 75 H 83 H 83 H 82 H 89 H 80 H 88 H 86 H 80 H 71 H 80 H 80 H 60 H NL
XSH 41 H 39 H 40 H 40 H 50 H 60 H 57 H 53 H 51 H 49 H 48 H 45 H 54 H 68 H 44 H 45 H 61 H 87 H 78 H 78 H 72 H 75 H 77 H 87 H 83 H 79 H 73 H 69 H 73 H 78 H 78 H 78 H 79 H 82 H 77 H 74 H 72 H 73 H 66 H NL
XSH 41 H 36 H 32 H 32 H 47 H 54 H 49 H 39 H 28 H 41 H 50 H 51 H 15 H 31 H 44 H 24 H 45 H 40 H 50 H 39 H 68 H 74 H 54 H 55 H 59 H 62 H 71 H 64 H 65 H 69 H 50 H 52 H 61 H 67 H 58 H 71 H 63 H 66 H 27 H NL
XSH 36 H 18 H 32 H 44 H 45 H 31 H 35 H 19 H 31 H 33 H 42 H 0 H 22 H 29 H 37 H 44 H 42 H 32 H 45 H 56 H 69 H 69 H 56 H 58 H 60 H 72 H 68 H 64 H 64 H 63 H 52 H 52 H 62 H 64 H 61 H 57 H 60 H 33 H 30 H NL
/y 0 def
/xoff 12.500000 def
/yoff 1270.170613 def
XSH 92 LN 87 LN 80 LN 82 LN 85 LN 84 LN 86 LN 90 LN 88 LN 88 LN 84 LN 83 LN 82 LN 89 LN 89 LN 89 LN 89 LN 95 LN 95 LN 95 LN NL NL
XSH 85 LN 84 LN 79 LN 82 LN 85 LN 84 LN 87 LN 87 LN 88 LN 89 LN 83 LN 84 LN 87 LN 90 LN 89 LN 89 LN 89 LN 93 LN 92 LN 93 LN NL NL
XSH 84 LN 82 LN 80 LN 78 LN 78 LN 78 LN 81 LN 82 LN 85 LN 86 LN 84 LN 84 LN 80 LN 88 LN 86 LN 85 LN 84 LN 86 LN 90 LN 89 LN NL NL
XSH 81 LN 78 LN 75 LN 79 LN 79 LN 83 LN 83 LN 86 LN 84 LN 86 LN 89 LN 86 LN 81 LN 85 LN 85 LN 83 LN 85 LN 82 LN 86 LN 88 LN NL NL
XSH 88 LN 84 LN 75 LN 79 LN 82 LN 85 LN 86 LN 85 LN 87 LN 89 LN 91 LN 91 LN 87 LN 86 LN 84 LN 83 LN 85 LN 85 LN 85 LN 89 LN NL NL
XSH 81 LN 76 LN 75 LN 78 LN 80 LN 82 LN 87 LN 85 LN 90 LN 92 LN 92 LN 90 LN 88 LN 85 LN 81 LN 82 LN 83 LN 86 LN 87 LN 89 LN NL NL
XSH 84 LN 79 LN 75 LN 77 LN 82 LN 83 LN 86 LN 86 LN 85 LN 89 LN 92 LN 88 LN 87 LN 89 LN 82 LN 84 LN 82 LN 84 LN 87 LN 91 LN NL NL
XSH 81 LN 77 LN 79 LN 81 LN 83 LN 84 LN 86 LN 84 LN 85 LN 87 LN 87 LN 88 LN 86 LN 83 LN 84 LN 84 LN 83 LN 89 LN 92 LN 94 LN NL NL
XSH 85 LN 80 LN 79 LN 79 LN 83 LN 86 LN 86 LN 86 LN 86 LN 86 LN 87 LN 86 LN 85 LN 86 LN 86 LN 85 LN 80 LN 85 LN 90 LN 93 LN NL NL
XSH 84 LN 80 LN 83 LN 84 LN 86 LN 87 LN 90 LN 87 LN 87 LN 85 LN 87 LN 87 LN 87 LN 87 LN 86 LN 83 LN 82 LN 88 LN 92 LN 97 LN NL NL
XSH 76 LN 81 LN 78 LN 81 LN 83 LN 87 LN 88 LN 89 LN 86 LN 82 LN 85 LN 88 LN 88 LN 87 LN 84 LN 84 LN 84 LN 86 LN 93 LN 94 LN NL NL
XSH 83 LN 81 LN 83 LN 83 LN 81 LN 86 LN 85 LN 87 LN 87 LN 86 LN 87 LN 87 LN 89 LN 88 LN 85 LN 84 LN 84 LN 92 LN 94 LN 96 LN NL NL
XSH 81 LN 84 LN 85 LN 84 LN 85 LN 85 LN 82 LN 88 LN 88 LN 86 LN 87 LN 88 LN 92 LN 91 LN 89 LN 87 LN 85 LN 87 LN 92 LN 92 LN NL NL
XSH 85 LN 84 LN 89 LN 89 LN 88 LN 85 LN 87 LN 87 LN 86 LN 85 LN 89 LN 91 LN 93 LN 87 LN 90 LN 89 LN 90 LN 90 LN 91 LN 92 LN NL NL
XSH 85 LN 86 LN 88 LN 91 LN 90 LN 87 LN 81 LN 85 LN 86 LN 85 LN 88 LN 89 LN 89 LN 87 LN 89 LN 90 LN 89 LN 89 LN 91 LN 92 LN NL NL
XSH 90 LN 88 LN 88 LN 89 LN 86 LN 81 LN 80 LN 83 LN 86 LN 87 LN 88 LN 85 LN 86 LN 88 LN 90 LN 89 LN 89 LN 90 LN 92 LN 96 LN NL NL
XSH 93 LN 87 LN 85 LN 90 LN 86 LN 85 LN 83 LN 81 LN 87 LN 89 LN 88 LN 89 LN 87 LN 88 LN 89 LN 91 LN 89 LN 87 LN 83 LN 80 LN NL NL
XSH 89 LN 84 LN 87 LN 89 LN 86 LN 85 LN 83 LN 81 LN 88 LN 87 LN 88 LN 87 LN 88 LN 90 LN 88 LN 86 LN 85 LN 85 LN 84 LN 90 LN NL NL
XSH 69 LN 78 LN 80 LN 82 LN 84 LN 83 LN 84 LN 82 LN 80 LN 82 LN 84 LN 86 LN 87 LN 89 LN 87 LN 84 LN 86 LN 90 LN 90 LN 90 LN NL NL
XSH 69 LN 78 LN 78 LN 78 LN 78 LN 82 LN 84 LN 84 LN 84 LN 84 LN 85 LN 86 LN 85 LN 86 LN 88 LN 88 LN 88 LN 90 LN 90 LN 91 LN NL NL
XSH 70 LN 75 LN 78 LN 74 LN 75 LN 82 LN 84 LN 83 LN 83 LN 84 LN 83 LN 82 LN 85 LN 88 LN 86 LN 88 LN 89 LN 88 LN 90 LN 92 LN NL NL
XSH 67 LN 70 LN 75 LN 78 LN 74 LN 81 LN 87 LN 82 LN 78 LN 78 LN 82 LN 85 LN 88 LN 86 LN 88 LN 88 LN 90 LN 90 LN 92 LN 93 LN NL NL
XSH 83 LN 63 LN 54 LN 78 LN 74 LN 76 LN 85 LN 89 LN 83 LN 82 LN 82 LN 84 LN 85 LN 89 LN 88 LN 92 LN 92 LN 91 LN 90 LN 92 LN NL NL
XSH 75 LN 70 LN 51 LN 67 LN 78 LN 77 LN 91 LN 88 LN 87 LN 86 LN 84 LN 86 LN 89 LN 91 LN 95 LN 94 LN 91 LN 86 LN 86 LN 86 LN NL NL
XSH 74 LN 74 LN 73 LN 56 LN 69 LN 74 LN 80 LN 88 LN 86 LN 90 LN 88 LN 88 LN 91 LN 91 LN 94 LN 96 LN 95 LN 86 LN 87 LN 86 LN NL NL
XSH 70 LN 71 LN 64 LN 66 LN 67 LN 64 LN 83 LN 87 LN 87 LN 89 LN 90 LN 92 LN 90 LN 92 LN 95 LN 95 LN 86 LN 87 LN 89 LN 86 LN NL NL
XSH 73 LN 72 LN 64 LN 72 LN 74 LN 59 LN 67 LN 83 LN 84 LN 87 LN 90 LN 93 LN 90 LN 90 LN 90 LN 89 LN 82 LN 86 LN 88 LN 86 LN NL NL
XSH 66 LN 63 LN 65 LN 66 LN 63 LN 65 LN 61 LN 79 LN 85 LN 86 LN 86 LN 88 LN 84 LN 85 LN 85 LN 81 LN 85 LN 82 LN 80 LN 71 LN NL NL
XSH 41 LN 40 LN 50 LN 57 LN 51 LN 48 LN 54 LN 44 LN 61 LN 78 LN 72 LN 77 LN 83 LN 73 LN 73 LN 78 LN 79 LN 77 LN 72 LN 66 LN NL NL
XSH 36 LN 32 LN 45 LN 35 LN 31 LN 42 LN 22 LN 37 LN 42 LN 45 LN 69 LN 56 LN 60 LN 68 LN 64 LN 52 LN 62 LN 61 LN 60 LN 30 LN NL NL
end
% end of EPS object
