%!PS-Adobe-2.0 EPSF-2.0
%%Title: undefined
%%Creator: sammon
%%Pages: 1
%%EndComments
40 40 translate
/gscale 445.485596 def
gscale dup scale
/Helvetica findfont 12 gscale div scalefont setfont
/radius 0.004489 def
/LN
{newpath
radius 0 360 arc fill
} def
/LP
{dup stringwidth pop
-2 div 0 rmoveto show} def
0.000449 setlinewidth
0 setgray
0.312378 0.000000 LN
0.359658 0.005141 LN
0.430496 0.024709 LN
0.509536 0.067196 LN
0.589135 0.097055 LN
0.648658 0.125993 LN
0.720281 0.170055 LN
0.775035 0.203078 LN
0.815168 0.232895 LN
0.860479 0.277641 LN
0.885664 0.327524 LN
0.895734 0.419442 LN
0.878397 0.508018 LN
0.887846 0.548419 LN
0.923142 0.580133 LN
0.957013 0.587874 LN
0.987815 0.611790 LN
1.015520 0.661121 LN
1.023912 0.687146 LN
1.015616 0.717263 LN
0.320272 0.019944 LN
0.381322 0.036963 LN
0.462085 0.070229 LN
0.559721 0.106602 LN
0.619098 0.133576 LN
0.688876 0.175648 LN
0.741720 0.214019 LN
0.789323 0.241981 LN
0.844397 0.281852 LN
0.868999 0.316921 LN
0.891251 0.399353 LN
0.890863 0.458604 LN
0.893348 0.547056 LN
0.897644 0.580605 LN
0.927842 0.601107 LN
0.959623 0.619807 LN
1.004763 0.653782 LN
1.014584 0.694043 LN
1.019152 0.736517 LN
1.007234 0.772817 LN
0.259662 0.043583 LN
0.320770 0.055264 LN
0.406817 0.080072 LN
0.502673 0.124824 LN
0.588555 0.160841 LN
0.654983 0.205520 LN
0.711294 0.243743 LN
0.766298 0.282839 LN
0.816851 0.302346 LN
0.853376 0.340735 LN
0.878380 0.396904 LN
0.876092 0.460096 LN
0.865081 0.531388 LN
0.881473 0.589214 LN
0.887343 0.613510 LN
0.921435 0.643467 LN
0.968432 0.668725 LN
0.998507 0.711389 LN
1.010463 0.746160 LN
1.006382 0.792337 LN
0.264861 0.096590 LN
0.341851 0.115709 LN
0.444079 0.149701 LN
0.554713 0.205509 LN
0.615010 0.255294 LN
0.691062 0.295800 LN
0.735992 0.323946 LN
0.781077 0.354025 LN
0.823752 0.371675 LN
0.847550 0.436996 LN
0.869261 0.473006 LN
0.859238 0.514469 LN
0.841811 0.593021 LN
0.872403 0.632155 LN
0.899299 0.669300 LN
0.933406 0.707608 LN
0.959168 0.753803 LN
0.975985 0.800546 LN
0.996873 0.837868 LN
1.010383 0.871664 LN
0.249497 0.130967 LN
0.301573 0.142196 LN
0.402641 0.187146 LN
0.526166 0.242379 LN
0.599831 0.287039 LN
0.650699 0.325072 LN
0.700475 0.352021 LN
0.751464 0.389520 LN
0.782029 0.406371 LN
0.825351 0.458158 LN
0.838624 0.483321 LN
0.850345 0.522308 LN
0.848515 0.575888 LN
0.852762 0.643761 LN
0.876071 0.682884 LN
0.916877 0.726022 LN
0.947914 0.780477 LN
0.962466 0.815459 LN
0.992505 0.883739 LN
1.008003 0.917831 LN
0.296889 0.199999 LN
0.374897 0.227746 LN
0.478967 0.274790 LN
0.559451 0.313185 LN
0.622644 0.359131 LN
0.677460 0.406769 LN
0.713279 0.434040 LN
0.747571 0.455915 LN
0.783376 0.487814 LN
0.805776 0.505387 LN
0.823139 0.525254 LN
0.835734 0.568853 LN
0.839615 0.640167 LN
0.865076 0.681332 LN
0.885535 0.739977 LN
0.925503 0.798342 LN
0.965079 0.862765 LN
0.985273 0.898024 LN
1.008253 0.942203 LN
1.013831 0.967534 LN
0.284298 0.252701 LN
0.338401 0.276652 LN
0.429308 0.322828 LN
0.518580 0.367982 LN
0.589542 0.410982 LN
0.631141 0.443126 LN
0.680138 0.480468 LN
0.712985 0.487679 LN
0.746369 0.516195 LN
0.777550 0.528990 LN
0.790357 0.546215 LN
0.813204 0.585510 LN
0.824026 0.648248 LN
0.844736 0.696974 LN
0.874060 0.752377 LN
0.896605 0.821129 LN
0.936506 0.876721 LN
0.969766 0.935848 LN
0.997502 0.983458 LN
1.005489 1.015541 LN
0.319039 0.315412 LN
0.381608 0.346837 LN
0.464485 0.391780 LN
0.538704 0.419201 LN
0.591686 0.468215 LN
0.642688 0.513300 LN
0.672352 0.533174 LN
0.705477 0.556322 LN
0.739648 0.577875 LN
0.762409 0.579926 LN
0.779800 0.632324 LN
0.802704 0.671711 LN
0.826698 0.717230 LN
0.848575 0.789593 LN
0.873123 0.839087 LN
0.903239 0.886172 LN
0.943012 0.962329 LN
0.970973 1.016717 LN
0.987040 1.048333 LN
0.992237 1.055073 LN
0.302218 0.387369 LN
0.338597 0.406012 LN
0.424387 0.428446 LN
0.483674 0.466158 LN
0.555166 0.505911 LN
0.600332 0.541535 LN
0.629526 0.572080 LN
0.657812 0.605469 LN
0.696319 0.629560 LN
0.724883 0.643685 LN
0.753067 0.684462 LN
0.773153 0.715106 LN
0.804490 0.771771 LN
0.828670 0.801219 LN
0.851041 0.851498 LN
0.868906 0.903610 LN
0.907327 0.965689 LN
0.938227 1.028355 LN
0.970337 1.063842 LN
0.979218 1.080935 LN
0.331730 0.448429 LN
0.376719 0.474171 LN
0.453943 0.517258 LN
0.504352 0.549528 LN
0.558068 0.573104 LN
0.603166 0.612961 LN
0.629968 0.640797 LN
0.652445 0.668770 LN
0.691536 0.694515 LN
0.723407 0.726665 LN
0.753480 0.754895 LN
0.779292 0.801099 LN
0.804127 0.853491 LN
0.825542 0.887358 LN
0.847476 0.916237 LN
0.880761 0.996338 LN
0.907321 1.049570 LN
0.943092 1.097120 LN
0.962031 1.117194 LN
0.965664 1.131887 LN
0.295249 0.522980 LN
0.368853 0.553441 LN
0.413511 0.563198 LN
0.463086 0.581029 LN
0.520685 0.613782 LN
0.560425 0.641815 LN
0.600503 0.666782 LN
0.633468 0.701542 LN
0.655471 0.729807 LN
0.689376 0.793974 LN
0.729612 0.812376 LN
0.751559 0.844432 LN
0.780777 0.891345 LN
0.802177 0.928992 LN
0.831979 0.970008 LN
0.856954 1.018223 LN
0.881931 1.069335 LN
0.920851 1.122350 LN
0.939372 1.144388 LN
0.959235 1.153168 LN
0.338945 0.607127 LN
0.375299 0.644165 LN
0.421928 0.655964 LN
0.465612 0.684023 LN
0.508287 0.697166 LN
0.559888 0.704293 LN
0.599887 0.735898 LN
0.632946 0.788486 LN
0.655826 0.821444 LN
0.692740 0.875541 LN
0.725743 0.889460 LN
0.763059 0.941920 LN
0.788220 0.985591 LN
0.811710 1.022295 LN
0.834002 1.050195 LN
0.864333 1.089398 LN
0.890990 1.132967 LN
0.921704 1.163415 LN
0.943014 1.180408 LN
0.955484 1.175764 LN
0.311166 0.623638 LN
0.352142 0.670652 LN
0.376575 0.710805 LN
0.408470 0.714597 LN
0.453774 0.744443 LN
0.489564 0.776388 LN
0.554468 0.798830 LN
0.599875 0.829034 LN
0.628073 0.845106 LN
0.668787 0.892639 LN
0.701434 0.935021 LN
0.741689 0.990014 LN
0.766030 1.022771 LN
0.789333 1.039993 LN
0.820799 1.083457 LN
0.839397 1.116980 LN
0.873272 1.158037 LN
0.908262 1.190165 LN
0.929673 1.198823 LN
0.949318 1.207962 LN
0.311584 0.702868 LN
0.337937 0.725908 LN
0.354860 0.763965 LN
0.397496 0.791880 LN
0.439238 0.797886 LN
0.485890 0.823774 LN
0.559305 0.854983 LN
0.603791 0.890856 LN
0.639084 0.937752 LN
0.680981 0.980677 LN
0.710985 1.015818 LN
0.747853 1.045999 LN
0.766783 1.062209 LN
0.809761 1.107850 LN
0.829638 1.135170 LN
0.855044 1.179047 LN
0.885186 1.203395 LN
0.918960 1.222136 LN
0.937547 1.233695 LN
0.948054 1.245436 LN
0.279275 0.771421 LN
0.284423 0.790770 LN
0.339525 0.798990 LN
0.358458 0.809820 LN
0.392455 0.842277 LN
0.437842 0.851267 LN
0.522273 0.895954 LN
0.575057 0.951347 LN
0.605024 0.982613 LN
0.639567 1.028751 LN
0.679732 1.055487 LN
0.716798 1.067672 LN
0.749915 1.093369 LN
0.775353 1.135600 LN
0.810281 1.173759 LN
0.838206 1.200315 LN
0.867286 1.220964 LN
0.893334 1.244815 LN
0.915937 1.257479 LN
0.935455 1.273258 LN
0.253646 0.838508 LN
0.286165 0.828924 LN
0.328936 0.852657 LN
0.359640 0.889687 LN
0.388029 0.887712 LN
0.453911 0.951495 LN
0.521378 0.981555 LN
0.585043 1.015151 LN
0.615331 1.051701 LN
0.646284 1.096622 LN
0.684905 1.134324 LN
0.714929 1.147774 LN
0.753942 1.185934 LN
0.784193 1.206882 LN
0.814692 1.232356 LN
0.839994 1.251677 LN
0.871734 1.270144 LN
0.893916 1.284086 LN
0.918850 1.287768 LN
0.928472 1.297544 LN
0.237594 0.876790 LN
0.257835 0.890864 LN
0.305303 0.908319 LN
0.342212 0.933362 LN
0.356564 0.945304 LN
0.390605 1.000382 LN
0.445822 1.030741 LN
0.530166 1.071824 LN
0.577408 1.101445 LN
0.612856 1.133502 LN
0.651625 1.160857 LN
0.688327 1.183914 LN
0.719383 1.217359 LN
0.754942 1.246941 LN
0.786308 1.265045 LN
0.810070 1.273930 LN
0.837167 1.301038 LN
0.865241 1.321645 LN
0.896485 1.350715 LN
0.923792 1.360199 LN
0.250399 0.918942 LN
0.286200 0.948709 LN
0.324289 0.971186 LN
0.343437 0.979881 LN
0.340706 1.020920 LN
0.398275 1.070300 LN
0.457061 1.104189 LN
0.551411 1.133191 LN
0.576421 1.154213 LN
0.623214 1.184983 LN
0.658088 1.221661 LN
0.694025 1.241580 LN
0.731007 1.276965 LN
0.761468 1.295162 LN
0.783270 1.321325 LN
0.817961 1.335503 LN
0.840444 1.379539 LN
0.878736 1.413601 LN
0.905619 1.431170 LN
0.913985 1.460727 LN
0.270724 0.913534 LN
0.275490 0.960227 LN
0.288175 1.007881 LN
0.289162 1.038947 LN
0.311621 1.054310 LN
0.362939 1.093556 LN
0.390848 1.150052 LN
0.444073 1.199709 LN
0.503497 1.228909 LN
0.578750 1.233057 LN
0.622533 1.255345 LN
0.664345 1.291225 LN
0.704361 1.311862 LN
0.731666 1.340159 LN
0.760270 1.363866 LN
0.783659 1.389474 LN
0.819861 1.430370 LN
0.846459 1.456595 LN
0.868975 1.483832 LN
0.887764 1.506819 LN
0.243287 0.959963 LN
0.273201 0.998061 LN
0.318727 1.040904 LN
0.312996 1.105058 LN
0.296887 1.173948 LN
0.329911 1.219237 LN
0.392067 1.246778 LN
0.432111 1.287330 LN
0.504812 1.299064 LN
0.568242 1.311667 LN
0.622660 1.340980 LN
0.670472 1.346925 LN
0.712688 1.377023 LN
0.739469 1.420922 LN
0.761994 1.436186 LN
0.789759 1.472792 LN
0.818845 1.496486 LN
0.848970 1.515366 LN
0.870650 1.537229 LN
0.889548 1.559508 LN
0.182549 0.876225 LN
0.236814 0.970480 LN
0.270139 1.017275 LN
0.289356 1.074470 LN
0.331484 1.170005 LN
0.315488 1.234961 LN
0.322231 1.283325 LN
0.362573 1.311297 LN
0.431294 1.353180 LN
0.507947 1.346140 LN
0.571141 1.372888 LN
0.621115 1.411365 LN
0.673397 1.438434 LN
0.704997 1.464453 LN
0.737771 1.479694 LN
0.766214 1.523139 LN
0.787981 1.553363 LN
0.817560 1.567598 LN
0.849012 1.586422 LN
0.864326 1.601617 LN
0.197278 0.906546 LN
0.221895 0.930017 LN
0.298980 1.066153 LN
0.320820 1.137075 LN
0.339167 1.234907 LN
0.320799 1.317100 LN
0.319734 1.360464 LN
0.352475 1.400557 LN
0.414627 1.397040 LN
0.479086 1.448836 LN
0.563626 1.475524 LN
0.624446 1.484013 LN
0.672153 1.504666 LN
0.700691 1.541650 LN
0.735256 1.561260 LN
0.769395 1.586873 LN
0.781943 1.616521 LN
0.817485 1.635513 LN
0.844723 1.646322 LN
0.863926 1.631988 LN
0.087724 0.753472 LN
0.141407 0.794309 LN
0.258615 0.936653 LN
0.361499 1.104003 LN
0.346591 1.175547 LN
0.332838 1.273579 LN
0.305201 1.395950 LN
0.318437 1.422545 LN
0.342543 1.488004 LN
0.406186 1.523217 LN
0.491093 1.525580 LN
0.572647 1.542769 LN
0.629134 1.560966 LN
0.663661 1.591737 LN
0.702336 1.621809 LN
0.725262 1.648051 LN
0.755697 1.660932 LN
0.791093 1.660671 LN
0.835421 1.672859 LN
0.867127 1.670595 LN
0.071691 0.724818 LN
0.137546 0.810932 LN
0.310233 0.940388 LN
0.347393 1.115928 LN
0.362218 1.229971 LN
0.335766 1.338574 LN
0.311752 1.438281 LN
0.316664 1.476693 LN
0.368297 1.548594 LN
0.426579 1.574288 LN
0.494925 1.592260 LN
0.576365 1.616960 LN
0.625397 1.629057 LN
0.668492 1.651615 LN
0.703846 1.676398 LN
0.725279 1.685790 LN
0.765236 1.690029 LN
0.817227 1.697738 LN
0.869611 1.693723 LN
0.910345 1.646851 LN
0.000000 0.642788 LN
0.090205 0.682502 LN
0.159655 0.780677 LN
0.318321 0.981881 LN
0.407117 1.165363 LN
0.369819 1.273376 LN
0.320541 1.380285 LN
0.331380 1.469141 LN
0.349148 1.533283 LN
0.408312 1.584179 LN
0.446918 1.614711 LN
0.528172 1.634624 LN
0.590620 1.652347 LN
0.646801 1.663855 LN
0.682321 1.678789 LN
0.716786 1.690224 LN
0.741908 1.697655 LN
0.813441 1.705863 LN
0.864406 1.706004 LN
0.926664 1.657977 LN
0.048454 0.610785 LN
0.100259 0.717876 LN
0.229505 0.828336 LN
0.435314 1.001464 LN
0.434367 1.177110 LN
0.397334 1.296421 LN
0.373959 1.426016 LN
0.363567 1.497642 LN
0.394774 1.568802 LN
0.444765 1.601544 LN
0.501589 1.622698 LN
0.553050 1.644230 LN
0.603974 1.656442 LN
0.661873 1.667740 LN
0.703649 1.681560 LN
0.731849 1.692839 LN
0.785269 1.690758 LN
0.901013 1.686624 LN
0.955881 1.666206 LN
0.979100 1.657391 LN
0.074190 0.591746 LN
0.122239 0.653410 LN
0.221937 0.798192 LN
0.416518 0.938945 LN
0.455081 1.004944 LN
0.490109 1.172908 LN
0.455960 1.320117 LN
0.412661 1.454649 LN
0.397857 1.520373 LN
0.446310 1.561254 LN
0.490075 1.615271 LN
0.529326 1.624838 LN
0.572664 1.631229 LN
0.639524 1.638274 LN
0.675921 1.642408 LN
0.717318 1.664416 LN
0.783458 1.664495 LN
0.889428 1.660468 LN
0.950954 1.655795 LN
0.995206 1.642110 LN
0.152178 0.671439 LN
0.214361 0.690857 LN
0.325670 0.823295 LN
0.452839 0.926168 LN
0.503815 1.060378 LN
0.480591 1.237879 LN
0.509785 1.323730 LN
0.397753 1.471239 LN
0.462500 1.511233 LN
0.478782 1.562887 LN
0.513172 1.613430 LN
0.559173 1.598307 LN
0.617008 1.584085 LN
0.671059 1.618609 LN
0.706888 1.614180 LN
0.764103 1.615171 LN
0.878355 1.626894 LN
0.950645 1.632746 LN
1.012439 1.596548 LN
1.024434 1.624541 LN
0.114486 0.621044 LN
0.183420 0.680042 LN
0.367616 0.698903 LN
0.344995 0.857763 LN
0.388037 1.056149 LN
0.456382 1.142268 LN
0.559841 1.229654 LN
0.487140 1.288400 LN
0.468033 1.454941 LN
0.470373 1.496058 LN
0.513121 1.500504 LN
0.540532 1.572250 LN
0.585835 1.590781 LN
0.651844 1.556082 LN
0.690587 1.564977 LN
0.735246 1.590587 LN
0.829343 1.601967 LN
0.907942 1.590265 LN
1.008611 1.547586 LN
0.983575 1.555348 LN
0.161172 0.615554 LN
0.084093 0.780962 LN
0.260372 0.715185 LN
0.556160 0.876566 LN
0.406587 1.125855 LN
0.449094 1.110952 LN
0.223655 1.255657 LN
0.356860 1.360125 LN
0.391241 1.306310 LN
0.532923 1.433717 LN
0.512707 1.537741 LN
0.569452 1.485274 LN
0.638436 1.491717 LN
0.643713 1.514570 LN
0.753670 1.514215 LN
0.870809 1.462472 LN
0.950189 1.491506 LN
0.997069 1.469612 LN
1.047763 1.495290 LN
0.270731 1.395615 LN
newpath
0.312378 0.000000 moveto
0.359658 0.005141 lineto
0.430496 0.024709 lineto
0.509536 0.067196 lineto
0.589135 0.097055 lineto
0.648658 0.125993 lineto
0.720281 0.170055 lineto
0.775035 0.203078 lineto
0.815168 0.232895 lineto
0.860479 0.277641 lineto
0.885664 0.327524 lineto
0.895734 0.419442 lineto
0.878397 0.508018 lineto
0.887846 0.548419 lineto
0.923142 0.580133 lineto
0.957013 0.587874 lineto
0.987815 0.611790 lineto
1.015520 0.661121 lineto
1.023912 0.687146 lineto
1.015616 0.717263 lineto
stroke
newpath
0.320272 0.019944 moveto
0.381322 0.036963 lineto
0.462085 0.070229 lineto
0.559721 0.106602 lineto
0.619098 0.133576 lineto
0.688876 0.175648 lineto
0.741720 0.214019 lineto
0.789323 0.241981 lineto
0.844397 0.281852 lineto
0.868999 0.316921 lineto
0.891251 0.399353 lineto
0.890863 0.458604 lineto
0.893348 0.547056 lineto
0.897644 0.580605 lineto
0.927842 0.601107 lineto
0.959623 0.619807 lineto
1.004763 0.653782 lineto
1.014584 0.694043 lineto
1.019152 0.736517 lineto
1.007234 0.772817 lineto
stroke
newpath
0.259662 0.043583 moveto
0.320770 0.055264 lineto
0.406817 0.080072 lineto
0.502673 0.124824 lineto
0.588555 0.160841 lineto
0.654983 0.205520 lineto
0.711294 0.243743 lineto
0.766298 0.282839 lineto
0.816851 0.302346 lineto
0.853376 0.340735 lineto
0.878380 0.396904 lineto
0.876092 0.460096 lineto
0.865081 0.531388 lineto
0.881473 0.589214 lineto
0.887343 0.613510 lineto
0.921435 0.643467 lineto
0.968432 0.668725 lineto
0.998507 0.711389 lineto
1.010463 0.746160 lineto
1.006382 0.792337 lineto
stroke
newpath
0.264861 0.096590 moveto
0.341851 0.115709 lineto
0.444079 0.149701 lineto
0.554713 0.205509 lineto
0.615010 0.255294 lineto
0.691062 0.295800 lineto
0.735992 0.323946 lineto
0.781077 0.354025 lineto
0.823752 0.371675 lineto
0.847550 0.436996 lineto
0.869261 0.473006 lineto
0.859238 0.514469 lineto
0.841811 0.593021 lineto
0.872403 0.632155 lineto
0.899299 0.669300 lineto
0.933406 0.707608 lineto
0.959168 0.753803 lineto
0.975985 0.800546 lineto
0.996873 0.837868 lineto
1.010383 0.871664 lineto
stroke
newpath
0.249497 0.130967 moveto
0.301573 0.142196 lineto
0.402641 0.187146 lineto
0.526166 0.242379 lineto
0.599831 0.287039 lineto
0.650699 0.325072 lineto
0.700475 0.352021 lineto
0.751464 0.389520 lineto
0.782029 0.406371 lineto
0.825351 0.458158 lineto
0.838624 0.483321 lineto
0.850345 0.522308 lineto
0.848515 0.575888 lineto
0.852762 0.643761 lineto
0.876071 0.682884 lineto
0.916877 0.726022 lineto
0.947914 0.780477 lineto
0.962466 0.815459 lineto
0.992505 0.883739 lineto
1.008003 0.917831 lineto
stroke
newpath
0.296889 0.199999 moveto
0.374897 0.227746 lineto
0.478967 0.274790 lineto
0.559451 0.313185 lineto
0.622644 0.359131 lineto
0.677460 0.406769 lineto
0.713279 0.434040 lineto
0.747571 0.455915 lineto
0.783376 0.487814 lineto
0.805776 0.505387 lineto
0.823139 0.525254 lineto
0.835734 0.568853 lineto
0.839615 0.640167 lineto
0.865076 0.681332 lineto
0.885535 0.739977 lineto
0.925503 0.798342 lineto
0.965079 0.862765 lineto
0.985273 0.898024 lineto
1.008253 0.942203 lineto
1.013831 0.967534 lineto
stroke
newpath
0.284298 0.252701 moveto
0.338401 0.276652 lineto
0.429308 0.322828 lineto
0.518580 0.367982 lineto
0.589542 0.410982 lineto
0.631141 0.443126 lineto
0.680138 0.480468 lineto
0.712985 0.487679 lineto
0.746369 0.516195 lineto
0.777550 0.528990 lineto
0.790357 0.546215 lineto
0.813204 0.585510 lineto
0.824026 0.648248 lineto
0.844736 0.696974 lineto
0.874060 0.752377 lineto
0.896605 0.821129 lineto
0.936506 0.876721 lineto
0.969766 0.935848 lineto
0.997502 0.983458 lineto
1.005489 1.015541 lineto
stroke
newpath
0.319039 0.315412 moveto
0.381608 0.346837 lineto
0.464485 0.391780 lineto
0.538704 0.419201 lineto
0.591686 0.468215 lineto
0.642688 0.513300 lineto
0.672352 0.533174 lineto
0.705477 0.556322 lineto
0.739648 0.577875 lineto
0.762409 0.579926 lineto
0.779800 0.632324 lineto
0.802704 0.671711 lineto
0.826698 0.717230 lineto
0.848575 0.789593 lineto
0.873123 0.839087 lineto
0.903239 0.886172 lineto
0.943012 0.962329 lineto
0.970973 1.016717 lineto
0.987040 1.048333 lineto
0.992237 1.055073 lineto
stroke
newpath
0.302218 0.387369 moveto
0.338597 0.406012 lineto
0.424387 0.428446 lineto
0.483674 0.466158 lineto
0.555166 0.505911 lineto
0.600332 0.541535 lineto
0.629526 0.572080 lineto
0.657812 0.605469 lineto
0.696319 0.629560 lineto
0.724883 0.643685 lineto
0.753067 0.684462 lineto
0.773153 0.715106 lineto
0.804490 0.771771 lineto
0.828670 0.801219 lineto
0.851041 0.851498 lineto
0.868906 0.903610 lineto
0.907327 0.965689 lineto
0.938227 1.028355 lineto
0.970337 1.063842 lineto
0.979218 1.080935 lineto
stroke
newpath
0.331730 0.448429 moveto
0.376719 0.474171 lineto
0.453943 0.517258 lineto
0.504352 0.549528 lineto
0.558068 0.573104 lineto
0.603166 0.612961 lineto
0.629968 0.640797 lineto
0.652445 0.668770 lineto
0.691536 0.694515 lineto
0.723407 0.726665 lineto
0.753480 0.754895 lineto
0.779292 0.801099 lineto
0.804127 0.853491 lineto
0.825542 0.887358 lineto
0.847476 0.916237 lineto
0.880761 0.996338 lineto
0.907321 1.049570 lineto
0.943092 1.097120 lineto
0.962031 1.117194 lineto
0.965664 1.131887 lineto
stroke
newpath
0.295249 0.522980 moveto
0.368853 0.553441 lineto
0.413511 0.563198 lineto
0.463086 0.581029 lineto
0.520685 0.613782 lineto
0.560425 0.641815 lineto
0.600503 0.666782 lineto
0.633468 0.701542 lineto
0.655471 0.729807 lineto
0.689376 0.793974 lineto
0.729612 0.812376 lineto
0.751559 0.844432 lineto
0.780777 0.891345 lineto
0.802177 0.928992 lineto
0.831979 0.970008 lineto
0.856954 1.018223 lineto
0.881931 1.069335 lineto
0.920851 1.122350 lineto
0.939372 1.144388 lineto
0.959235 1.153168 lineto
stroke
newpath
0.338945 0.607127 moveto
0.375299 0.644165 lineto
0.421928 0.655964 lineto
0.465612 0.684023 lineto
0.508287 0.697166 lineto
0.559888 0.704293 lineto
0.599887 0.735898 lineto
0.632946 0.788486 lineto
0.655826 0.821444 lineto
0.692740 0.875541 lineto
0.725743 0.889460 lineto
0.763059 0.941920 lineto
0.788220 0.985591 lineto
0.811710 1.022295 lineto
0.834002 1.050195 lineto
0.864333 1.089398 lineto
0.890990 1.132967 lineto
0.921704 1.163415 lineto
0.943014 1.180408 lineto
0.955484 1.175764 lineto
stroke
newpath
0.311166 0.623638 moveto
0.352142 0.670652 lineto
0.376575 0.710805 lineto
0.408470 0.714597 lineto
0.453774 0.744443 lineto
0.489564 0.776388 lineto
0.554468 0.798830 lineto
0.599875 0.829034 lineto
0.628073 0.845106 lineto
0.668787 0.892639 lineto
0.701434 0.935021 lineto
0.741689 0.990014 lineto
0.766030 1.022771 lineto
0.789333 1.039993 lineto
0.820799 1.083457 lineto
0.839397 1.116980 lineto
0.873272 1.158037 lineto
0.908262 1.190165 lineto
0.929673 1.198823 lineto
0.949318 1.207962 lineto
stroke
newpath
0.311584 0.702868 moveto
0.337937 0.725908 lineto
0.354860 0.763965 lineto
0.397496 0.791880 lineto
0.439238 0.797886 lineto
0.485890 0.823774 lineto
0.559305 0.854983 lineto
0.603791 0.890856 lineto
0.639084 0.937752 lineto
0.680981 0.980677 lineto
0.710985 1.015818 lineto
0.747853 1.045999 lineto
0.766783 1.062209 lineto
0.809761 1.107850 lineto
0.829638 1.135170 lineto
0.855044 1.179047 lineto
0.885186 1.203395 lineto
0.918960 1.222136 lineto
0.937547 1.233695 lineto
0.948054 1.245436 lineto
stroke
newpath
0.279275 0.771421 moveto
0.284423 0.790770 lineto
0.339525 0.798990 lineto
0.358458 0.809820 lineto
0.392455 0.842277 lineto
0.437842 0.851267 lineto
0.522273 0.895954 lineto
0.575057 0.951347 lineto
0.605024 0.982613 lineto
0.639567 1.028751 lineto
0.679732 1.055487 lineto
0.716798 1.067672 lineto
0.749915 1.093369 lineto
0.775353 1.135600 lineto
0.810281 1.173759 lineto
0.838206 1.200315 lineto
0.867286 1.220964 lineto
0.893334 1.244815 lineto
0.915937 1.257479 lineto
0.935455 1.273258 lineto
stroke
newpath
0.253646 0.838508 moveto
0.286165 0.828924 lineto
0.328936 0.852657 lineto
0.359640 0.889687 lineto
0.388029 0.887712 lineto
0.453911 0.951495 lineto
0.521378 0.981555 lineto
0.585043 1.015151 lineto
0.615331 1.051701 lineto
0.646284 1.096622 lineto
0.684905 1.134324 lineto
0.714929 1.147774 lineto
0.753942 1.185934 lineto
0.784193 1.206882 lineto
0.814692 1.232356 lineto
0.839994 1.251677 lineto
0.871734 1.270144 lineto
0.893916 1.284086 lineto
0.918850 1.287768 lineto
0.928472 1.297544 lineto
stroke
newpath
0.237594 0.876790 moveto
0.257835 0.890864 lineto
0.305303 0.908319 lineto
0.342212 0.933362 lineto
0.356564 0.945304 lineto
0.390605 1.000382 lineto
0.445822 1.030741 lineto
0.530166 1.071824 lineto
0.577408 1.101445 lineto
0.612856 1.133502 lineto
0.651625 1.160857 lineto
0.688327 1.183914 lineto
0.719383 1.217359 lineto
0.754942 1.246941 lineto
0.786308 1.265045 lineto
0.810070 1.273930 lineto
0.837167 1.301038 lineto
0.865241 1.321645 lineto
0.896485 1.350715 lineto
0.923792 1.360199 lineto
stroke
newpath
0.250399 0.918942 moveto
0.286200 0.948709 lineto
0.324289 0.971186 lineto
0.343437 0.979881 lineto
0.340706 1.020920 lineto
0.398275 1.070300 lineto
0.457061 1.104189 lineto
0.551411 1.133191 lineto
0.576421 1.154213 lineto
0.623214 1.184983 lineto
0.658088 1.221661 lineto
0.694025 1.241580 lineto
0.731007 1.276965 lineto
0.761468 1.295162 lineto
0.783270 1.321325 lineto
0.817961 1.335503 lineto
0.840444 1.379539 lineto
0.878736 1.413601 lineto
0.905619 1.431170 lineto
0.913985 1.460727 lineto
stroke
newpath
0.270724 0.913534 moveto
0.275490 0.960227 lineto
0.288175 1.007881 lineto
0.289162 1.038947 lineto
0.311621 1.054310 lineto
0.362939 1.093556 lineto
0.390848 1.150052 lineto
0.444073 1.199709 lineto
0.503497 1.228909 lineto
0.578750 1.233057 lineto
0.622533 1.255345 lineto
0.664345 1.291225 lineto
0.704361 1.311862 lineto
0.731666 1.340159 lineto
0.760270 1.363866 lineto
0.783659 1.389474 lineto
0.819861 1.430370 lineto
0.846459 1.456595 lineto
0.868975 1.483832 lineto
0.887764 1.506819 lineto
stroke
newpath
0.243287 0.959963 moveto
0.273201 0.998061 lineto
0.318727 1.040904 lineto
0.312996 1.105058 lineto
0.296887 1.173948 lineto
0.329911 1.219237 lineto
0.392067 1.246778 lineto
0.432111 1.287330 lineto
0.504812 1.299064 lineto
0.568242 1.311667 lineto
0.622660 1.340980 lineto
0.670472 1.346925 lineto
0.712688 1.377023 lineto
0.739469 1.420922 lineto
0.761994 1.436186 lineto
0.789759 1.472792 lineto
0.818845 1.496486 lineto
0.848970 1.515366 lineto
0.870650 1.537229 lineto
0.889548 1.559508 lineto
stroke
newpath
0.182549 0.876225 moveto
0.236814 0.970480 lineto
0.270139 1.017275 lineto
0.289356 1.074470 lineto
0.331484 1.170005 lineto
0.315488 1.234961 lineto
0.322231 1.283325 lineto
0.362573 1.311297 lineto
0.431294 1.353180 lineto
0.507947 1.346140 lineto
0.571141 1.372888 lineto
0.621115 1.411365 lineto
0.673397 1.438434 lineto
0.704997 1.464453 lineto
0.737771 1.479694 lineto
0.766214 1.523139 lineto
0.787981 1.553363 lineto
0.817560 1.567598 lineto
0.849012 1.586422 lineto
0.864326 1.601617 lineto
stroke
newpath
0.197278 0.906546 moveto
0.221895 0.930017 lineto
0.298980 1.066153 lineto
0.320820 1.137075 lineto
0.339167 1.234907 lineto
0.320799 1.317100 lineto
0.319734 1.360464 lineto
0.352475 1.400557 lineto
0.414627 1.397040 lineto
0.479086 1.448836 lineto
0.563626 1.475524 lineto
0.624446 1.484013 lineto
0.672153 1.504666 lineto
0.700691 1.541650 lineto
0.735256 1.561260 lineto
0.769395 1.586873 lineto
0.781943 1.616521 lineto
0.817485 1.635513 lineto
0.844723 1.646322 lineto
0.863926 1.631988 lineto
stroke
newpath
0.087724 0.753472 moveto
0.141407 0.794309 lineto
0.258615 0.936653 lineto
0.361499 1.104003 lineto
0.346591 1.175547 lineto
0.332838 1.273579 lineto
0.305201 1.395950 lineto
0.318437 1.422545 lineto
0.342543 1.488004 lineto
0.406186 1.523217 lineto
0.491093 1.525580 lineto
0.572647 1.542769 lineto
0.629134 1.560966 lineto
0.663661 1.591737 lineto
0.702336 1.621809 lineto
0.725262 1.648051 lineto
0.755697 1.660932 lineto
0.791093 1.660671 lineto
0.835421 1.672859 lineto
0.867127 1.670595 lineto
stroke
newpath
0.071691 0.724818 moveto
0.137546 0.810932 lineto
0.310233 0.940388 lineto
0.347393 1.115928 lineto
0.362218 1.229971 lineto
0.335766 1.338574 lineto
0.311752 1.438281 lineto
0.316664 1.476693 lineto
0.368297 1.548594 lineto
0.426579 1.574288 lineto
0.494925 1.592260 lineto
0.576365 1.616960 lineto
0.625397 1.629057 lineto
0.668492 1.651615 lineto
0.703846 1.676398 lineto
0.725279 1.685790 lineto
0.765236 1.690029 lineto
0.817227 1.697738 lineto
0.869611 1.693723 lineto
0.910345 1.646851 lineto
stroke
newpath
0.000000 0.642788 moveto
0.090205 0.682502 lineto
0.159655 0.780677 lineto
0.318321 0.981881 lineto
0.407117 1.165363 lineto
0.369819 1.273376 lineto
0.320541 1.380285 lineto
0.331380 1.469141 lineto
0.349148 1.533283 lineto
0.408312 1.584179 lineto
0.446918 1.614711 lineto
0.528172 1.634624 lineto
0.590620 1.652347 lineto
0.646801 1.663855 lineto
0.682321 1.678789 lineto
0.716786 1.690224 lineto
0.741908 1.697655 lineto
0.813441 1.705863 lineto
0.864406 1.706004 lineto
0.926664 1.657977 lineto
stroke
newpath
0.048454 0.610785 moveto
0.100259 0.717876 lineto
0.229505 0.828336 lineto
0.435314 1.001464 lineto
0.434367 1.177110 lineto
0.397334 1.296421 lineto
0.373959 1.426016 lineto
0.363567 1.497642 lineto
0.394774 1.568802 lineto
0.444765 1.601544 lineto
0.501589 1.622698 lineto
0.553050 1.644230 lineto
0.603974 1.656442 lineto
0.661873 1.667740 lineto
0.703649 1.681560 lineto
0.731849 1.692839 lineto
0.785269 1.690758 lineto
0.901013 1.686624 lineto
0.955881 1.666206 lineto
0.979100 1.657391 lineto
stroke
newpath
0.074190 0.591746 moveto
0.122239 0.653410 lineto
0.221937 0.798192 lineto
0.416518 0.938945 lineto
0.455081 1.004944 lineto
0.490109 1.172908 lineto
0.455960 1.320117 lineto
0.412661 1.454649 lineto
0.397857 1.520373 lineto
0.446310 1.561254 lineto
0.490075 1.615271 lineto
0.529326 1.624838 lineto
0.572664 1.631229 lineto
0.639524 1.638274 lineto
0.675921 1.642408 lineto
0.717318 1.664416 lineto
0.783458 1.664495 lineto
0.889428 1.660468 lineto
0.950954 1.655795 lineto
0.995206 1.642110 lineto
stroke
newpath
0.152178 0.671439 moveto
0.214361 0.690857 lineto
0.325670 0.823295 lineto
0.452839 0.926168 lineto
0.503815 1.060378 lineto
0.480591 1.237879 lineto
0.509785 1.323730 lineto
0.397753 1.471239 lineto
0.462500 1.511233 lineto
0.478782 1.562887 lineto
0.513172 1.613430 lineto
0.559173 1.598307 lineto
0.617008 1.584085 lineto
0.671059 1.618609 lineto
0.706888 1.614180 lineto
0.764103 1.615171 lineto
0.878355 1.626894 lineto
0.950645 1.632746 lineto
1.012439 1.596548 lineto
1.024434 1.624541 lineto
stroke
newpath
0.114486 0.621044 moveto
0.183420 0.680042 lineto
0.367616 0.698903 lineto
0.344995 0.857763 lineto
0.388037 1.056149 lineto
0.456382 1.142268 lineto
0.559841 1.229654 lineto
0.487140 1.288400 lineto
0.468033 1.454941 lineto
0.470373 1.496058 lineto
0.513121 1.500504 lineto
0.540532 1.572250 lineto
0.585835 1.590781 lineto
0.651844 1.556082 lineto
0.690587 1.564977 lineto
0.735246 1.590587 lineto
0.829343 1.601967 lineto
0.907942 1.590265 lineto
1.008611 1.547586 lineto
0.983575 1.555348 lineto
stroke
newpath
0.161172 0.615554 moveto
0.084093 0.780962 lineto
0.260372 0.715185 lineto
0.556160 0.876566 lineto
0.406587 1.125855 lineto
0.449094 1.110952 lineto
0.223655 1.255657 lineto
0.356860 1.360125 lineto
0.391241 1.306310 lineto
0.532923 1.433717 lineto
0.512707 1.537741 lineto
0.569452 1.485274 lineto
0.638436 1.491717 lineto
0.643713 1.514570 lineto
0.753670 1.514215 lineto
0.870809 1.462472 lineto
0.950189 1.491506 lineto
0.997069 1.469612 lineto
1.047763 1.495290 lineto
0.270731 1.395615 lineto
stroke
newpath
0.312378 0.000000 moveto
0.320272 0.019944 lineto
0.259662 0.043583 lineto
0.264861 0.096590 lineto
0.249497 0.130967 lineto
0.296889 0.199999 lineto
0.284298 0.252701 lineto
0.319039 0.315412 lineto
0.302218 0.387369 lineto
0.331730 0.448429 lineto
0.295249 0.522980 lineto
0.338945 0.607127 lineto
0.311166 0.623638 lineto
0.311584 0.702868 lineto
0.279275 0.771421 lineto
0.253646 0.838508 lineto
0.237594 0.876790 lineto
0.250399 0.918942 lineto
0.270724 0.913534 lineto
0.243287 0.959963 lineto
0.182549 0.876225 lineto
0.197278 0.906546 lineto
0.087724 0.753472 lineto
0.071691 0.724818 lineto
0.000000 0.642788 lineto
0.048454 0.610785 lineto
0.074190 0.591746 lineto
0.152178 0.671439 lineto
0.114486 0.621044 lineto
0.161172 0.615554 lineto
stroke
newpath
0.359658 0.005141 moveto
0.381322 0.036963 lineto
0.320770 0.055264 lineto
0.341851 0.115709 lineto
0.301573 0.142196 lineto
0.374897 0.227746 lineto
0.338401 0.276652 lineto
0.381608 0.346837 lineto
0.338597 0.406012 lineto
0.376719 0.474171 lineto
0.368853 0.553441 lineto
0.375299 0.644165 lineto
0.352142 0.670652 lineto
0.337937 0.725908 lineto
0.284423 0.790770 lineto
0.286165 0.828924 lineto
0.257835 0.890864 lineto
0.286200 0.948709 lineto
0.275490 0.960227 lineto
0.273201 0.998061 lineto
0.236814 0.970480 lineto
0.221895 0.930017 lineto
0.141407 0.794309 lineto
0.137546 0.810932 lineto
0.090205 0.682502 lineto
0.100259 0.717876 lineto
0.122239 0.653410 lineto
0.214361 0.690857 lineto
0.183420 0.680042 lineto
0.084093 0.780962 lineto
stroke
newpath
0.430496 0.024709 moveto
0.462085 0.070229 lineto
0.406817 0.080072 lineto
0.444079 0.149701 lineto
0.402641 0.187146 lineto
0.478967 0.274790 lineto
0.429308 0.322828 lineto
0.464485 0.391780 lineto
0.424387 0.428446 lineto
0.453943 0.517258 lineto
0.413511 0.563198 lineto
0.421928 0.655964 lineto
0.376575 0.710805 lineto
0.354860 0.763965 lineto
0.339525 0.798990 lineto
0.328936 0.852657 lineto
0.305303 0.908319 lineto
0.324289 0.971186 lineto
0.288175 1.007881 lineto
0.318727 1.040904 lineto
0.270139 1.017275 lineto
0.298980 1.066153 lineto
0.258615 0.936653 lineto
0.310233 0.940388 lineto
0.159655 0.780677 lineto
0.229505 0.828336 lineto
0.221937 0.798192 lineto
0.325670 0.823295 lineto
0.367616 0.698903 lineto
0.260372 0.715185 lineto
stroke
newpath
0.509536 0.067196 moveto
0.559721 0.106602 lineto
0.502673 0.124824 lineto
0.554713 0.205509 lineto
0.526166 0.242379 lineto
0.559451 0.313185 lineto
0.518580 0.367982 lineto
0.538704 0.419201 lineto
0.483674 0.466158 lineto
0.504352 0.549528 lineto
0.463086 0.581029 lineto
0.465612 0.684023 lineto
0.408470 0.714597 lineto
0.397496 0.791880 lineto
0.358458 0.809820 lineto
0.359640 0.889687 lineto
0.342212 0.933362 lineto
0.343437 0.979881 lineto
0.289162 1.038947 lineto
0.312996 1.105058 lineto
0.289356 1.074470 lineto
0.320820 1.137075 lineto
0.361499 1.104003 lineto
0.347393 1.115928 lineto
0.318321 0.981881 lineto
0.435314 1.001464 lineto
0.416518 0.938945 lineto
0.452839 0.926168 lineto
0.344995 0.857763 lineto
0.556160 0.876566 lineto
stroke
newpath
0.589135 0.097055 moveto
0.619098 0.133576 lineto
0.588555 0.160841 lineto
0.615010 0.255294 lineto
0.599831 0.287039 lineto
0.622644 0.359131 lineto
0.589542 0.410982 lineto
0.591686 0.468215 lineto
0.555166 0.505911 lineto
0.558068 0.573104 lineto
0.520685 0.613782 lineto
0.508287 0.697166 lineto
0.453774 0.744443 lineto
0.439238 0.797886 lineto
0.392455 0.842277 lineto
0.388029 0.887712 lineto
0.356564 0.945304 lineto
0.340706 1.020920 lineto
0.311621 1.054310 lineto
0.296887 1.173948 lineto
0.331484 1.170005 lineto
0.339167 1.234907 lineto
0.346591 1.175547 lineto
0.362218 1.229971 lineto
0.407117 1.165363 lineto
0.434367 1.177110 lineto
0.455081 1.004944 lineto
0.503815 1.060378 lineto
0.388037 1.056149 lineto
0.406587 1.125855 lineto
stroke
newpath
0.648658 0.125993 moveto
0.688876 0.175648 lineto
0.654983 0.205520 lineto
0.691062 0.295800 lineto
0.650699 0.325072 lineto
0.677460 0.406769 lineto
0.631141 0.443126 lineto
0.642688 0.513300 lineto
0.600332 0.541535 lineto
0.603166 0.612961 lineto
0.560425 0.641815 lineto
0.559888 0.704293 lineto
0.489564 0.776388 lineto
0.485890 0.823774 lineto
0.437842 0.851267 lineto
0.453911 0.951495 lineto
0.390605 1.000382 lineto
0.398275 1.070300 lineto
0.362939 1.093556 lineto
0.329911 1.219237 lineto
0.315488 1.234961 lineto
0.320799 1.317100 lineto
0.332838 1.273579 lineto
0.335766 1.338574 lineto
0.369819 1.273376 lineto
0.397334 1.296421 lineto
0.490109 1.172908 lineto
0.480591 1.237879 lineto
0.456382 1.142268 lineto
0.449094 1.110952 lineto
stroke
newpath
0.720281 0.170055 moveto
0.741720 0.214019 lineto
0.711294 0.243743 lineto
0.735992 0.323946 lineto
0.700475 0.352021 lineto
0.713279 0.434040 lineto
0.680138 0.480468 lineto
0.672352 0.533174 lineto
0.629526 0.572080 lineto
0.629968 0.640797 lineto
0.600503 0.666782 lineto
0.599887 0.735898 lineto
0.554468 0.798830 lineto
0.559305 0.854983 lineto
0.522273 0.895954 lineto
0.521378 0.981555 lineto
0.445822 1.030741 lineto
0.457061 1.104189 lineto
0.390848 1.150052 lineto
0.392067 1.246778 lineto
0.322231 1.283325 lineto
0.319734 1.360464 lineto
0.305201 1.395950 lineto
0.311752 1.438281 lineto
0.320541 1.380285 lineto
0.373959 1.426016 lineto
0.455960 1.320117 lineto
0.509785 1.323730 lineto
0.559841 1.229654 lineto
0.223655 1.255657 lineto
stroke
newpath
0.775035 0.203078 moveto
0.789323 0.241981 lineto
0.766298 0.282839 lineto
0.781077 0.354025 lineto
0.751464 0.389520 lineto
0.747571 0.455915 lineto
0.712985 0.487679 lineto
0.705477 0.556322 lineto
0.657812 0.605469 lineto
0.652445 0.668770 lineto
0.633468 0.701542 lineto
0.632946 0.788486 lineto
0.599875 0.829034 lineto
0.603791 0.890856 lineto
0.575057 0.951347 lineto
0.585043 1.015151 lineto
0.530166 1.071824 lineto
0.551411 1.133191 lineto
0.444073 1.199709 lineto
0.432111 1.287330 lineto
0.362573 1.311297 lineto
0.352475 1.400557 lineto
0.318437 1.422545 lineto
0.316664 1.476693 lineto
0.331380 1.469141 lineto
0.363567 1.497642 lineto
0.412661 1.454649 lineto
0.397753 1.471239 lineto
0.487140 1.288400 lineto
0.356860 1.360125 lineto
stroke
newpath
0.815168 0.232895 moveto
0.844397 0.281852 lineto
0.816851 0.302346 lineto
0.823752 0.371675 lineto
0.782029 0.406371 lineto
0.783376 0.487814 lineto
0.746369 0.516195 lineto
0.739648 0.577875 lineto
0.696319 0.629560 lineto
0.691536 0.694515 lineto
0.655471 0.729807 lineto
0.655826 0.821444 lineto
0.628073 0.845106 lineto
0.639084 0.937752 lineto
0.605024 0.982613 lineto
0.615331 1.051701 lineto
0.577408 1.101445 lineto
0.576421 1.154213 lineto
0.503497 1.228909 lineto
0.504812 1.299064 lineto
0.431294 1.353180 lineto
0.414627 1.397040 lineto
0.342543 1.488004 lineto
0.368297 1.548594 lineto
0.349148 1.533283 lineto
0.394774 1.568802 lineto
0.397857 1.520373 lineto
0.462500 1.511233 lineto
0.468033 1.454941 lineto
0.391241 1.306310 lineto
stroke
newpath
0.860479 0.277641 moveto
0.868999 0.316921 lineto
0.853376 0.340735 lineto
0.847550 0.436996 lineto
0.825351 0.458158 lineto
0.805776 0.505387 lineto
0.777550 0.528990 lineto
0.762409 0.579926 lineto
0.724883 0.643685 lineto
0.723407 0.726665 lineto
0.689376 0.793974 lineto
0.692740 0.875541 lineto
0.668787 0.892639 lineto
0.680981 0.980677 lineto
0.639567 1.028751 lineto
0.646284 1.096622 lineto
0.612856 1.133502 lineto
0.623214 1.184983 lineto
0.578750 1.233057 lineto
0.568242 1.311667 lineto
0.507947 1.346140 lineto
0.479086 1.448836 lineto
0.406186 1.523217 lineto
0.426579 1.574288 lineto
0.408312 1.584179 lineto
0.444765 1.601544 lineto
0.446310 1.561254 lineto
0.478782 1.562887 lineto
0.470373 1.496058 lineto
0.532923 1.433717 lineto
stroke
newpath
0.885664 0.327524 moveto
0.891251 0.399353 lineto
0.878380 0.396904 lineto
0.869261 0.473006 lineto
0.838624 0.483321 lineto
0.823139 0.525254 lineto
0.790357 0.546215 lineto
0.779800 0.632324 lineto
0.753067 0.684462 lineto
0.753480 0.754895 lineto
0.729612 0.812376 lineto
0.725743 0.889460 lineto
0.701434 0.935021 lineto
0.710985 1.015818 lineto
0.679732 1.055487 lineto
0.684905 1.134324 lineto
0.651625 1.160857 lineto
0.658088 1.221661 lineto
0.622533 1.255345 lineto
0.622660 1.340980 lineto
0.571141 1.372888 lineto
0.563626 1.475524 lineto
0.491093 1.525580 lineto
0.494925 1.592260 lineto
0.446918 1.614711 lineto
0.501589 1.622698 lineto
0.490075 1.615271 lineto
0.513172 1.613430 lineto
0.513121 1.500504 lineto
0.512707 1.537741 lineto
stroke
newpath
0.895734 0.419442 moveto
0.890863 0.458604 lineto
0.876092 0.460096 lineto
0.859238 0.514469 lineto
0.850345 0.522308 lineto
0.835734 0.568853 lineto
0.813204 0.585510 lineto
0.802704 0.671711 lineto
0.773153 0.715106 lineto
0.779292 0.801099 lineto
0.751559 0.844432 lineto
0.763059 0.941920 lineto
0.741689 0.990014 lineto
0.747853 1.045999 lineto
0.716798 1.067672 lineto
0.714929 1.147774 lineto
0.688327 1.183914 lineto
0.694025 1.241580 lineto
0.664345 1.291225 lineto
0.670472 1.346925 lineto
0.621115 1.411365 lineto
0.624446 1.484013 lineto
0.572647 1.542769 lineto
0.576365 1.616960 lineto
0.528172 1.634624 lineto
0.553050 1.644230 lineto
0.529326 1.624838 lineto
0.559173 1.598307 lineto
0.540532 1.572250 lineto
0.569452 1.485274 lineto
stroke
newpath
0.878397 0.508018 moveto
0.893348 0.547056 lineto
0.865081 0.531388 lineto
0.841811 0.593021 lineto
0.848515 0.575888 lineto
0.839615 0.640167 lineto
0.824026 0.648248 lineto
0.826698 0.717230 lineto
0.804490 0.771771 lineto
0.804127 0.853491 lineto
0.780777 0.891345 lineto
0.788220 0.985591 lineto
0.766030 1.022771 lineto
0.766783 1.062209 lineto
0.749915 1.093369 lineto
0.753942 1.185934 lineto
0.719383 1.217359 lineto
0.731007 1.276965 lineto
0.704361 1.311862 lineto
0.712688 1.377023 lineto
0.673397 1.438434 lineto
0.672153 1.504666 lineto
0.629134 1.560966 lineto
0.625397 1.629057 lineto
0.590620 1.652347 lineto
0.603974 1.656442 lineto
0.572664 1.631229 lineto
0.617008 1.584085 lineto
0.585835 1.590781 lineto
0.638436 1.491717 lineto
stroke
newpath
0.887846 0.548419 moveto
0.897644 0.580605 lineto
0.881473 0.589214 lineto
0.872403 0.632155 lineto
0.852762 0.643761 lineto
0.865076 0.681332 lineto
0.844736 0.696974 lineto
0.848575 0.789593 lineto
0.828670 0.801219 lineto
0.825542 0.887358 lineto
0.802177 0.928992 lineto
0.811710 1.022295 lineto
0.789333 1.039993 lineto
0.809761 1.107850 lineto
0.775353 1.135600 lineto
0.784193 1.206882 lineto
0.754942 1.246941 lineto
0.761468 1.295162 lineto
0.731666 1.340159 lineto
0.739469 1.420922 lineto
0.704997 1.464453 lineto
0.700691 1.541650 lineto
0.663661 1.591737 lineto
0.668492 1.651615 lineto
0.646801 1.663855 lineto
0.661873 1.667740 lineto
0.639524 1.638274 lineto
0.671059 1.618609 lineto
0.651844 1.556082 lineto
0.643713 1.514570 lineto
stroke
newpath
0.923142 0.580133 moveto
0.927842 0.601107 lineto
0.887343 0.613510 lineto
0.899299 0.669300 lineto
0.876071 0.682884 lineto
0.885535 0.739977 lineto
0.874060 0.752377 lineto
0.873123 0.839087 lineto
0.851041 0.851498 lineto
0.847476 0.916237 lineto
0.831979 0.970008 lineto
0.834002 1.050195 lineto
0.820799 1.083457 lineto
0.829638 1.135170 lineto
0.810281 1.173759 lineto
0.814692 1.232356 lineto
0.786308 1.265045 lineto
0.783270 1.321325 lineto
0.760270 1.363866 lineto
0.761994 1.436186 lineto
0.737771 1.479694 lineto
0.735256 1.561260 lineto
0.702336 1.621809 lineto
0.703846 1.676398 lineto
0.682321 1.678789 lineto
0.703649 1.681560 lineto
0.675921 1.642408 lineto
0.706888 1.614180 lineto
0.690587 1.564977 lineto
0.753670 1.514215 lineto
stroke
newpath
0.957013 0.587874 moveto
0.959623 0.619807 lineto
0.921435 0.643467 lineto
0.933406 0.707608 lineto
0.916877 0.726022 lineto
0.925503 0.798342 lineto
0.896605 0.821129 lineto
0.903239 0.886172 lineto
0.868906 0.903610 lineto
0.880761 0.996338 lineto
0.856954 1.018223 lineto
0.864333 1.089398 lineto
0.839397 1.116980 lineto
0.855044 1.179047 lineto
0.838206 1.200315 lineto
0.839994 1.251677 lineto
0.810070 1.273930 lineto
0.817961 1.335503 lineto
0.783659 1.389474 lineto
0.789759 1.472792 lineto
0.766214 1.523139 lineto
0.769395 1.586873 lineto
0.725262 1.648051 lineto
0.725279 1.685790 lineto
0.716786 1.690224 lineto
0.731849 1.692839 lineto
0.717318 1.664416 lineto
0.764103 1.615171 lineto
0.735246 1.590587 lineto
0.870809 1.462472 lineto
stroke
newpath
0.987815 0.611790 moveto
1.004763 0.653782 lineto
0.968432 0.668725 lineto
0.959168 0.753803 lineto
0.947914 0.780477 lineto
0.965079 0.862765 lineto
0.936506 0.876721 lineto
0.943012 0.962329 lineto
0.907327 0.965689 lineto
0.907321 1.049570 lineto
0.881931 1.069335 lineto
0.890990 1.132967 lineto
0.873272 1.158037 lineto
0.885186 1.203395 lineto
0.867286 1.220964 lineto
0.871734 1.270144 lineto
0.837167 1.301038 lineto
0.840444 1.379539 lineto
0.819861 1.430370 lineto
0.818845 1.496486 lineto
0.787981 1.553363 lineto
0.781943 1.616521 lineto
0.755697 1.660932 lineto
0.765236 1.690029 lineto
0.741908 1.697655 lineto
0.785269 1.690758 lineto
0.783458 1.664495 lineto
0.878355 1.626894 lineto
0.829343 1.601967 lineto
0.950189 1.491506 lineto
stroke
newpath
1.015520 0.661121 moveto
1.014584 0.694043 lineto
0.998507 0.711389 lineto
0.975985 0.800546 lineto
0.962466 0.815459 lineto
0.985273 0.898024 lineto
0.969766 0.935848 lineto
0.970973 1.016717 lineto
0.938227 1.028355 lineto
0.943092 1.097120 lineto
0.920851 1.122350 lineto
0.921704 1.163415 lineto
0.908262 1.190165 lineto
0.918960 1.222136 lineto
0.893334 1.244815 lineto
0.893916 1.284086 lineto
0.865241 1.321645 lineto
0.878736 1.413601 lineto
0.846459 1.456595 lineto
0.848970 1.515366 lineto
0.817560 1.567598 lineto
0.817485 1.635513 lineto
0.791093 1.660671 lineto
0.817227 1.697738 lineto
0.813441 1.705863 lineto
0.901013 1.686624 lineto
0.889428 1.660468 lineto
0.950645 1.632746 lineto
0.907942 1.590265 lineto
0.997069 1.469612 lineto
stroke
newpath
1.023912 0.687146 moveto
1.019152 0.736517 lineto
1.010463 0.746160 lineto
0.996873 0.837868 lineto
0.992505 0.883739 lineto
1.008253 0.942203 lineto
0.997502 0.983458 lineto
0.987040 1.048333 lineto
0.970337 1.063842 lineto
0.962031 1.117194 lineto
0.939372 1.144388 lineto
0.943014 1.180408 lineto
0.929673 1.198823 lineto
0.937547 1.233695 lineto
0.915937 1.257479 lineto
0.918850 1.287768 lineto
0.896485 1.350715 lineto
0.905619 1.431170 lineto
0.868975 1.483832 lineto
0.870650 1.537229 lineto
0.849012 1.586422 lineto
0.844723 1.646322 lineto
0.835421 1.672859 lineto
0.869611 1.693723 lineto
0.864406 1.706004 lineto
0.955881 1.666206 lineto
0.950954 1.655795 lineto
1.012439 1.596548 lineto
1.008611 1.547586 lineto
1.047763 1.495290 lineto
stroke
newpath
1.015616 0.717263 moveto
1.007234 0.772817 lineto
1.006382 0.792337 lineto
1.010383 0.871664 lineto
1.008003 0.917831 lineto
1.013831 0.967534 lineto
1.005489 1.015541 lineto
0.992237 1.055073 lineto
0.979218 1.080935 lineto
0.965664 1.131887 lineto
0.959235 1.153168 lineto
0.955484 1.175764 lineto
0.949318 1.207962 lineto
0.948054 1.245436 lineto
0.935455 1.273258 lineto
0.928472 1.297544 lineto
0.923792 1.360199 lineto
0.913985 1.460727 lineto
0.887764 1.506819 lineto
0.889548 1.559508 lineto
0.864326 1.601617 lineto
0.863926 1.631988 lineto
0.867127 1.670595 lineto
0.910345 1.646851 lineto
0.926664 1.657977 lineto
0.979100 1.657391 lineto
0.995206 1.642110 lineto
1.024434 1.624541 lineto
0.983575 1.555348 lineto
0.270731 1.395615 lineto
stroke
showpage
