%!PS-Adobe-2.0 EPSF-2.0
%%Title: undefined
%%Creator: sammon
%%Pages: 1
%%EndComments
40 40 translate
/gscale 357.787537 def
gscale dup scale
/Helvetica findfont 12 gscale div scalefont setfont
/radius 0.005590 def
/LN
{newpath
radius 0 360 arc fill
} def
/LP
{dup stringwidth pop
-2 div 0 rmoveto show} def
0.000559 setlinewidth
0 setgray
1.034396 1.639404 LN
1.034396 1.639404 moveto
(multinube) LP
0.878466 1.936679 LN
0.878466 1.936679 moveto
(nube) LP
0.537320 1.280750 LN
0.537320 1.280750 moveto
(nube) LP
0.633795 0.746803 LN
0.633795 0.746803 moveto
(nube) LP
0.509823 1.945166 LN
0.509823 1.945166 moveto
(multinube) LP
0.653863 0.531408 LN
0.653863 0.531408 moveto
(nube) LP
0.812910 0.478036 LN
0.812910 0.478036 moveto
(nube) LP
0.499622 0.789037 LN
0.499622 0.789037 moveto
(nube) LP
0.000703 1.408272 LN
0.000703 1.408272 moveto
(nube) LP
0.321368 0.413342 LN
0.321368 0.413342 moveto
(nube) LP
0.289710 0.882124 LN
0.289710 0.882124 moveto
(multinube) LP
0.469284 0.581294 LN
0.469284 0.581294 moveto
(nube) LP
0.129559 1.162998 LN
0.129559 1.162998 moveto
(nube) LP
0.849031 0.762151 LN
0.849031 0.762151 moveto
(nube) LP
0.928987 1.151596 LN
0.928987 1.151596 moveto
(nube) LP
1.114691 0.711502 LN
1.114691 0.711502 moveto
(nube) LP
0.733437 0.734882 LN
0.733437 0.734882 moveto
(nube) LP
0.462616 0.986444 LN
0.462616 0.986444 moveto
(nube) LP
0.337285 0.689176 LN
0.337285 0.689176 moveto
(nube) LP
0.000000 0.131063 LN
0.000000 0.131063 moveto
(cieloDespejado) LP
0.437328 1.553389 LN
0.437328 1.553389 moveto
(multinube) LP
1.133415 0.921932 LN
1.133415 0.921932 moveto
(multinube) LP
0.714937 0.202744 LN
0.714937 0.202744 moveto
(cieloDespejado) LP
1.425427 1.120407 LN
1.425427 1.120407 moveto
(multinube) LP
0.243385 1.643008 LN
0.243385 1.643008 moveto
(multinube) LP
0.415967 0.204124 LN
0.415967 0.204124 moveto
(cieloDespejado) LP
0.425769 0.157922 LN
0.425769 0.157922 moveto
(cieloDespejado) LP
1.267844 1.461337 LN
1.267844 1.461337 moveto
(multinube) LP
0.562004 0.631080 LN
0.562004 0.631080 moveto
(multinube) LP
0.563437 0.180672 LN
0.563437 0.180672 moveto
(cieloDespejado) LP
0.495983 0.194861 LN
0.495983 0.194861 moveto
(cieloDespejado) LP
0.256895 1.248403 LN
0.256895 1.248403 moveto
(multinube) LP
0.948081 1.530560 LN
0.948081 1.530560 moveto
(multinube) LP
0.680329 1.510674 LN
0.680329 1.510674 moveto
(multinube) LP
0.738108 0.129450 LN
0.738108 0.129450 moveto
(cieloDespejado) LP
1.105933 0.073363 LN
1.105933 0.073363 moveto
(cieloDespejado) LP
0.366063 0.081846 LN
0.366063 0.081846 moveto
(cieloDespejado) LP
0.811655 0.000000 LN
0.811655 0.000000 moveto
(cieloDespejado) LP
0.471268 0.060394 LN
0.471268 0.060394 moveto
(cieloDespejado) LP
0.184632 0.876380 LN
0.184632 0.876380 moveto
(multinube) LP
1.124386 1.164385 LN
1.124386 1.164385 moveto
(multinube) LP
0.697016 1.032665 LN
0.697016 1.032665 moveto
(multinube) LP
0.579701 1.689692 LN
0.579701 1.689692 moveto
(multinube) LP
0.146223 0.178261 LN
0.146223 0.178261 moveto
(cieloDespejado) LP
0.822033 0.054979 LN
0.822033 0.054979 moveto
(cieloDespejado) LP
0.879264 0.196538 LN
0.879264 0.196538 moveto
(cieloDespejado) LP
0.526148 0.046130 LN
0.526148 0.046130 moveto
(cieloDespejado) LP
0.819556 1.675724 LN
0.819556 1.675724 moveto
(multinube) LP
0.670108 0.019824 LN
0.670108 0.019824 moveto
(cieloDespejado) LP
showpage
