%!PS-Adobe-2.0 EPSF-2.0
%%Title: undefined
%%Creator: sammon
%%Pages: 1
%%EndComments
40 40 translate
/gscale 230.504425 def
gscale dup scale
/Helvetica findfont 12 gscale div scalefont setfont
/radius 0.008677 def
/LN
{newpath
radius 0 360 arc fill
} def
/LP
{dup stringwidth pop
-2 div 0 rmoveto show} def
0.000868 setlinewidth
0 setgray
0.766895 0.388266 LN
0.807519 0.394980 LN
0.843955 0.413534 LN
0.889967 0.454128 LN
0.954843 0.473307 LN
1.015071 0.486653 LN
1.069505 0.515014 LN
1.122850 0.543545 LN
1.174818 0.557358 LN
1.202801 0.591845 LN
1.260138 0.616167 LN
1.312825 0.631763 LN
1.365293 0.640426 LN
1.414585 0.655307 LN
1.478647 0.668484 LN
1.531325 0.664657 LN
1.568904 0.662550 LN
1.608165 0.669395 LN
1.664356 0.674814 LN
1.712548 0.686246 LN
1.767447 0.703219 LN
1.805149 0.731563 LN
1.834762 0.735669 LN
1.864174 0.770733 LN
1.866868 0.806000 LN
1.826243 0.809014 LN
1.862139 0.901600 LN
1.691853 0.968604 LN
1.617215 1.073103 LN
1.361520 1.229955 LN
1.624433 1.842810 LN
0.946484 1.022935 LN
0.622802 1.574019 LN
0.664441 0.810222 LN
1.905988 1.683318 LN
0.282287 1.162607 LN
0.545745 2.086015 LN
0.672980 1.227258 LN
1.265774 1.993246 LN
0.884939 1.957691 LN
0.328521 0.704749 LN
0.691596 1.871407 LN
1.032430 2.196095 LN
0.805254 1.454057 LN
0.402182 1.708741 LN
1.072184 1.152322 LN
1.275345 1.190034 LN
1.015317 1.389556 LN
1.043713 1.947569 LN
1.380283 1.414679 LN
1.470087 1.919500 LN
0.561362 1.178971 LN
1.601537 1.509976 LN
0.572556 0.924316 LN
1.982248 1.521266 LN
0.164868 0.840419 LN
0.000000 1.208696 LN
2.212539 1.626847 LN
1.419544 0.000000 LN
1.791691 1.874834 LN
1.523718 2.176170 LN
1.017805 1.596663 LN
1.239528 1.761221 LN
0.244806 0.377615 LN
0.257452 1.456400 LN
2.087685 1.292431 LN
newpath
0.766895 0.388266 moveto
0.807519 0.394980 lineto
0.843955 0.413534 lineto
0.889967 0.454128 lineto
0.954843 0.473307 lineto
1.015071 0.486653 lineto
1.069505 0.515014 lineto
1.122850 0.543545 lineto
1.174818 0.557358 lineto
1.202801 0.591845 lineto
1.260138 0.616167 lineto
1.312825 0.631763 lineto
1.365293 0.640426 lineto
1.414585 0.655307 lineto
1.478647 0.668484 lineto
1.531325 0.664657 lineto
1.568904 0.662550 lineto
1.608165 0.669395 lineto
1.664356 0.674814 lineto
1.712548 0.686246 lineto
1.767447 0.703219 lineto
1.805149 0.731563 lineto
1.834762 0.735669 lineto
1.864174 0.770733 lineto
1.866868 0.806000 lineto
1.826243 0.809014 lineto
1.862139 0.901600 lineto
1.691853 0.968604 lineto
1.617215 1.073103 lineto
1.361520 1.229955 lineto
1.624433 1.842810 lineto
0.946484 1.022935 lineto
0.622802 1.574019 lineto
0.664441 0.810222 lineto
1.905988 1.683318 lineto
0.282287 1.162607 lineto
0.545745 2.086015 lineto
0.672980 1.227258 lineto
1.265774 1.993246 lineto
0.884939 1.957691 lineto
0.328521 0.704749 lineto
0.691596 1.871407 lineto
1.032430 2.196095 lineto
0.805254 1.454057 lineto
0.402182 1.708741 lineto
1.072184 1.152322 lineto
1.275345 1.190034 lineto
1.015317 1.389556 lineto
1.043713 1.947569 lineto
1.380283 1.414679 lineto
1.470087 1.919500 lineto
0.561362 1.178971 lineto
1.601537 1.509976 lineto
0.572556 0.924316 lineto
1.982248 1.521266 lineto
0.164868 0.840419 lineto
0.000000 1.208696 lineto
2.212539 1.626847 lineto
1.419544 0.000000 lineto
1.791691 1.874834 lineto
1.523718 2.176170 lineto
1.017805 1.596663 lineto
1.239528 1.761221 lineto
0.244806 0.377615 lineto
0.257452 1.456400 lineto
2.087685 1.292431 lineto
stroke
newpath
0.766895 0.388266 moveto
newpath
0.807519 0.394980 moveto
newpath
0.843955 0.413534 moveto
newpath
0.889967 0.454128 moveto
newpath
0.954843 0.473307 moveto
newpath
1.015071 0.486653 moveto
newpath
1.069505 0.515014 moveto
newpath
1.122850 0.543545 moveto
newpath
1.174818 0.557358 moveto
newpath
1.202801 0.591845 moveto
newpath
1.260138 0.616167 moveto
newpath
1.312825 0.631763 moveto
newpath
1.365293 0.640426 moveto
newpath
1.414585 0.655307 moveto
newpath
1.478647 0.668484 moveto
newpath
1.531325 0.664657 moveto
newpath
1.568904 0.662550 moveto
newpath
1.608165 0.669395 moveto
newpath
1.664356 0.674814 moveto
newpath
1.712548 0.686246 moveto
newpath
1.767447 0.703219 moveto
newpath
1.805149 0.731563 moveto
newpath
1.834762 0.735669 moveto
newpath
1.864174 0.770733 moveto
newpath
1.866868 0.806000 moveto
newpath
1.826243 0.809014 moveto
newpath
1.862139 0.901600 moveto
newpath
1.691853 0.968604 moveto
newpath
1.617215 1.073103 moveto
newpath
1.361520 1.229955 moveto
newpath
1.624433 1.842810 moveto
newpath
0.946484 1.022935 moveto
newpath
0.622802 1.574019 moveto
newpath
0.664441 0.810222 moveto
newpath
1.905988 1.683318 moveto
newpath
0.282287 1.162607 moveto
newpath
0.545745 2.086015 moveto
newpath
0.672980 1.227258 moveto
newpath
1.265774 1.993246 moveto
newpath
0.884939 1.957691 moveto
newpath
0.328521 0.704749 moveto
newpath
0.691596 1.871407 moveto
newpath
1.032430 2.196095 moveto
newpath
0.805254 1.454057 moveto
newpath
0.402182 1.708741 moveto
newpath
1.072184 1.152322 moveto
newpath
1.275345 1.190034 moveto
newpath
1.015317 1.389556 moveto
newpath
1.043713 1.947569 moveto
newpath
1.380283 1.414679 moveto
newpath
1.470087 1.919500 moveto
newpath
0.561362 1.178971 moveto
newpath
1.601537 1.509976 moveto
newpath
0.572556 0.924316 moveto
newpath
1.982248 1.521266 moveto
newpath
0.164868 0.840419 moveto
newpath
0.000000 1.208696 moveto
newpath
2.212539 1.626847 moveto
newpath
1.419544 0.000000 moveto
newpath
1.791691 1.874834 moveto
newpath
1.523718 2.176170 moveto
newpath
1.017805 1.596663 moveto
newpath
1.239528 1.761221 moveto
newpath
0.244806 0.377615 moveto
newpath
0.257452 1.456400 moveto
newpath
2.087685 1.292431 moveto
showpage
