%!PS-Adobe-2.0 EPSF-2.0
%%Title: undefined
%%Creator: sammon
%%Pages: 1
%%EndComments
40 40 translate
/gscale 582.935486 def
gscale dup scale
/Helvetica findfont 12 gscale div scalefont setfont
/radius 0.003431 def
/LN
{newpath
radius 0 360 arc fill
} def
/LP
{dup stringwidth pop
-2 div 0 rmoveto show} def
0.000343 setlinewidth
0 setgray
0.000000 0.000000 LN
0.042334 0.008006 LN
0.154433 0.038745 LN
0.291047 0.086489 LN
0.381361 0.132459 LN
0.471644 0.181516 LN
0.536413 0.225875 LN
0.519623 0.328767 LN
0.416655 0.454717 LN
0.360356 0.566601 LN
0.407140 0.688334 LN
0.522230 0.696153 LN
0.643966 0.671029 LN
0.761684 0.657957 LN
0.839287 0.719304 LN
0.874882 0.834427 LN
0.864867 0.968042 LN
0.810979 1.125305 LN
0.745626 1.244727 LN
0.691487 1.306031 LN
newpath
0.000000 0.000000 moveto
0.042334 0.008006 lineto
0.154433 0.038745 lineto
0.291047 0.086489 lineto
0.381361 0.132459 lineto
0.471644 0.181516 lineto
0.536413 0.225875 lineto
0.519623 0.328767 lineto
0.416655 0.454717 lineto
0.360356 0.566601 lineto
0.407140 0.688334 lineto
0.522230 0.696153 lineto
0.643966 0.671029 lineto
0.761684 0.657957 lineto
0.839287 0.719304 lineto
0.874882 0.834427 lineto
0.864867 0.968042 lineto
0.810979 1.125305 lineto
0.745626 1.244727 lineto
0.691487 1.306031 lineto
stroke
newpath
0.000000 0.000000 moveto
newpath
0.042334 0.008006 moveto
newpath
0.154433 0.038745 moveto
newpath
0.291047 0.086489 moveto
newpath
0.381361 0.132459 moveto
newpath
0.471644 0.181516 moveto
newpath
0.536413 0.225875 moveto
newpath
0.519623 0.328767 moveto
newpath
0.416655 0.454717 moveto
newpath
0.360356 0.566601 moveto
newpath
0.407140 0.688334 moveto
newpath
0.522230 0.696153 moveto
newpath
0.643966 0.671029 moveto
newpath
0.761684 0.657957 moveto
newpath
0.839287 0.719304 moveto
newpath
0.874882 0.834427 moveto
newpath
0.864867 0.968042 moveto
newpath
0.810979 1.125305 moveto
newpath
0.745626 1.244727 moveto
newpath
0.691487 1.306031 moveto
showpage
