%!PS-Adobe-2.0 EPSF-2.0
%%Title: undefined
%%Creator: sammon
%%Pages: 1
%%EndComments
40 40 translate
/gscale 336.401062 def
gscale dup scale
/Helvetica findfont 12 gscale div scalefont setfont
/radius 0.005945 def
/LN
{newpath
radius 0 360 arc fill
} def
/LP
{dup stringwidth pop
-2 div 0 rmoveto show} def
0.000595 setlinewidth
0 setgray
0.867935 0.431425 LN
0.867935 0.431425 moveto
(multinube) LP
0.791946 0.000000 LN
0.791946 0.000000 moveto
(nube) LP
0.027341 1.000276 LN
0.027341 1.000276 moveto
(nube) LP
0.807053 1.237395 LN
0.807053 1.237395 moveto
(nube) LP
0.442891 0.165569 LN
0.442891 0.165569 moveto
(multinube) LP
0.621597 1.526735 LN
0.621597 1.526735 moveto
(nube) LP
1.003440 1.392986 LN
1.003440 1.392986 moveto
(nube) LP
0.544765 1.330084 LN
0.544765 1.330084 moveto
(nube) LP
1.162688 0.592689 LN
1.162688 0.592689 moveto
(nube) LP
0.547668 1.761345 LN
0.547668 1.761345 moveto
(nube) LP
0.444612 1.244909 LN
0.444612 1.244909 moveto
(multinube) LP
0.826537 1.363514 LN
0.826537 1.363514 moveto
(nube) LP
0.165758 0.868453 LN
0.165758 0.868453 moveto
(nube) LP
1.012759 1.161783 LN
1.012759 1.161783 moveto
(nube) LP
0.848869 0.995134 LN
0.848869 0.995134 moveto
(nube) LP
1.175580 1.066626 LN
1.175580 1.066626 moveto
(nube) LP
0.361598 1.445987 LN
0.361598 1.445987 moveto
(nube) LP
0.338649 1.198451 LN
0.338649 1.198451 moveto
(nube) LP
0.447117 1.445418 LN
0.447117 1.445418 moveto
(nube) LP
0.741592 1.541320 LN
0.741592 1.541320 moveto
(nube) LP
1.364295 0.880054 LN
1.364295 0.880054 moveto
(nube) LP
0.615130 2.113161 LN
0.615130 2.113161 moveto
(cieloDespejado) LP
0.124419 0.707589 LN
0.124419 0.707589 moveto
(multinube) LP
0.872112 0.830546 LN
0.872112 0.830546 moveto
(nube) LP
0.315452 0.310311 LN
0.315452 0.310311 moveto
(nube) LP
0.757194 0.963955 LN
0.757194 0.963955 moveto
(multinube) LP
0.476362 1.669074 LN
0.476362 1.669074 moveto
(nube) LP
0.131828 0.492036 LN
0.131828 0.492036 moveto
(nube) LP
0.722732 0.204799 LN
0.722732 0.204799 moveto
(nube) LP
0.924964 1.566699 LN
0.924964 1.566699 moveto
(nube) LP
0.640735 1.518444 LN
0.640735 1.518444 moveto
(nube) LP
0.393063 1.535885 LN
0.393063 1.535885 moveto
(nube) LP
0.819874 0.499688 LN
0.819874 0.499688 moveto
(nube) LP
0.209641 0.843044 LN
0.209641 0.843044 moveto
(nube) LP
0.199077 0.318626 LN
0.199077 0.318626 moveto
(nube) LP
0.770159 1.594088 LN
0.770159 1.594088 moveto
(nube) LP
0.667602 1.771040 LN
0.667602 1.771040 moveto
(nube) LP
1.094012 1.770425 LN
1.094012 1.770425 moveto
(cieloDespejado) LP
0.679100 1.316871 LN
0.679100 1.316871 moveto
(nube) LP
0.346351 0.105878 LN
0.346351 0.105878 moveto
(nube) LP
0.402666 0.803434 LN
0.402666 0.803434 moveto
(multinube) LP
0.413944 0.621687 LN
0.413944 0.621687 moveto
(multinube) LP
0.884057 1.816208 LN
0.884057 1.816208 moveto
(cieloDespejado) LP
0.956483 1.799659 LN
0.956483 1.799659 moveto
(cieloDespejado) LP
0.602447 0.512251 LN
0.602447 0.512251 moveto
(multinube) LP
0.785624 1.451395 LN
0.785624 1.451395 moveto
(multinube) LP
0.858092 1.780150 LN
0.858092 1.780150 moveto
(cieloDespejado) LP
0.908738 1.768015 LN
0.908738 1.768015 moveto
(cieloDespejado) LP
0.588278 0.707700 LN
0.588278 0.707700 moveto
(multinube) LP
0.902286 0.317767 LN
0.902286 0.317767 moveto
(multinube) LP
0.359618 0.414133 LN
0.359618 0.414133 moveto
(multinube) LP
1.098361 1.724707 LN
1.098361 1.724707 moveto
(cieloDespejado) LP
1.457973 1.748437 LN
1.457973 1.748437 moveto
(cieloDespejado) LP
0.906774 1.924537 LN
0.906774 1.924537 moveto
(cieloDespejado) LP
1.191603 1.829681 LN
1.191603 1.829681 moveto
(cieloDespejado) LP
0.986361 1.876334 LN
0.986361 1.876334 moveto
(cieloDespejado) LP
0.254395 1.269354 LN
0.254395 1.269354 moveto
(multinube) LP
0.285722 0.686990 LN
0.285722 0.686990 moveto
(multinube) LP
0.616108 1.132011 LN
0.616108 1.132011 moveto
(multinube) LP
0.540115 0.272504 LN
0.540115 0.272504 moveto
(multinube) LP
0.536141 2.099114 LN
0.536141 2.099114 moveto
(cieloDespejado) LP
0.588318 0.671336 LN
0.588318 0.671336 moveto
(multinube) LP
0.473620 0.456549 LN
0.473620 0.456549 moveto
(multinube) LP
0.489363 0.886393 LN
0.489363 0.886393 moveto
(multinube) LP
0.228311 1.178835 LN
0.228311 1.178835 moveto
(multinube) LP
1.130645 1.901463 LN
1.130645 1.901463 moveto
(cieloDespejado) LP
0.733459 0.873512 LN
0.733459 0.873512 moveto
(multinube) LP
1.195962 1.645676 LN
1.195962 1.645676 moveto
(cieloDespejado) LP
0.261210 0.494933 LN
0.261210 0.494933 moveto
(multinube) LP
0.000000 0.914033 LN
0.000000 0.914033 moveto
(multinube) LP
0.153603 0.599194 LN
0.153603 0.599194 moveto
(multinube) LP
0.060929 0.344170 LN
0.060929 0.344170 moveto
(multinube) LP
0.338782 0.876299 LN
0.338782 0.876299 moveto
(multinube) LP
0.007597 0.562489 LN
0.007597 0.562489 moveto
(multinube) LP
0.398129 1.086475 LN
0.398129 1.086475 moveto
(multinube) LP
0.763745 0.292907 LN
0.763745 0.292907 moveto
(multinube) LP
0.618255 1.038644 LN
0.618255 1.038644 moveto
(multinube) LP
0.636685 0.963908 LN
0.636685 0.963908 moveto
(multinube) LP
1.001274 1.901818 LN
1.001274 1.901818 moveto
(cieloDespejado) LP
0.806531 1.828099 LN
0.806531 1.828099 moveto
(cieloDespejado) LP
0.269557 1.415322 LN
0.269557 1.415322 moveto
(multinube) LP
0.725145 1.152928 LN
0.725145 1.152928 moveto
(multinube) LP
1.467603 1.532800 LN
1.467603 1.532800 moveto
(cieloDespejado) LP
0.910397 1.994082 LN
0.910397 1.994082 moveto
(cieloDespejado) LP
1.284271 1.575900 LN
1.284271 1.575900 moveto
(cieloDespejado) LP
0.844012 2.003587 LN
0.844012 2.003587 moveto
(cieloDespejado) LP
0.334214 2.017662 LN
0.334214 2.017662 moveto
(cieloDespejado) LP
0.815933 1.940939 LN
0.815933 1.940939 moveto
(cieloDespejado) LP
0.928222 1.680762 LN
0.928222 1.680762 moveto
(cieloDespejado) LP
0.752341 1.969688 LN
0.752341 1.969688 moveto
(cieloDespejado) LP
0.675837 1.926569 LN
0.675837 1.926569 moveto
(cieloDespejado) LP
0.333017 2.259208 LN
0.333017 2.259208 moveto
(cieloDespejado) LP
0.922798 1.749519 LN
0.922798 1.749519 moveto
(cieloDespejado) LP
0.720196 1.956595 LN
0.720196 1.956595 moveto
(cieloDespejado) LP
0.693823 0.407808 LN
0.693823 0.407808 moveto
(multinube) LP
0.650350 0.044581 LN
0.650350 0.044581 moveto
(nube) LP
0.137806 0.972303 LN
0.137806 0.972303 moveto
(nube) LP
0.310912 0.112969 LN
0.310912 0.112969 moveto
(multinube) LP
0.407910 1.268450 LN
0.407910 1.268450 moveto
(multinube) LP
showpage
