0,267231388117
0,254383679426
0,36487265516
0,239277189175
0,310889637367
0,290723070786
0,240126848997
0,325962421701
0,305662113314
0,371744606941
0,322601028685
0,331453863799
0,439634611536
0,25028343158
0,402209045967
0,291717422839
0,175907302377
0,371306230834
0,23586936299
0,322956680687
0,277347798162
0,374148168273
0,272451630926
0,289375236786
0,462589917975
0,292686649993
0,354334875417
0,521152130647
0,683542032658
0,291021181984
0,405054717379
0,228237362399
0,319473927863
0,303537488524
0,282171144058
0,391469742461
0,244710743794
0,247528127748
0,228806014448
0,238699325798
0,300933473183
0,323259681203
0,373271504256
0,278718617464
0,439616007665
0,268277774742
0,365978309638
0,209763701264
0,280627658453
0,247027024728
0,492641220567
0,243706680063
0,293259652752
0,27600868529
0,33661689186
0,257460993618
0,342311516655
0,269265884276
0,245046896797
0,261605290726
0,352960891474
0,22649212042
0,365506616859
0,314484296065
0,285037420261
0,55154809304
0,308932004074
0,326238260692
0,278247111991
0,380657545665
0,237841253603
0,253270645544
0,286376829345
0,284633991716
0,50870094877
0,287321943334
0,325552678223
0,199702622382
0,281447124086
0,436929023468
0,48569014963
0,298484302256
0,350256777032
0,325531075765
0,251626389557
0,263582344403
0,336114506335
0,231966888254
0,458035980032
0,228689077674
0,254575118466
0,331837691293
0,381299430919
0,284531161679
0,426807830841
0,319356559195
0,282433968465
0,649299992823
0,377897004169
0,81261293054
0,392597331134
0,237973033763
0,706253624624
0,278413031417
0,260905493231
0,272253584903
0,491069831381
0,341271106992
0,21287644541
0,272716366796
0,226730128356
0,612118220281
0,292766100425
0,258814465284
0,256074735133
0,277361989959
0,2527573084
0,36955326901
0,23969789866
0,249649734461
0,271141367774
0,296633502234
0,242817818756
0,223051480253
0,199070590411
0,439726088688
0,652602694503
0,439961231915
0,334205464077
0,327892058881
0,388708260095
0,298790415179
0,276752940863
0,40888504312
0,343547939008
0,242898408372
0,327665428441
0,631857164907
0,245262143495
0,25487191366
0,339490072967
0,259974946803
0,507292935798
0,316170191213
0,294862314559
0,2261018159
0,307329514927
0,466925399128
0,334434008094
0,27502752869
0,280585121088
0,610697497638
0,249934568972
0,305186245186
0,304353761809
0,576729833452
0,643134646359
0,353679550682
0,392214657086
0,227669034749
0,321589588098
0,507605909866
0,36910812874
0,336448058857
0,350198421093
0,302087115556
0,379552899141
0,465557365704
0,534191620263
0,319717174307
0,382328857374
0,346012593398
0,344629098516
0,392692860549
0,178251108814
0,28390660828
0,237886326136
0,580772665214
0,353766284455
0,331931643413
0,299723757955
0,32442088151
0,223652063499
0,243392475865
0,287662555612
0,354770482201
0,352921336422
0,595861510473
0,290543349548
0,431619644181
0,652307745165
0,437075548956
0,258901020319
0,592739942516
0,341566168845
0,21113941353
0,247354054852
0,35223716151
0,239390278468
0,252865061684
0,229954194682
0,301647533938
0,253023878182
0,463721872112
0,300127035543
0,521137565933
0,492091837464
0,304091570309
0,248822710903
0,326700950044
0,342763940461
0,241179757259
0,28876853468
0,305813180364
0,596609293479
0,277029513766
0,202031989337
0,429835922511
0,278154936732
0,466011264042
0,283389056729
0,455394080206
0,308717703041
0,462693892293
0,303219975657
0,703995103718
0,392901431351
0,325986795234
0,23186709319
0,271813928643
0,296434827561
0,417182051155
0,464872552143
0,336193501836
0,289189925715
0,481765410749
0,311039946809
0,281085295608
0,259580540378
0,25637133652
0,275649588672
0,456742067577
0,591777673945
0,263745774828
0,260342359985
0,206474594502
0,479938894306
0,279669427495
0,247049245412
0,367659812869
0,270683080709
0,463137885822
0,374684188747
0,467964863882
0,285793989715
0,260079383154
0,376165178892
0,277758892326
0,315593191388
0,574117898615
0,32860345425
0,564130863059
0,421130332521
0,303145016855
0,232900062145
0,312992812799
0,448063011079
0,364649642419
0,530600904922
0,20709328009
0,42197025307
0,346009823118
0,2467467302
0,424871729348
0,282813206254
0,465474807137
0,31762941166
0,241711689669
0,284779134756
0,227634649458
0,338309150623
0,399133230412
0,527819856632
0,283764944943
0,384175711032
0,293085488867
0,249358433373
0,320581883005
0,35061346205
0,37230681222
0,3085599181
0,280948007828
0,320266361295
0,600054861618
0,257138705425
0,498467108503
0,288561086947
0,271439109821
0,554720521644
0,274341833729
0,334279623222
0,284296017376
0,319130993316
0,446528812056
0,245862793673
0,215190251281
0,376575291788
0,495647393839
0,320086400017
0,324200586523
0,35781667436
